ARM GAS  /tmp/ccDyfkg8.s 			page 1


   1              		.syntax unified
   2              		.cpu cortex-m3
   3              		.fpu softvfp
   4              		.eabi_attribute 20, 1
   5              		.eabi_attribute 21, 1
   6              		.eabi_attribute 23, 3
   7              		.eabi_attribute 24, 1
   8              		.eabi_attribute 25, 1
   9              		.eabi_attribute 26, 1
  10              		.eabi_attribute 30, 2
  11              		.eabi_attribute 34, 1
  12              		.eabi_attribute 18, 4
  13              		.thumb
  14              		.file	"chregistry.c"
  15              		.text
  16              	.Ltext0:
  17              		.cfi_sections	.debug_frame
  18              		.section	.text.chRegFirstThread,"ax",%progbits
  19              		.align	2
  20              		.p2align 4,,15
  21              		.global	chRegFirstThread
  22              		.thumb
  23              		.thumb_func
  24              		.type	chRegFirstThread, %function
  25              	chRegFirstThread:
  26              	.LFB7:
  27              		.file 1 "../../os/kernel/src/chregistry.c"
  28              		.loc 1 72 0
  29              		.cfi_startproc
  30              		@ args = 0, pretend = 0, frame = 0
  31              		@ frame_needed = 0, uses_anonymous_args = 0
  32              		@ link register save eliminated.
  33              	.LBB2:
  34              		.loc 1 75 0
  35 0000 2023     		movs	r3, #32
  36              	@ 75 "../../os/kernel/src/chregistry.c" 1
  37 0002 83F31188 		msr     BASEPRI, r3
  38              	@ 0 "" 2
  39              		.thumb
  40              	.LBE2:
  41              		.loc 1 76 0
  42 0006 40F20003 		movw	r3, #:lower16:rlist
  43 000a C0F20003 		movt	r3, #:upper16:rlist
  44 000e 1869     		ldr	r0, [r3, #16]
  45              	.LVL0:
  46              	.LBB3:
  47              		.loc 1 80 0
  48 0010 0023     		movs	r3, #0
  49              	.LBE3:
  50              		.loc 1 78 0
  51 0012 827F     		ldrb	r2, [r0, #30]	@ zero_extendqisi2
  52 0014 0132     		adds	r2, r2, #1
  53 0016 8277     		strb	r2, [r0, #30]
  54              	.LBB4:
  55              		.loc 1 80 0
  56              	@ 80 "../../os/kernel/src/chregistry.c" 1
  57 0018 83F31188 		msr     BASEPRI, r3
ARM GAS  /tmp/ccDyfkg8.s 			page 2


  58              	@ 0 "" 2
  59              		.thumb
  60              	.LBE4:
  61              		.loc 1 82 0
  62 001c 7047     		bx	lr
  63              		.cfi_endproc
  64              	.LFE7:
  65              		.size	chRegFirstThread, .-chRegFirstThread
  66 001e 00BF     		.section	.text.chRegNextThread,"ax",%progbits
  67              		.align	2
  68              		.p2align 4,,15
  69              		.global	chRegNextThread
  70              		.thumb
  71              		.thumb_func
  72              		.type	chRegNextThread, %function
  73              	chRegNextThread:
  74              	.LFB8:
  75              		.loc 1 95 0
  76              		.cfi_startproc
  77              		@ args = 0, pretend = 0, frame = 0
  78              		@ frame_needed = 0, uses_anonymous_args = 0
  79              	.LVL1:
  80 0000 10B5     		push	{r4, lr}
  81              		.cfi_def_cfa_offset 8
  82              		.cfi_offset 4, -8
  83              		.cfi_offset 14, -4
  84              	.LBB5:
  85              		.loc 1 98 0
  86 0002 2023     		movs	r3, #32
  87              	@ 98 "../../os/kernel/src/chregistry.c" 1
  88 0004 83F31188 		msr     BASEPRI, r3
  89              	@ 0 "" 2
  90              		.thumb
  91              	.LBE5:
  92              		.loc 1 100 0
  93 0008 40F20003 		movw	r3, #:lower16:rlist
  94              		.loc 1 99 0
  95 000c 0469     		ldr	r4, [r0, #16]
  96              	.LVL2:
  97              		.loc 1 100 0
  98 000e C0F20003 		movt	r3, #:upper16:rlist
  99 0012 9C42     		cmp	r4, r3
 100              		.loc 1 106 0
 101 0014 17BF     		itett	ne
 102 0016 A37F     		ldrbne	r3, [r4, #30]	@ zero_extendqisi2
 103              		.loc 1 101 0
 104 0018 0024     		moveq	r4, #0
 105              	.LVL3:
 106              		.loc 1 106 0
 107 001a 0133     		addne	r3, r3, #1
 108 001c A377     		strbne	r3, [r4, #30]
 109              	.LBB6:
 110              		.loc 1 109 0
 111 001e 0023     		movs	r3, #0
 112              	@ 109 "../../os/kernel/src/chregistry.c" 1
 113 0020 83F31188 		msr     BASEPRI, r3
 114              	@ 0 "" 2
ARM GAS  /tmp/ccDyfkg8.s 			page 3


 115              		.thumb
 116              	.LBE6:
 117              		.loc 1 111 0
 118 0024 FFF7FEFF 		bl	chThdRelease
 119              	.LVL4:
 120              		.loc 1 114 0
 121 0028 2046     		mov	r0, r4
 122 002a 10BD     		pop	{r4, pc}
 123              		.cfi_endproc
 124              	.LFE8:
 125              		.size	chRegNextThread, .-chRegNextThread
 126 002c AFF30080 		.text
 127              	.Letext0:
 128              		.file 2 "/usr/include/newlib/machine/_default_types.h"
 129              		.file 3 "/usr/include/newlib/stdint.h"
 130              		.file 4 "../../os/ports/GCC/ARMCMx/chtypes.h"
 131              		.file 5 "../../os/kernel/include/chlists.h"
 132              		.file 6 "../../os/kernel/include/chthreads.h"
 133              		.file 7 "../../os/ports/GCC/ARMCMx/chcore_v7m.h"
 134              		.file 8 "../../os/kernel/include/chschd.h"
 135              		.file 9 "../../os/kernel/include/chmtx.h"
 136              		.file 10 "../../os/kernel/include/chdynamic.h"
 137              		.section	.debug_info,"",%progbits
 138              	.Ldebug_info0:
 139 0000 E4040000 		.4byte	0x4e4
 140 0004 0400     		.2byte	0x4
 141 0006 00000000 		.4byte	.Ldebug_abbrev0
 142 000a 04       		.byte	0x4
 143 000b 01       		.uleb128 0x1
 144 000c A7000000 		.4byte	.LASF67
 145 0010 01       		.byte	0x1
 146 0011 20030000 		.4byte	.LASF68
 147 0015 D4010000 		.4byte	.LASF69
 148 0019 18000000 		.4byte	.Ldebug_ranges0+0x18
 149 001d 00000000 		.4byte	0
 150 0021 00000000 		.4byte	.Ldebug_line0
 151 0025 02       		.uleb128 0x2
 152 0026 04       		.byte	0x4
 153 0027 05       		.byte	0x5
 154 0028 696E7400 		.ascii	"int\000"
 155 002c 03       		.uleb128 0x3
 156 002d 04       		.byte	0x4
 157 002e 07       		.byte	0x7
 158 002f 55010000 		.4byte	.LASF0
 159 0033 03       		.uleb128 0x3
 160 0034 01       		.byte	0x1
 161 0035 06       		.byte	0x6
 162 0036 5D000000 		.4byte	.LASF1
 163 003a 04       		.uleb128 0x4
 164 003b 0D000000 		.4byte	.LASF5
 165 003f 02       		.byte	0x2
 166 0040 1C       		.byte	0x1c
 167 0041 45000000 		.4byte	0x45
 168 0045 03       		.uleb128 0x3
 169 0046 01       		.byte	0x1
 170 0047 08       		.byte	0x8
 171 0048 55020000 		.4byte	.LASF2
ARM GAS  /tmp/ccDyfkg8.s 			page 4


 172 004c 03       		.uleb128 0x3
 173 004d 02       		.byte	0x2
 174 004e 05       		.byte	0x5
 175 004f 6D020000 		.4byte	.LASF3
 176 0053 03       		.uleb128 0x3
 177 0054 02       		.byte	0x2
 178 0055 07       		.byte	0x7
 179 0056 7C010000 		.4byte	.LASF4
 180 005a 04       		.uleb128 0x4
 181 005b FD020000 		.4byte	.LASF6
 182 005f 02       		.byte	0x2
 183 0060 37       		.byte	0x37
 184 0061 65000000 		.4byte	0x65
 185 0065 03       		.uleb128 0x3
 186 0066 04       		.byte	0x4
 187 0067 05       		.byte	0x5
 188 0068 79000000 		.4byte	.LASF7
 189 006c 04       		.uleb128 0x4
 190 006d 93000000 		.4byte	.LASF8
 191 0071 02       		.byte	0x2
 192 0072 38       		.byte	0x38
 193 0073 77000000 		.4byte	0x77
 194 0077 03       		.uleb128 0x3
 195 0078 04       		.byte	0x4
 196 0079 07       		.byte	0x7
 197 007a 62010000 		.4byte	.LASF9
 198 007e 03       		.uleb128 0x3
 199 007f 08       		.byte	0x8
 200 0080 05       		.byte	0x5
 201 0081 4F000000 		.4byte	.LASF10
 202 0085 03       		.uleb128 0x3
 203 0086 08       		.byte	0x8
 204 0087 07       		.byte	0x7
 205 0088 17000000 		.4byte	.LASF11
 206 008c 04       		.uleb128 0x4
 207 008d 58030000 		.4byte	.LASF12
 208 0091 03       		.byte	0x3
 209 0092 2A       		.byte	0x2a
 210 0093 3A000000 		.4byte	0x3a
 211 0097 04       		.uleb128 0x4
 212 0098 4D020000 		.4byte	.LASF13
 213 009c 03       		.byte	0x3
 214 009d 41       		.byte	0x41
 215 009e 5A000000 		.4byte	0x5a
 216 00a2 04       		.uleb128 0x4
 217 00a3 BB020000 		.4byte	.LASF14
 218 00a7 03       		.byte	0x3
 219 00a8 42       		.byte	0x42
 220 00a9 6C000000 		.4byte	0x6c
 221 00ad 04       		.uleb128 0x4
 222 00ae 9D010000 		.4byte	.LASF15
 223 00b2 04       		.byte	0x4
 224 00b3 2F       		.byte	0x2f
 225 00b4 8C000000 		.4byte	0x8c
 226 00b8 04       		.uleb128 0x4
 227 00b9 82000000 		.4byte	.LASF16
 228 00bd 04       		.byte	0x4
ARM GAS  /tmp/ccDyfkg8.s 			page 5


 229 00be 30       		.byte	0x30
 230 00bf 8C000000 		.4byte	0x8c
 231 00c3 04       		.uleb128 0x4
 232 00c4 36020000 		.4byte	.LASF17
 233 00c8 04       		.byte	0x4
 234 00c9 31       		.byte	0x31
 235 00ca 8C000000 		.4byte	0x8c
 236 00ce 04       		.uleb128 0x4
 237 00cf 45020000 		.4byte	.LASF18
 238 00d3 04       		.byte	0x4
 239 00d4 32       		.byte	0x32
 240 00d5 A2000000 		.4byte	0xa2
 241 00d9 04       		.uleb128 0x4
 242 00da 8F010000 		.4byte	.LASF19
 243 00de 04       		.byte	0x4
 244 00df 33       		.byte	0x33
 245 00e0 97000000 		.4byte	0x97
 246 00e4 04       		.uleb128 0x4
 247 00e5 B1010000 		.4byte	.LASF20
 248 00e9 04       		.byte	0x4
 249 00ea 35       		.byte	0x35
 250 00eb A2000000 		.4byte	0xa2
 251 00ef 04       		.uleb128 0x4
 252 00f0 E8020000 		.4byte	.LASF21
 253 00f4 04       		.byte	0x4
 254 00f5 36       		.byte	0x36
 255 00f6 A2000000 		.4byte	0xa2
 256 00fa 04       		.uleb128 0x4
 257 00fb 4F010000 		.4byte	.LASF22
 258 00ff 04       		.byte	0x4
 259 0100 37       		.byte	0x37
 260 0101 97000000 		.4byte	0x97
 261 0105 04       		.uleb128 0x4
 262 0106 A9020000 		.4byte	.LASF23
 263 010a 05       		.byte	0x5
 264 010b 2A       		.byte	0x2a
 265 010c 10010000 		.4byte	0x110
 266 0110 05       		.uleb128 0x5
 267 0111 A9020000 		.4byte	.LASF23
 268 0115 48       		.byte	0x48
 269 0116 06       		.byte	0x6
 270 0117 5E       		.byte	0x5e
 271 0118 01020000 		.4byte	0x201
 272 011c 06       		.uleb128 0x6
 273 011d 8D020000 		.4byte	.LASF24
 274 0121 06       		.byte	0x6
 275 0122 5F       		.byte	0x5f
 276 0123 22020000 		.4byte	0x222
 277 0127 00       		.byte	0
 278 0128 06       		.uleb128 0x6
 279 0129 3E020000 		.4byte	.LASF25
 280 012d 06       		.byte	0x6
 281 012e 61       		.byte	0x61
 282 012f 22020000 		.4byte	0x222
 283 0133 04       		.byte	0x4
 284 0134 06       		.uleb128 0x6
 285 0135 48000000 		.4byte	.LASF26
ARM GAS  /tmp/ccDyfkg8.s 			page 6


 286 0139 06       		.byte	0x6
 287 013a 63       		.byte	0x63
 288 013b CE000000 		.4byte	0xce
 289 013f 08       		.byte	0x8
 290 0140 06       		.uleb128 0x6
 291 0141 80030000 		.4byte	.LASF27
 292 0145 06       		.byte	0x6
 293 0146 64       		.byte	0x64
 294 0147 DB020000 		.4byte	0x2db
 295 014b 0C       		.byte	0xc
 296 014c 06       		.uleb128 0x6
 297 014d 8B000000 		.4byte	.LASF28
 298 0151 06       		.byte	0x6
 299 0152 66       		.byte	0x66
 300 0153 22020000 		.4byte	0x222
 301 0157 10       		.byte	0x10
 302 0158 06       		.uleb128 0x6
 303 0159 CC010000 		.4byte	.LASF29
 304 015d 06       		.byte	0x6
 305 015e 67       		.byte	0x67
 306 015f 22020000 		.4byte	0x222
 307 0163 14       		.byte	0x14
 308 0164 06       		.uleb128 0x6
 309 0165 67030000 		.4byte	.LASF30
 310 0169 06       		.byte	0x6
 311 016a 6E       		.byte	0x6e
 312 016b E7030000 		.4byte	0x3e7
 313 016f 18       		.byte	0x18
 314 0170 06       		.uleb128 0x6
 315 0171 77020000 		.4byte	.LASF31
 316 0175 06       		.byte	0x6
 317 0176 79       		.byte	0x79
 318 0177 B8000000 		.4byte	0xb8
 319 017b 1C       		.byte	0x1c
 320 017c 06       		.uleb128 0x6
 321 017d 94020000 		.4byte	.LASF32
 322 0181 06       		.byte	0x6
 323 0182 7D       		.byte	0x7d
 324 0183 AD000000 		.4byte	0xad
 325 0187 1D       		.byte	0x1d
 326 0188 06       		.uleb128 0x6
 327 0189 41030000 		.4byte	.LASF33
 328 018d 06       		.byte	0x6
 329 018e 82       		.byte	0x82
 330 018f C3000000 		.4byte	0xc3
 331 0193 1E       		.byte	0x1e
 332 0194 06       		.uleb128 0x6
 333 0195 07030000 		.4byte	.LASF34
 334 0199 06       		.byte	0x6
 335 019a 89       		.byte	0x89
 336 019b 03030000 		.4byte	0x303
 337 019f 20       		.byte	0x20
 338 01a0 07       		.uleb128 0x7
 339 01a1 705F7500 		.ascii	"p_u\000"
 340 01a5 06       		.byte	0x6
 341 01a6 AE       		.byte	0xae
 342 01a7 B2030000 		.4byte	0x3b2
ARM GAS  /tmp/ccDyfkg8.s 			page 7


 343 01ab 24       		.byte	0x24
 344 01ac 06       		.uleb128 0x6
 345 01ad 86030000 		.4byte	.LASF35
 346 01b1 06       		.byte	0x6
 347 01b2 B3       		.byte	0xb3
 348 01b3 48020000 		.4byte	0x248
 349 01b7 28       		.byte	0x28
 350 01b8 06       		.uleb128 0x6
 351 01b9 15030000 		.4byte	.LASF36
 352 01bd 06       		.byte	0x6
 353 01be B9       		.byte	0xb9
 354 01bf 28020000 		.4byte	0x228
 355 01c3 2C       		.byte	0x2c
 356 01c4 06       		.uleb128 0x6
 357 01c5 00000000 		.4byte	.LASF37
 358 01c9 06       		.byte	0x6
 359 01ca BD       		.byte	0xbd
 360 01cb D9000000 		.4byte	0xd9
 361 01cf 34       		.byte	0x34
 362 01d0 06       		.uleb128 0x6
 363 01d1 B0020000 		.4byte	.LASF38
 364 01d5 06       		.byte	0x6
 365 01d6 C3       		.byte	0xc3
 366 01d7 E4000000 		.4byte	0xe4
 367 01db 38       		.byte	0x38
 368 01dc 06       		.uleb128 0x6
 369 01dd 63020000 		.4byte	.LASF39
 370 01e1 06       		.byte	0x6
 371 01e2 CA       		.byte	0xca
 372 01e3 F9030000 		.4byte	0x3f9
 373 01e7 3C       		.byte	0x3c
 374 01e8 06       		.uleb128 0x6
 375 01e9 F2020000 		.4byte	.LASF40
 376 01ed 06       		.byte	0x6
 377 01ee CE       		.byte	0xce
 378 01ef CE000000 		.4byte	0xce
 379 01f3 40       		.byte	0x40
 380 01f4 06       		.uleb128 0x6
 381 01f5 69000000 		.4byte	.LASF41
 382 01f9 06       		.byte	0x6
 383 01fa D4       		.byte	0xd4
 384 01fb 5E020000 		.4byte	0x25e
 385 01ff 44       		.byte	0x44
 386 0200 00       		.byte	0
 387 0201 08       		.uleb128 0x8
 388 0202 08       		.byte	0x8
 389 0203 05       		.byte	0x5
 390 0204 61       		.byte	0x61
 391 0205 22020000 		.4byte	0x222
 392 0209 06       		.uleb128 0x6
 393 020a 8D020000 		.4byte	.LASF24
 394 020e 05       		.byte	0x5
 395 020f 62       		.byte	0x62
 396 0210 22020000 		.4byte	0x222
 397 0214 00       		.byte	0
 398 0215 06       		.uleb128 0x6
 399 0216 3E020000 		.4byte	.LASF25
ARM GAS  /tmp/ccDyfkg8.s 			page 8


 400 021a 05       		.byte	0x5
 401 021b 64       		.byte	0x64
 402 021c 22020000 		.4byte	0x222
 403 0220 04       		.byte	0x4
 404 0221 00       		.byte	0
 405 0222 09       		.uleb128 0x9
 406 0223 04       		.byte	0x4
 407 0224 05010000 		.4byte	0x105
 408 0228 04       		.uleb128 0x4
 409 0229 17020000 		.4byte	.LASF42
 410 022d 05       		.byte	0x5
 411 022e 66       		.byte	0x66
 412 022f 01020000 		.4byte	0x201
 413 0233 08       		.uleb128 0x8
 414 0234 04       		.byte	0x4
 415 0235 05       		.byte	0x5
 416 0236 6B       		.byte	0x6b
 417 0237 48020000 		.4byte	0x248
 418 023b 06       		.uleb128 0x6
 419 023c 8D020000 		.4byte	.LASF24
 420 0240 05       		.byte	0x5
 421 0241 6D       		.byte	0x6d
 422 0242 22020000 		.4byte	0x222
 423 0246 00       		.byte	0
 424 0247 00       		.byte	0
 425 0248 04       		.uleb128 0x4
 426 0249 A5010000 		.4byte	.LASF43
 427 024d 05       		.byte	0x5
 428 024e 70       		.byte	0x70
 429 024f 33020000 		.4byte	0x233
 430 0253 04       		.uleb128 0x4
 431 0254 9E000000 		.4byte	.LASF44
 432 0258 07       		.byte	0x7
 433 0259 D7       		.byte	0xd7
 434 025a 5E020000 		.4byte	0x25e
 435 025e 0A       		.uleb128 0xa
 436 025f 04       		.byte	0x4
 437 0260 05       		.uleb128 0x5
 438 0261 0E030000 		.4byte	.LASF45
 439 0265 24       		.byte	0x24
 440 0266 07       		.byte	0x7
 441 0267 FE       		.byte	0xfe
 442 0268 DB020000 		.4byte	0x2db
 443 026c 0B       		.uleb128 0xb
 444 026d 723400   		.ascii	"r4\000"
 445 0270 07       		.byte	0x7
 446 0271 1101     		.2byte	0x111
 447 0273 53020000 		.4byte	0x253
 448 0277 00       		.byte	0
 449 0278 0B       		.uleb128 0xb
 450 0279 723500   		.ascii	"r5\000"
 451 027c 07       		.byte	0x7
 452 027d 1201     		.2byte	0x112
 453 027f 53020000 		.4byte	0x253
 454 0283 04       		.byte	0x4
 455 0284 0B       		.uleb128 0xb
 456 0285 723600   		.ascii	"r6\000"
ARM GAS  /tmp/ccDyfkg8.s 			page 9


 457 0288 07       		.byte	0x7
 458 0289 1301     		.2byte	0x113
 459 028b 53020000 		.4byte	0x253
 460 028f 08       		.byte	0x8
 461 0290 0B       		.uleb128 0xb
 462 0291 723700   		.ascii	"r7\000"
 463 0294 07       		.byte	0x7
 464 0295 1401     		.2byte	0x114
 465 0297 53020000 		.4byte	0x253
 466 029b 0C       		.byte	0xc
 467 029c 0B       		.uleb128 0xb
 468 029d 723800   		.ascii	"r8\000"
 469 02a0 07       		.byte	0x7
 470 02a1 1501     		.2byte	0x115
 471 02a3 53020000 		.4byte	0x253
 472 02a7 10       		.byte	0x10
 473 02a8 0B       		.uleb128 0xb
 474 02a9 723900   		.ascii	"r9\000"
 475 02ac 07       		.byte	0x7
 476 02ad 1601     		.2byte	0x116
 477 02af 53020000 		.4byte	0x253
 478 02b3 14       		.byte	0x14
 479 02b4 0B       		.uleb128 0xb
 480 02b5 72313000 		.ascii	"r10\000"
 481 02b9 07       		.byte	0x7
 482 02ba 1701     		.2byte	0x117
 483 02bc 53020000 		.4byte	0x253
 484 02c0 18       		.byte	0x18
 485 02c1 0B       		.uleb128 0xb
 486 02c2 72313100 		.ascii	"r11\000"
 487 02c6 07       		.byte	0x7
 488 02c7 1801     		.2byte	0x118
 489 02c9 53020000 		.4byte	0x253
 490 02cd 1C       		.byte	0x1c
 491 02ce 0B       		.uleb128 0xb
 492 02cf 6C7200   		.ascii	"lr\000"
 493 02d2 07       		.byte	0x7
 494 02d3 1901     		.2byte	0x119
 495 02d5 53020000 		.4byte	0x253
 496 02d9 20       		.byte	0x20
 497 02da 00       		.byte	0
 498 02db 0C       		.uleb128 0xc
 499 02dc 74010000 		.4byte	.LASF46
 500 02e0 04       		.byte	0x4
 501 02e1 07       		.byte	0x7
 502 02e2 2301     		.2byte	0x123
 503 02e4 F6020000 		.4byte	0x2f6
 504 02e8 0B       		.uleb128 0xb
 505 02e9 72313300 		.ascii	"r13\000"
 506 02ed 07       		.byte	0x7
 507 02ee 2401     		.2byte	0x124
 508 02f0 F6020000 		.4byte	0x2f6
 509 02f4 00       		.byte	0
 510 02f5 00       		.byte	0
 511 02f6 09       		.uleb128 0x9
 512 02f7 04       		.byte	0x4
 513 02f8 60020000 		.4byte	0x260
ARM GAS  /tmp/ccDyfkg8.s 			page 10


 514 02fc 03       		.uleb128 0x3
 515 02fd 04       		.byte	0x4
 516 02fe 07       		.byte	0x7
 517 02ff C3010000 		.4byte	.LASF47
 518 0303 0D       		.uleb128 0xd
 519 0304 EF000000 		.4byte	0xef
 520 0308 08       		.uleb128 0x8
 521 0309 20       		.byte	0x20
 522 030a 08       		.byte	0x8
 523 030b 5E       		.byte	0x5e
 524 030c 65030000 		.4byte	0x365
 525 0310 06       		.uleb128 0x6
 526 0311 C4020000 		.4byte	.LASF48
 527 0315 08       		.byte	0x8
 528 0316 5F       		.byte	0x5f
 529 0317 28020000 		.4byte	0x228
 530 031b 00       		.byte	0
 531 031c 06       		.uleb128 0x6
 532 031d 7F020000 		.4byte	.LASF49
 533 0321 08       		.byte	0x8
 534 0322 60       		.byte	0x60
 535 0323 CE000000 		.4byte	0xce
 536 0327 08       		.byte	0x8
 537 0328 06       		.uleb128 0x6
 538 0329 11020000 		.4byte	.LASF50
 539 032d 08       		.byte	0x8
 540 032e 62       		.byte	0x62
 541 032f DB020000 		.4byte	0x2db
 542 0333 0C       		.byte	0xc
 543 0334 06       		.uleb128 0x6
 544 0335 95010000 		.4byte	.LASF51
 545 0339 08       		.byte	0x8
 546 033a 65       		.byte	0x65
 547 033b 22020000 		.4byte	0x222
 548 033f 10       		.byte	0x10
 549 0340 06       		.uleb128 0x6
 550 0341 2E020000 		.4byte	.LASF52
 551 0345 08       		.byte	0x8
 552 0346 66       		.byte	0x66
 553 0347 22020000 		.4byte	0x222
 554 034b 14       		.byte	0x14
 555 034c 06       		.uleb128 0x6
 556 034d 6E030000 		.4byte	.LASF53
 557 0351 08       		.byte	0x8
 558 0352 6A       		.byte	0x6a
 559 0353 FA000000 		.4byte	0xfa
 560 0357 18       		.byte	0x18
 561 0358 06       		.uleb128 0x6
 562 0359 24020000 		.4byte	.LASF54
 563 035d 08       		.byte	0x8
 564 035e 6C       		.byte	0x6c
 565 035f 22020000 		.4byte	0x222
 566 0363 1C       		.byte	0x1c
 567 0364 00       		.byte	0
 568 0365 04       		.uleb128 0x4
 569 0366 48030000 		.4byte	.LASF55
 570 036a 08       		.byte	0x8
ARM GAS  /tmp/ccDyfkg8.s 			page 11


 571 036b 6E       		.byte	0x6e
 572 036c 08030000 		.4byte	0x308
 573 0370 05       		.uleb128 0x5
 574 0371 BD010000 		.4byte	.LASF56
 575 0375 10       		.byte	0x10
 576 0376 09       		.byte	0x9
 577 0377 2C       		.byte	0x2c
 578 0378 A1030000 		.4byte	0x3a1
 579 037c 06       		.uleb128 0x6
 580 037d 71000000 		.4byte	.LASF57
 581 0381 09       		.byte	0x9
 582 0382 2D       		.byte	0x2d
 583 0383 28020000 		.4byte	0x228
 584 0387 00       		.byte	0
 585 0388 06       		.uleb128 0x6
 586 0389 78030000 		.4byte	.LASF58
 587 038d 09       		.byte	0x9
 588 038e 2F       		.byte	0x2f
 589 038f 22020000 		.4byte	0x222
 590 0393 08       		.byte	0x8
 591 0394 06       		.uleb128 0x6
 592 0395 E1020000 		.4byte	.LASF59
 593 0399 09       		.byte	0x9
 594 039a 31       		.byte	0x31
 595 039b A1030000 		.4byte	0x3a1
 596 039f 0C       		.byte	0xc
 597 03a0 00       		.byte	0
 598 03a1 09       		.uleb128 0x9
 599 03a2 04       		.byte	0x4
 600 03a3 70030000 		.4byte	0x370
 601 03a7 04       		.uleb128 0x4
 602 03a8 BD010000 		.4byte	.LASF56
 603 03ac 09       		.byte	0x9
 604 03ad 33       		.byte	0x33
 605 03ae 70030000 		.4byte	0x370
 606 03b2 0E       		.uleb128 0xe
 607 03b3 04       		.byte	0x4
 608 03b4 06       		.byte	0x6
 609 03b5 90       		.byte	0x90
 610 03b6 E7030000 		.4byte	0x3e7
 611 03ba 0F       		.uleb128 0xf
 612 03bb 06000000 		.4byte	.LASF60
 613 03bf 06       		.byte	0x6
 614 03c0 97       		.byte	0x97
 615 03c1 D9000000 		.4byte	0xd9
 616 03c5 0F       		.uleb128 0xf
 617 03c6 2E000000 		.4byte	.LASF61
 618 03ca 06       		.byte	0x6
 619 03cb 9E       		.byte	0x9e
 620 03cc D9000000 		.4byte	0xd9
 621 03d0 0F       		.uleb128 0xf
 622 03d1 60030000 		.4byte	.LASF62
 623 03d5 06       		.byte	0x6
 624 03d6 A5       		.byte	0xa5
 625 03d7 5E020000 		.4byte	0x25e
 626 03db 0F       		.uleb128 0xf
 627 03dc 86020000 		.4byte	.LASF63
ARM GAS  /tmp/ccDyfkg8.s 			page 12


 628 03e0 06       		.byte	0x6
 629 03e1 AC       		.byte	0xac
 630 03e2 E4000000 		.4byte	0xe4
 631 03e6 00       		.byte	0
 632 03e7 09       		.uleb128 0x9
 633 03e8 04       		.byte	0x4
 634 03e9 ED030000 		.4byte	0x3ed
 635 03ed 10       		.uleb128 0x10
 636 03ee F2030000 		.4byte	0x3f2
 637 03f2 03       		.uleb128 0x3
 638 03f3 01       		.byte	0x1
 639 03f4 08       		.byte	0x8
 640 03f5 CC020000 		.4byte	.LASF64
 641 03f9 09       		.uleb128 0x9
 642 03fa 04       		.byte	0x4
 643 03fb A7030000 		.4byte	0x3a7
 644 03ff 11       		.uleb128 0x11
 645 0400 37000000 		.4byte	.LASF65
 646 0404 01       		.byte	0x1
 647 0405 48       		.byte	0x48
 648 0406 22020000 		.4byte	0x222
 649 040a 00000000 		.4byte	.LFB7
 650 040e 1E000000 		.4byte	.LFE7-.LFB7
 651 0412 01       		.uleb128 0x1
 652 0413 9C       		.byte	0x9c
 653 0414 53040000 		.4byte	0x453
 654 0418 12       		.uleb128 0x12
 655 0419 747000   		.ascii	"tp\000"
 656 041c 01       		.byte	0x1
 657 041d 49       		.byte	0x49
 658 041e 22020000 		.4byte	0x222
 659 0422 01       		.uleb128 0x1
 660 0423 50       		.byte	0x50
 661 0424 13       		.uleb128 0x13
 662 0425 00000000 		.4byte	.LBB2
 663 0429 06000000 		.4byte	.LBE2-.LBB2
 664 042d 3F040000 		.4byte	0x43f
 665 0431 12       		.uleb128 0x12
 666 0432 746D7000 		.ascii	"tmp\000"
 667 0436 01       		.byte	0x1
 668 0437 4B       		.byte	0x4b
 669 0438 A2000000 		.4byte	0xa2
 670 043c 01       		.uleb128 0x1
 671 043d 53       		.byte	0x53
 672 043e 00       		.byte	0
 673 043f 14       		.uleb128 0x14
 674 0440 00000000 		.4byte	.Ldebug_ranges0+0
 675 0444 12       		.uleb128 0x12
 676 0445 746D7000 		.ascii	"tmp\000"
 677 0449 01       		.byte	0x1
 678 044a 50       		.byte	0x50
 679 044b A2000000 		.4byte	0xa2
 680 044f 01       		.uleb128 0x1
 681 0450 53       		.byte	0x53
 682 0451 00       		.byte	0
 683 0452 00       		.byte	0
 684 0453 11       		.uleb128 0x11
ARM GAS  /tmp/ccDyfkg8.s 			page 13


 685 0454 D1020000 		.4byte	.LASF66
 686 0458 01       		.byte	0x1
 687 0459 5F       		.byte	0x5f
 688 045a 22020000 		.4byte	0x222
 689 045e 00000000 		.4byte	.LFB8
 690 0462 2C000000 		.4byte	.LFE8-.LFB8
 691 0466 01       		.uleb128 0x1
 692 0467 9C       		.byte	0x9c
 693 0468 CF040000 		.4byte	0x4cf
 694 046c 15       		.uleb128 0x15
 695 046d 747000   		.ascii	"tp\000"
 696 0470 01       		.byte	0x1
 697 0471 5F       		.byte	0x5f
 698 0472 22020000 		.4byte	0x222
 699 0476 00000000 		.4byte	.LLST0
 700 047a 12       		.uleb128 0x12
 701 047b 6E747000 		.ascii	"ntp\000"
 702 047f 01       		.byte	0x1
 703 0480 60       		.byte	0x60
 704 0481 22020000 		.4byte	0x222
 705 0485 01       		.uleb128 0x1
 706 0486 54       		.byte	0x54
 707 0487 13       		.uleb128 0x13
 708 0488 02000000 		.4byte	.LBB5
 709 048c 06000000 		.4byte	.LBE5-.LBB5
 710 0490 A2040000 		.4byte	0x4a2
 711 0494 12       		.uleb128 0x12
 712 0495 746D7000 		.ascii	"tmp\000"
 713 0499 01       		.byte	0x1
 714 049a 62       		.byte	0x62
 715 049b A2000000 		.4byte	0xa2
 716 049f 01       		.uleb128 0x1
 717 04a0 53       		.byte	0x53
 718 04a1 00       		.byte	0
 719 04a2 13       		.uleb128 0x13
 720 04a3 1E000000 		.4byte	.LBB6
 721 04a7 06000000 		.4byte	.LBE6-.LBB6
 722 04ab BD040000 		.4byte	0x4bd
 723 04af 12       		.uleb128 0x12
 724 04b0 746D7000 		.ascii	"tmp\000"
 725 04b4 01       		.byte	0x1
 726 04b5 6D       		.byte	0x6d
 727 04b6 A2000000 		.4byte	0xa2
 728 04ba 01       		.uleb128 0x1
 729 04bb 53       		.byte	0x53
 730 04bc 00       		.byte	0
 731 04bd 16       		.uleb128 0x16
 732 04be 28000000 		.4byte	.LVL4
 733 04c2 DA040000 		.4byte	0x4da
 734 04c6 17       		.uleb128 0x17
 735 04c7 01       		.uleb128 0x1
 736 04c8 50       		.byte	0x50
 737 04c9 03       		.uleb128 0x3
 738 04ca F3       		.byte	0xf3
 739 04cb 01       		.uleb128 0x1
 740 04cc 50       		.byte	0x50
 741 04cd 00       		.byte	0
ARM GAS  /tmp/ccDyfkg8.s 			page 14


 742 04ce 00       		.byte	0
 743 04cf 18       		.uleb128 0x18
 744 04d0 52030000 		.4byte	.LASF70
 745 04d4 08       		.byte	0x8
 746 04d5 72       		.byte	0x72
 747 04d6 65030000 		.4byte	0x365
 748 04da 19       		.uleb128 0x19
 749 04db 9C020000 		.4byte	.LASF71
 750 04df 0A       		.byte	0xa
 751 04e0 3A       		.byte	0x3a
 752 04e1 1A       		.uleb128 0x1a
 753 04e2 22020000 		.4byte	0x222
 754 04e6 00       		.byte	0
 755 04e7 00       		.byte	0
 756              		.section	.debug_abbrev,"",%progbits
 757              	.Ldebug_abbrev0:
 758 0000 01       		.uleb128 0x1
 759 0001 11       		.uleb128 0x11
 760 0002 01       		.byte	0x1
 761 0003 25       		.uleb128 0x25
 762 0004 0E       		.uleb128 0xe
 763 0005 13       		.uleb128 0x13
 764 0006 0B       		.uleb128 0xb
 765 0007 03       		.uleb128 0x3
 766 0008 0E       		.uleb128 0xe
 767 0009 1B       		.uleb128 0x1b
 768 000a 0E       		.uleb128 0xe
 769 000b 55       		.uleb128 0x55
 770 000c 17       		.uleb128 0x17
 771 000d 11       		.uleb128 0x11
 772 000e 01       		.uleb128 0x1
 773 000f 10       		.uleb128 0x10
 774 0010 17       		.uleb128 0x17
 775 0011 00       		.byte	0
 776 0012 00       		.byte	0
 777 0013 02       		.uleb128 0x2
 778 0014 24       		.uleb128 0x24
 779 0015 00       		.byte	0
 780 0016 0B       		.uleb128 0xb
 781 0017 0B       		.uleb128 0xb
 782 0018 3E       		.uleb128 0x3e
 783 0019 0B       		.uleb128 0xb
 784 001a 03       		.uleb128 0x3
 785 001b 08       		.uleb128 0x8
 786 001c 00       		.byte	0
 787 001d 00       		.byte	0
 788 001e 03       		.uleb128 0x3
 789 001f 24       		.uleb128 0x24
 790 0020 00       		.byte	0
 791 0021 0B       		.uleb128 0xb
 792 0022 0B       		.uleb128 0xb
 793 0023 3E       		.uleb128 0x3e
 794 0024 0B       		.uleb128 0xb
 795 0025 03       		.uleb128 0x3
 796 0026 0E       		.uleb128 0xe
 797 0027 00       		.byte	0
 798 0028 00       		.byte	0
ARM GAS  /tmp/ccDyfkg8.s 			page 15


 799 0029 04       		.uleb128 0x4
 800 002a 16       		.uleb128 0x16
 801 002b 00       		.byte	0
 802 002c 03       		.uleb128 0x3
 803 002d 0E       		.uleb128 0xe
 804 002e 3A       		.uleb128 0x3a
 805 002f 0B       		.uleb128 0xb
 806 0030 3B       		.uleb128 0x3b
 807 0031 0B       		.uleb128 0xb
 808 0032 49       		.uleb128 0x49
 809 0033 13       		.uleb128 0x13
 810 0034 00       		.byte	0
 811 0035 00       		.byte	0
 812 0036 05       		.uleb128 0x5
 813 0037 13       		.uleb128 0x13
 814 0038 01       		.byte	0x1
 815 0039 03       		.uleb128 0x3
 816 003a 0E       		.uleb128 0xe
 817 003b 0B       		.uleb128 0xb
 818 003c 0B       		.uleb128 0xb
 819 003d 3A       		.uleb128 0x3a
 820 003e 0B       		.uleb128 0xb
 821 003f 3B       		.uleb128 0x3b
 822 0040 0B       		.uleb128 0xb
 823 0041 01       		.uleb128 0x1
 824 0042 13       		.uleb128 0x13
 825 0043 00       		.byte	0
 826 0044 00       		.byte	0
 827 0045 06       		.uleb128 0x6
 828 0046 0D       		.uleb128 0xd
 829 0047 00       		.byte	0
 830 0048 03       		.uleb128 0x3
 831 0049 0E       		.uleb128 0xe
 832 004a 3A       		.uleb128 0x3a
 833 004b 0B       		.uleb128 0xb
 834 004c 3B       		.uleb128 0x3b
 835 004d 0B       		.uleb128 0xb
 836 004e 49       		.uleb128 0x49
 837 004f 13       		.uleb128 0x13
 838 0050 38       		.uleb128 0x38
 839 0051 0B       		.uleb128 0xb
 840 0052 00       		.byte	0
 841 0053 00       		.byte	0
 842 0054 07       		.uleb128 0x7
 843 0055 0D       		.uleb128 0xd
 844 0056 00       		.byte	0
 845 0057 03       		.uleb128 0x3
 846 0058 08       		.uleb128 0x8
 847 0059 3A       		.uleb128 0x3a
 848 005a 0B       		.uleb128 0xb
 849 005b 3B       		.uleb128 0x3b
 850 005c 0B       		.uleb128 0xb
 851 005d 49       		.uleb128 0x49
 852 005e 13       		.uleb128 0x13
 853 005f 38       		.uleb128 0x38
 854 0060 0B       		.uleb128 0xb
 855 0061 00       		.byte	0
ARM GAS  /tmp/ccDyfkg8.s 			page 16


 856 0062 00       		.byte	0
 857 0063 08       		.uleb128 0x8
 858 0064 13       		.uleb128 0x13
 859 0065 01       		.byte	0x1
 860 0066 0B       		.uleb128 0xb
 861 0067 0B       		.uleb128 0xb
 862 0068 3A       		.uleb128 0x3a
 863 0069 0B       		.uleb128 0xb
 864 006a 3B       		.uleb128 0x3b
 865 006b 0B       		.uleb128 0xb
 866 006c 01       		.uleb128 0x1
 867 006d 13       		.uleb128 0x13
 868 006e 00       		.byte	0
 869 006f 00       		.byte	0
 870 0070 09       		.uleb128 0x9
 871 0071 0F       		.uleb128 0xf
 872 0072 00       		.byte	0
 873 0073 0B       		.uleb128 0xb
 874 0074 0B       		.uleb128 0xb
 875 0075 49       		.uleb128 0x49
 876 0076 13       		.uleb128 0x13
 877 0077 00       		.byte	0
 878 0078 00       		.byte	0
 879 0079 0A       		.uleb128 0xa
 880 007a 0F       		.uleb128 0xf
 881 007b 00       		.byte	0
 882 007c 0B       		.uleb128 0xb
 883 007d 0B       		.uleb128 0xb
 884 007e 00       		.byte	0
 885 007f 00       		.byte	0
 886 0080 0B       		.uleb128 0xb
 887 0081 0D       		.uleb128 0xd
 888 0082 00       		.byte	0
 889 0083 03       		.uleb128 0x3
 890 0084 08       		.uleb128 0x8
 891 0085 3A       		.uleb128 0x3a
 892 0086 0B       		.uleb128 0xb
 893 0087 3B       		.uleb128 0x3b
 894 0088 05       		.uleb128 0x5
 895 0089 49       		.uleb128 0x49
 896 008a 13       		.uleb128 0x13
 897 008b 38       		.uleb128 0x38
 898 008c 0B       		.uleb128 0xb
 899 008d 00       		.byte	0
 900 008e 00       		.byte	0
 901 008f 0C       		.uleb128 0xc
 902 0090 13       		.uleb128 0x13
 903 0091 01       		.byte	0x1
 904 0092 03       		.uleb128 0x3
 905 0093 0E       		.uleb128 0xe
 906 0094 0B       		.uleb128 0xb
 907 0095 0B       		.uleb128 0xb
 908 0096 3A       		.uleb128 0x3a
 909 0097 0B       		.uleb128 0xb
 910 0098 3B       		.uleb128 0x3b
 911 0099 05       		.uleb128 0x5
 912 009a 01       		.uleb128 0x1
ARM GAS  /tmp/ccDyfkg8.s 			page 17


 913 009b 13       		.uleb128 0x13
 914 009c 00       		.byte	0
 915 009d 00       		.byte	0
 916 009e 0D       		.uleb128 0xd
 917 009f 35       		.uleb128 0x35
 918 00a0 00       		.byte	0
 919 00a1 49       		.uleb128 0x49
 920 00a2 13       		.uleb128 0x13
 921 00a3 00       		.byte	0
 922 00a4 00       		.byte	0
 923 00a5 0E       		.uleb128 0xe
 924 00a6 17       		.uleb128 0x17
 925 00a7 01       		.byte	0x1
 926 00a8 0B       		.uleb128 0xb
 927 00a9 0B       		.uleb128 0xb
 928 00aa 3A       		.uleb128 0x3a
 929 00ab 0B       		.uleb128 0xb
 930 00ac 3B       		.uleb128 0x3b
 931 00ad 0B       		.uleb128 0xb
 932 00ae 01       		.uleb128 0x1
 933 00af 13       		.uleb128 0x13
 934 00b0 00       		.byte	0
 935 00b1 00       		.byte	0
 936 00b2 0F       		.uleb128 0xf
 937 00b3 0D       		.uleb128 0xd
 938 00b4 00       		.byte	0
 939 00b5 03       		.uleb128 0x3
 940 00b6 0E       		.uleb128 0xe
 941 00b7 3A       		.uleb128 0x3a
 942 00b8 0B       		.uleb128 0xb
 943 00b9 3B       		.uleb128 0x3b
 944 00ba 0B       		.uleb128 0xb
 945 00bb 49       		.uleb128 0x49
 946 00bc 13       		.uleb128 0x13
 947 00bd 00       		.byte	0
 948 00be 00       		.byte	0
 949 00bf 10       		.uleb128 0x10
 950 00c0 26       		.uleb128 0x26
 951 00c1 00       		.byte	0
 952 00c2 49       		.uleb128 0x49
 953 00c3 13       		.uleb128 0x13
 954 00c4 00       		.byte	0
 955 00c5 00       		.byte	0
 956 00c6 11       		.uleb128 0x11
 957 00c7 2E       		.uleb128 0x2e
 958 00c8 01       		.byte	0x1
 959 00c9 3F       		.uleb128 0x3f
 960 00ca 19       		.uleb128 0x19
 961 00cb 03       		.uleb128 0x3
 962 00cc 0E       		.uleb128 0xe
 963 00cd 3A       		.uleb128 0x3a
 964 00ce 0B       		.uleb128 0xb
 965 00cf 3B       		.uleb128 0x3b
 966 00d0 0B       		.uleb128 0xb
 967 00d1 27       		.uleb128 0x27
 968 00d2 19       		.uleb128 0x19
 969 00d3 49       		.uleb128 0x49
ARM GAS  /tmp/ccDyfkg8.s 			page 18


 970 00d4 13       		.uleb128 0x13
 971 00d5 11       		.uleb128 0x11
 972 00d6 01       		.uleb128 0x1
 973 00d7 12       		.uleb128 0x12
 974 00d8 06       		.uleb128 0x6
 975 00d9 40       		.uleb128 0x40
 976 00da 18       		.uleb128 0x18
 977 00db 9742     		.uleb128 0x2117
 978 00dd 19       		.uleb128 0x19
 979 00de 01       		.uleb128 0x1
 980 00df 13       		.uleb128 0x13
 981 00e0 00       		.byte	0
 982 00e1 00       		.byte	0
 983 00e2 12       		.uleb128 0x12
 984 00e3 34       		.uleb128 0x34
 985 00e4 00       		.byte	0
 986 00e5 03       		.uleb128 0x3
 987 00e6 08       		.uleb128 0x8
 988 00e7 3A       		.uleb128 0x3a
 989 00e8 0B       		.uleb128 0xb
 990 00e9 3B       		.uleb128 0x3b
 991 00ea 0B       		.uleb128 0xb
 992 00eb 49       		.uleb128 0x49
 993 00ec 13       		.uleb128 0x13
 994 00ed 02       		.uleb128 0x2
 995 00ee 18       		.uleb128 0x18
 996 00ef 00       		.byte	0
 997 00f0 00       		.byte	0
 998 00f1 13       		.uleb128 0x13
 999 00f2 0B       		.uleb128 0xb
 1000 00f3 01       		.byte	0x1
 1001 00f4 11       		.uleb128 0x11
 1002 00f5 01       		.uleb128 0x1
 1003 00f6 12       		.uleb128 0x12
 1004 00f7 06       		.uleb128 0x6
 1005 00f8 01       		.uleb128 0x1
 1006 00f9 13       		.uleb128 0x13
 1007 00fa 00       		.byte	0
 1008 00fb 00       		.byte	0
 1009 00fc 14       		.uleb128 0x14
 1010 00fd 0B       		.uleb128 0xb
 1011 00fe 01       		.byte	0x1
 1012 00ff 55       		.uleb128 0x55
 1013 0100 17       		.uleb128 0x17
 1014 0101 00       		.byte	0
 1015 0102 00       		.byte	0
 1016 0103 15       		.uleb128 0x15
 1017 0104 05       		.uleb128 0x5
 1018 0105 00       		.byte	0
 1019 0106 03       		.uleb128 0x3
 1020 0107 08       		.uleb128 0x8
 1021 0108 3A       		.uleb128 0x3a
 1022 0109 0B       		.uleb128 0xb
 1023 010a 3B       		.uleb128 0x3b
 1024 010b 0B       		.uleb128 0xb
 1025 010c 49       		.uleb128 0x49
 1026 010d 13       		.uleb128 0x13
ARM GAS  /tmp/ccDyfkg8.s 			page 19


 1027 010e 02       		.uleb128 0x2
 1028 010f 17       		.uleb128 0x17
 1029 0110 00       		.byte	0
 1030 0111 00       		.byte	0
 1031 0112 16       		.uleb128 0x16
 1032 0113 898201   		.uleb128 0x4109
 1033 0116 01       		.byte	0x1
 1034 0117 11       		.uleb128 0x11
 1035 0118 01       		.uleb128 0x1
 1036 0119 31       		.uleb128 0x31
 1037 011a 13       		.uleb128 0x13
 1038 011b 00       		.byte	0
 1039 011c 00       		.byte	0
 1040 011d 17       		.uleb128 0x17
 1041 011e 8A8201   		.uleb128 0x410a
 1042 0121 00       		.byte	0
 1043 0122 02       		.uleb128 0x2
 1044 0123 18       		.uleb128 0x18
 1045 0124 9142     		.uleb128 0x2111
 1046 0126 18       		.uleb128 0x18
 1047 0127 00       		.byte	0
 1048 0128 00       		.byte	0
 1049 0129 18       		.uleb128 0x18
 1050 012a 34       		.uleb128 0x34
 1051 012b 00       		.byte	0
 1052 012c 03       		.uleb128 0x3
 1053 012d 0E       		.uleb128 0xe
 1054 012e 3A       		.uleb128 0x3a
 1055 012f 0B       		.uleb128 0xb
 1056 0130 3B       		.uleb128 0x3b
 1057 0131 0B       		.uleb128 0xb
 1058 0132 49       		.uleb128 0x49
 1059 0133 13       		.uleb128 0x13
 1060 0134 3F       		.uleb128 0x3f
 1061 0135 19       		.uleb128 0x19
 1062 0136 3C       		.uleb128 0x3c
 1063 0137 19       		.uleb128 0x19
 1064 0138 00       		.byte	0
 1065 0139 00       		.byte	0
 1066 013a 19       		.uleb128 0x19
 1067 013b 2E       		.uleb128 0x2e
 1068 013c 01       		.byte	0x1
 1069 013d 3F       		.uleb128 0x3f
 1070 013e 19       		.uleb128 0x19
 1071 013f 03       		.uleb128 0x3
 1072 0140 0E       		.uleb128 0xe
 1073 0141 3A       		.uleb128 0x3a
 1074 0142 0B       		.uleb128 0xb
 1075 0143 3B       		.uleb128 0x3b
 1076 0144 0B       		.uleb128 0xb
 1077 0145 27       		.uleb128 0x27
 1078 0146 19       		.uleb128 0x19
 1079 0147 3C       		.uleb128 0x3c
 1080 0148 19       		.uleb128 0x19
 1081 0149 00       		.byte	0
 1082 014a 00       		.byte	0
 1083 014b 1A       		.uleb128 0x1a
ARM GAS  /tmp/ccDyfkg8.s 			page 20


 1084 014c 05       		.uleb128 0x5
 1085 014d 00       		.byte	0
 1086 014e 49       		.uleb128 0x49
 1087 014f 13       		.uleb128 0x13
 1088 0150 00       		.byte	0
 1089 0151 00       		.byte	0
 1090 0152 00       		.byte	0
 1091              		.section	.debug_loc,"",%progbits
 1092              	.Ldebug_loc0:
 1093              	.LLST0:
 1094 0000 00000000 		.4byte	.LVL1
 1095 0004 27000000 		.4byte	.LVL4-1
 1096 0008 0100     		.2byte	0x1
 1097 000a 50       		.byte	0x50
 1098 000b 27000000 		.4byte	.LVL4-1
 1099 000f 2C000000 		.4byte	.LFE8
 1100 0013 0400     		.2byte	0x4
 1101 0015 F3       		.byte	0xf3
 1102 0016 01       		.uleb128 0x1
 1103 0017 50       		.byte	0x50
 1104 0018 9F       		.byte	0x9f
 1105 0019 00000000 		.4byte	0
 1106 001d 00000000 		.4byte	0
 1107              		.section	.debug_aranges,"",%progbits
 1108 0000 24000000 		.4byte	0x24
 1109 0004 0200     		.2byte	0x2
 1110 0006 00000000 		.4byte	.Ldebug_info0
 1111 000a 04       		.byte	0x4
 1112 000b 00       		.byte	0
 1113 000c 0000     		.2byte	0
 1114 000e 0000     		.2byte	0
 1115 0010 00000000 		.4byte	.LFB7
 1116 0014 1E000000 		.4byte	.LFE7-.LFB7
 1117 0018 00000000 		.4byte	.LFB8
 1118 001c 2C000000 		.4byte	.LFE8-.LFB8
 1119 0020 00000000 		.4byte	0
 1120 0024 00000000 		.4byte	0
 1121              		.section	.debug_ranges,"",%progbits
 1122              	.Ldebug_ranges0:
 1123 0000 10000000 		.4byte	.LBB3
 1124 0004 12000000 		.4byte	.LBE3
 1125 0008 18000000 		.4byte	.LBB4
 1126 000c 1C000000 		.4byte	.LBE4
 1127 0010 00000000 		.4byte	0
 1128 0014 00000000 		.4byte	0
 1129 0018 00000000 		.4byte	.LFB7
 1130 001c 1E000000 		.4byte	.LFE7
 1131 0020 00000000 		.4byte	.LFB8
 1132 0024 2C000000 		.4byte	.LFE8
 1133 0028 00000000 		.4byte	0
 1134 002c 00000000 		.4byte	0
 1135              		.section	.debug_line,"",%progbits
 1136              	.Ldebug_line0:
 1137 0000 4E010000 		.section	.debug_str,"MS",%progbits,1
 1137      02001801 
 1137      00000201 
 1137      FB0E0D00 
ARM GAS  /tmp/ccDyfkg8.s 			page 21


 1137      01010101 
 1138              	.LASF37:
 1139 0000 705F6D73 		.ascii	"p_msg\000"
 1139      6700
 1140              	.LASF60:
 1141 0006 7264796D 		.ascii	"rdymsg\000"
 1141      736700
 1142              	.LASF5:
 1143 000d 5F5F7569 		.ascii	"__uint8_t\000"
 1143      6E74385F 
 1143      7400
 1144              	.LASF11:
 1145 0017 6C6F6E67 		.ascii	"long long unsigned int\000"
 1145      206C6F6E 
 1145      6720756E 
 1145      7369676E 
 1145      65642069 
 1146              	.LASF61:
 1147 002e 65786974 		.ascii	"exitcode\000"
 1147      636F6465 
 1147      00
 1148              	.LASF65:
 1149 0037 63685265 		.ascii	"chRegFirstThread\000"
 1149      67466972 
 1149      73745468 
 1149      72656164 
 1149      00
 1150              	.LASF26:
 1151 0048 705F7072 		.ascii	"p_prio\000"
 1151      696F00
 1152              	.LASF10:
 1153 004f 6C6F6E67 		.ascii	"long long int\000"
 1153      206C6F6E 
 1153      6720696E 
 1153      7400
 1154              	.LASF1:
 1155 005d 7369676E 		.ascii	"signed char\000"
 1155      65642063 
 1155      68617200 
 1156              	.LASF41:
 1157 0069 705F6D70 		.ascii	"p_mpool\000"
 1157      6F6F6C00 
 1158              	.LASF57:
 1159 0071 6D5F7175 		.ascii	"m_queue\000"
 1159      65756500 
 1160              	.LASF7:
 1161 0079 6C6F6E67 		.ascii	"long int\000"
 1161      20696E74 
 1161      00
 1162              	.LASF16:
 1163 0082 74737461 		.ascii	"tstate_t\000"
 1163      74655F74 
 1163      00
 1164              	.LASF28:
 1165 008b 705F6E65 		.ascii	"p_newer\000"
 1165      77657200 
 1166              	.LASF8:
ARM GAS  /tmp/ccDyfkg8.s 			page 22


 1167 0093 5F5F7569 		.ascii	"__uint32_t\000"
 1167      6E743332 
 1167      5F7400
 1168              	.LASF44:
 1169 009e 72656761 		.ascii	"regarm_t\000"
 1169      726D5F74 
 1169      00
 1170              	.LASF67:
 1171 00a7 474E5520 		.ascii	"GNU C 4.8.2 -mcpu=cortex-m3 -mno-thumb-interwork -m"
 1171      4320342E 
 1171      382E3220 
 1171      2D6D6370 
 1171      753D636F 
 1172 00da 7468756D 		.ascii	"thumb -ggdb -O2 -std=gnu99 -fomit-frame-pointer -fa"
 1172      62202D67 
 1172      67646220 
 1172      2D4F3220 
 1172      2D737464 
 1173 010d 6C69676E 		.ascii	"lign-functions=16 -ffunction-sections -fdata-sectio"
 1173      2D66756E 
 1173      6374696F 
 1173      6E733D31 
 1173      36202D66 
 1174 0140 6E73202D 		.ascii	"ns -fno-common\000"
 1174      666E6F2D 
 1174      636F6D6D 
 1174      6F6E00
 1175              	.LASF22:
 1176 014f 636E745F 		.ascii	"cnt_t\000"
 1176      7400
 1177              	.LASF0:
 1178 0155 756E7369 		.ascii	"unsigned int\000"
 1178      676E6564 
 1178      20696E74 
 1178      00
 1179              	.LASF9:
 1180 0162 6C6F6E67 		.ascii	"long unsigned int\000"
 1180      20756E73 
 1180      69676E65 
 1180      6420696E 
 1180      7400
 1181              	.LASF46:
 1182 0174 636F6E74 		.ascii	"context\000"
 1182      65787400 
 1183              	.LASF4:
 1184 017c 73686F72 		.ascii	"short unsigned int\000"
 1184      7420756E 
 1184      7369676E 
 1184      65642069 
 1184      6E7400
 1185              	.LASF19:
 1186 018f 6D73675F 		.ascii	"msg_t\000"
 1186      7400
 1187              	.LASF51:
 1188 0195 725F6E65 		.ascii	"r_newer\000"
 1188      77657200 
 1189              	.LASF15:
ARM GAS  /tmp/ccDyfkg8.s 			page 23


 1190 019d 746D6F64 		.ascii	"tmode_t\000"
 1190      655F7400 
 1191              	.LASF43:
 1192 01a5 54687265 		.ascii	"ThreadsList\000"
 1192      6164734C 
 1192      69737400 
 1193              	.LASF20:
 1194 01b1 6576656E 		.ascii	"eventmask_t\000"
 1194      746D6173 
 1194      6B5F7400 
 1195              	.LASF56:
 1196 01bd 4D757465 		.ascii	"Mutex\000"
 1196      7800
 1197              	.LASF47:
 1198 01c3 73697A65 		.ascii	"sizetype\000"
 1198      74797065 
 1198      00
 1199              	.LASF29:
 1200 01cc 705F6F6C 		.ascii	"p_older\000"
 1200      64657200 
 1201              	.LASF69:
 1202 01d4 2F686F6D 		.ascii	"/home/cata/Documents/Embebidos/ChibiOS/iflab_code/s"
 1202      652F6361 
 1202      74612F44 
 1202      6F63756D 
 1202      656E7473 
 1203 0207 74616D70 		.ascii	"tamp_code\000"
 1203      5F636F64 
 1203      6500
 1204              	.LASF50:
 1205 0211 725F6374 		.ascii	"r_ctx\000"
 1205      7800
 1206              	.LASF42:
 1207 0217 54687265 		.ascii	"ThreadsQueue\000"
 1207      61647351 
 1207      75657565 
 1207      00
 1208              	.LASF54:
 1209 0224 725F6375 		.ascii	"r_current\000"
 1209      7272656E 
 1209      7400
 1210              	.LASF52:
 1211 022e 725F6F6C 		.ascii	"r_older\000"
 1211      64657200 
 1212              	.LASF17:
 1213 0236 74726566 		.ascii	"trefs_t\000"
 1213      735F7400 
 1214              	.LASF25:
 1215 023e 705F7072 		.ascii	"p_prev\000"
 1215      657600
 1216              	.LASF18:
 1217 0245 74707269 		.ascii	"tprio_t\000"
 1217      6F5F7400 
 1218              	.LASF13:
 1219 024d 696E7433 		.ascii	"int32_t\000"
 1219      325F7400 
 1220              	.LASF2:
ARM GAS  /tmp/ccDyfkg8.s 			page 24


 1221 0255 756E7369 		.ascii	"unsigned char\000"
 1221      676E6564 
 1221      20636861 
 1221      7200
 1222              	.LASF39:
 1223 0263 705F6D74 		.ascii	"p_mtxlist\000"
 1223      786C6973 
 1223      7400
 1224              	.LASF3:
 1225 026d 73686F72 		.ascii	"short int\000"
 1225      7420696E 
 1225      7400
 1226              	.LASF31:
 1227 0277 705F7374 		.ascii	"p_state\000"
 1227      61746500 
 1228              	.LASF49:
 1229 027f 725F7072 		.ascii	"r_prio\000"
 1229      696F00
 1230              	.LASF63:
 1231 0286 65776D61 		.ascii	"ewmask\000"
 1231      736B00
 1232              	.LASF24:
 1233 028d 705F6E65 		.ascii	"p_next\000"
 1233      787400
 1234              	.LASF32:
 1235 0294 705F666C 		.ascii	"p_flags\000"
 1235      61677300 
 1236              	.LASF71:
 1237 029c 63685468 		.ascii	"chThdRelease\000"
 1237      6452656C 
 1237      65617365 
 1237      00
 1238              	.LASF23:
 1239 02a9 54687265 		.ascii	"Thread\000"
 1239      616400
 1240              	.LASF38:
 1241 02b0 705F6570 		.ascii	"p_epending\000"
 1241      656E6469 
 1241      6E6700
 1242              	.LASF14:
 1243 02bb 75696E74 		.ascii	"uint32_t\000"
 1243      33325F74 
 1243      00
 1244              	.LASF48:
 1245 02c4 725F7175 		.ascii	"r_queue\000"
 1245      65756500 
 1246              	.LASF64:
 1247 02cc 63686172 		.ascii	"char\000"
 1247      00
 1248              	.LASF66:
 1249 02d1 63685265 		.ascii	"chRegNextThread\000"
 1249      674E6578 
 1249      74546872 
 1249      65616400 
 1250              	.LASF59:
 1251 02e1 6D5F6E65 		.ascii	"m_next\000"
 1251      787400
ARM GAS  /tmp/ccDyfkg8.s 			page 25


 1252              	.LASF21:
 1253 02e8 73797374 		.ascii	"systime_t\000"
 1253      696D655F 
 1253      7400
 1254              	.LASF40:
 1255 02f2 705F7265 		.ascii	"p_realprio\000"
 1255      616C7072 
 1255      696F00
 1256              	.LASF6:
 1257 02fd 5F5F696E 		.ascii	"__int32_t\000"
 1257      7433325F 
 1257      7400
 1258              	.LASF34:
 1259 0307 705F7469 		.ascii	"p_time\000"
 1259      6D6500
 1260              	.LASF45:
 1261 030e 696E7463 		.ascii	"intctx\000"
 1261      747800
 1262              	.LASF36:
 1263 0315 705F6D73 		.ascii	"p_msgqueue\000"
 1263      67717565 
 1263      756500
 1264              	.LASF68:
 1265 0320 2E2E2F2E 		.ascii	"../../os/kernel/src/chregistry.c\000"
 1265      2E2F6F73 
 1265      2F6B6572 
 1265      6E656C2F 
 1265      7372632F 
 1266              	.LASF33:
 1267 0341 705F7265 		.ascii	"p_refs\000"
 1267      667300
 1268              	.LASF55:
 1269 0348 52656164 		.ascii	"ReadyList\000"
 1269      794C6973 
 1269      7400
 1270              	.LASF70:
 1271 0352 726C6973 		.ascii	"rlist\000"
 1271      7400
 1272              	.LASF12:
 1273 0358 75696E74 		.ascii	"uint8_t\000"
 1273      385F7400 
 1274              	.LASF62:
 1275 0360 77746F62 		.ascii	"wtobjp\000"
 1275      6A7000
 1276              	.LASF30:
 1277 0367 705F6E61 		.ascii	"p_name\000"
 1277      6D6500
 1278              	.LASF53:
 1279 036e 725F7072 		.ascii	"r_preempt\000"
 1279      65656D70 
 1279      7400
 1280              	.LASF58:
 1281 0378 6D5F6F77 		.ascii	"m_owner\000"
 1281      6E657200 
 1282              	.LASF27:
 1283 0380 705F6374 		.ascii	"p_ctx\000"
 1283      7800
ARM GAS  /tmp/ccDyfkg8.s 			page 26


 1284              	.LASF35:
 1285 0386 705F7761 		.ascii	"p_waiting\000"
 1285      6974696E 
 1285      6700
 1286              		.ident	"GCC: (4.8.2-14ubuntu1+6) 4.8.2"
ARM GAS  /tmp/ccDyfkg8.s 			page 27


DEFINED SYMBOLS
                            *ABS*:0000000000000000 chregistry.c
     /tmp/ccDyfkg8.s:19     .text.chRegFirstThread:0000000000000000 $t
     /tmp/ccDyfkg8.s:25     .text.chRegFirstThread:0000000000000000 chRegFirstThread
     /tmp/ccDyfkg8.s:67     .text.chRegNextThread:0000000000000000 $t
     /tmp/ccDyfkg8.s:73     .text.chRegNextThread:0000000000000000 chRegNextThread
                     .debug_frame:0000000000000010 $d

UNDEFINED SYMBOLS
rlist
chThdRelease
