ARM GAS  /tmp/ccfUjVTx.s 			page 1


   1              		.syntax unified
   2              		.cpu cortex-m3
   3              		.fpu softvfp
   4              		.eabi_attribute 20, 1
   5              		.eabi_attribute 21, 1
   6              		.eabi_attribute 23, 3
   7              		.eabi_attribute 24, 1
   8              		.eabi_attribute 25, 1
   9              		.eabi_attribute 26, 1
  10              		.eabi_attribute 30, 2
  11              		.eabi_attribute 34, 1
  12              		.eabi_attribute 18, 4
  13              		.thumb
  14              		.file	"crt0.c"
  15              		.text
  16              	.Ltext0:
  17              		.cfi_sections	.debug_frame
  18              		.section	.text.__early_init,"ax",%progbits
  19              		.align	2
  20              		.p2align 4,,15
  21              		.weak	__early_init
  22              		.thumb
  23              		.thumb_func
  24              		.type	__early_init, %function
  25              	__early_init:
  26              	.LFB7:
  27              		.file 1 "../../os/ports/GCC/ARMCMx/crt0.c"
  28              		.loc 1 209 0
  29              		.cfi_startproc
  30              		@ args = 0, pretend = 0, frame = 0
  31              		@ frame_needed = 0, uses_anonymous_args = 0
  32              		@ link register save eliminated.
  33 0000 7047     		bx	lr
  34              		.cfi_endproc
  35              	.LFE7:
  36              		.size	__early_init, .-__early_init
  37 0002 00BFAFF3 		.section	.text.__late_init,"ax",%progbits
  37      0080AFF3 
  37      0080AFF3 
  37      0080
  38              		.align	2
  39              		.p2align 4,,15
  40              		.weak	__late_init
  41              		.thumb
  42              		.thumb_func
  43              		.type	__late_init, %function
  44              	__late_init:
  45              	.LFB8:
  46              		.loc 1 221 0
  47              		.cfi_startproc
  48              		@ args = 0, pretend = 0, frame = 0
  49              		@ frame_needed = 0, uses_anonymous_args = 0
  50              		@ link register save eliminated.
  51 0000 7047     		bx	lr
  52              		.cfi_endproc
  53              	.LFE8:
  54              		.size	__late_init, .-__late_init
ARM GAS  /tmp/ccfUjVTx.s 			page 2


  55 0002 00BFAFF3 		.section	.text._default_exit,"ax",%progbits
  55      0080AFF3 
  55      0080AFF3 
  55      0080
  56              		.align	2
  57              		.p2align 4,,15
  58              		.weak	_default_exit
  59              		.thumb
  60              		.thumb_func
  61              		.type	_default_exit, %function
  62              	_default_exit:
  63              	.LFB9:
  64              		.loc 1 232 0
  65              		.cfi_startproc
  66              		@ Naked Function: prologue and epilogue provided by programmer.
  67              		@ args = 0, pretend = 0, frame = 0
  68              		@ frame_needed = 0, uses_anonymous_args = 0
  69              	.L4:
  70 0000 FEE7     		b	.L4
  71              		.cfi_endproc
  72              	.LFE9:
  73              		.size	_default_exit, .-_default_exit
  74 0002 00BFAFF3 		.section	.text.ResetHandler,"ax",%progbits
  74      0080AFF3 
  74      0080AFF3 
  74      0080
  75              		.align	2
  76              		.p2align 4,,15
  77              		.global	ResetHandler
  78              		.thumb
  79              		.thumb_func
  80              		.type	ResetHandler, %function
  81              	ResetHandler:
  82              	.LFB11:
  83              		.loc 1 256 0
  84              		.cfi_startproc
  85              		@ Naked Function: prologue and epilogue provided by programmer.
  86              		@ args = 0, pretend = 0, frame = 0
  87              		@ frame_needed = 0, uses_anonymous_args = 0
  88              		.loc 1 262 0
  89              	@ 262 "../../os/ports/GCC/ARMCMx/crt0.c" 1
  90 0000 72B6     		cpsid   i
  91              	@ 0 "" 2
  92              		.loc 1 263 0
  93              		.thumb
  94 0002 40F20004 		movw	r4, #:lower16:__process_stack_end__
  95 0006 C0F20004 		movt	r4, #:upper16:__process_stack_end__
  96              	.LVL0:
  97              		.loc 1 264 0
  98              	@ 264 "../../os/ports/GCC/ARMCMx/crt0.c" 1
  99 000a 84F30988 		msr     PSP, r4
 100              	@ 0 "" 2
 101              	.LVL1:
 102              		.loc 1 284 0
 103              		.thumb
 104 000e 0223     		movs	r3, #2
 105              	@ 284 "../../os/ports/GCC/ARMCMx/crt0.c" 1
ARM GAS  /tmp/ccfUjVTx.s 			page 3


 106 0010 83F31488 		msr     CONTROL, r3
 107              	@ 0 "" 2
 108              		.loc 1 285 0
 109              	@ 285 "../../os/ports/GCC/ARMCMx/crt0.c" 1
 110 0014 BFF36F8F 		isb
 111              	@ 0 "" 2
 112              		.loc 1 288 0
 113              		.thumb
 114 0018 FFF7FEFF 		bl	__early_init
 115              	.LVL2:
 116              	.LBB11:
 117              	.LBB12:
 118              		.loc 1 246 0
 119 001c 40F20003 		movw	r3, #:lower16:__main_stack_base__
 120 0020 40F20002 		movw	r2, #:lower16:__main_stack_end__
 121 0024 C0F20003 		movt	r3, #:upper16:__main_stack_base__
 122 0028 C0F20002 		movt	r2, #:upper16:__main_stack_end__
 123 002c 9342     		cmp	r3, r2
 124 002e 0BD2     		bcs	.L9
 125 0030 D943     		mvns	r1, r3
 126 0032 1144     		add	r1, r1, r2
 127 0034 21F00301 		bic	r1, r1, #3
 128 0038 1944     		add	r1, r1, r3
 129              		.loc 1 247 0
 130 003a 4FF05532 		mov	r2, #1431655765
 131 003e 043B     		subs	r3, r3, #4
 132              	.LVL3:
 133              	.L10:
 134 0040 43F8042F 		str	r2, [r3, #4]!
 135              	.LVL4:
 136              		.loc 1 246 0
 137 0044 8B42     		cmp	r3, r1
 138 0046 FBD1     		bne	.L10
 139              	.LVL5:
 140              	.L9:
 141              	.LBE12:
 142              	.LBE11:
 143              	.LBB13:
 144              	.LBB14:
 145 0048 40F20003 		movw	r3, #:lower16:__process_stack_base__
 146 004c C0F20003 		movt	r3, #:upper16:__process_stack_base__
 147 0050 A342     		cmp	r3, r4
 148 0052 0CD2     		bcs	.L8
 149 0054 3649     		ldr	r1, .L27
 150 0056 1A1D     		adds	r2, r3, #4
 151 0058 891A     		subs	r1, r1, r2
 152 005a 21F00301 		bic	r1, r1, #3
 153 005e 1944     		add	r1, r1, r3
 154              		.loc 1 247 0
 155 0060 4FF05532 		mov	r2, #1431655765
 156 0064 043B     		subs	r3, r3, #4
 157              	.LVL6:
 158              	.L13:
 159 0066 43F8042F 		str	r2, [r3, #4]!
 160              	.LVL7:
 161              		.loc 1 246 0
 162 006a 8B42     		cmp	r3, r1
ARM GAS  /tmp/ccfUjVTx.s 			page 4


 163 006c FBD1     		bne	.L13
 164              	.LVL8:
 165              	.L8:
 166              	.LBE14:
 167              	.LBE13:
 168              	.LBB15:
 169              		.loc 1 307 0
 170 006e 40F20001 		movw	r1, #:lower16:_data
 171 0072 40F20003 		movw	r3, #:lower16:_edata
 172 0076 C0F20001 		movt	r1, #:upper16:_data
 173 007a C0F20003 		movt	r3, #:upper16:_edata
 174 007e 9942     		cmp	r1, r3
 175 0080 0ED2     		bcs	.L12
 176 0082 CC43     		mvns	r4, r1
 177 0084 1C44     		add	r4, r4, r3
 178 0086 24F00304 		bic	r4, r4, #3
 179 008a 40F20000 		movw	r0, #:lower16:_textdata
 180 008e 0434     		adds	r4, r4, #4
 181 0090 C0F20000 		movt	r0, #:upper16:_textdata
 182 0094 0023     		movs	r3, #0
 183              	.LVL9:
 184              	.L16:
 185              		.loc 1 308 0
 186 0096 C258     		ldr	r2, [r0, r3]
 187 0098 CA50     		str	r2, [r1, r3]
 188 009a 0433     		adds	r3, r3, #4
 189              	.LVL10:
 190              		.loc 1 307 0
 191 009c A342     		cmp	r3, r4
 192 009e FAD1     		bne	.L16
 193              	.LVL11:
 194              	.L12:
 195              	.LBE15:
 196              	.LBB16:
 197              	.LBB17:
 198              		.loc 1 246 0
 199 00a0 40F20003 		movw	r3, #:lower16:_bss_start
 200 00a4 40F20002 		movw	r2, #:lower16:_bss_end
 201 00a8 C0F20003 		movt	r3, #:upper16:_bss_start
 202 00ac C0F20002 		movt	r2, #:upper16:_bss_end
 203 00b0 9342     		cmp	r3, r2
 204 00b2 0AD2     		bcs	.L15
 205 00b4 D943     		mvns	r1, r3
 206 00b6 1144     		add	r1, r1, r2
 207 00b8 21F00301 		bic	r1, r1, #3
 208 00bc 1944     		add	r1, r1, r3
 209              		.loc 1 247 0
 210 00be 0022     		movs	r2, #0
 211 00c0 043B     		subs	r3, r3, #4
 212              	.LVL12:
 213              	.L19:
 214 00c2 43F8042F 		str	r2, [r3, #4]!
 215              	.LVL13:
 216              		.loc 1 246 0
 217 00c6 8B42     		cmp	r3, r1
 218 00c8 FBD1     		bne	.L19
 219              	.LVL14:
ARM GAS  /tmp/ccfUjVTx.s 			page 5


 220              	.L15:
 221              	.LBE17:
 222              	.LBE16:
 223              		.loc 1 318 0
 224 00ca FFF7FEFF 		bl	__late_init
 225              	.LVL15:
 226              	.LBB18:
 227              		.loc 1 324 0
 228 00ce 40F20005 		movw	r5, #:lower16:__init_array_start
 229 00d2 40F20003 		movw	r3, #:lower16:__init_array_end
 230 00d6 C0F20005 		movt	r5, #:upper16:__init_array_start
 231 00da C0F20003 		movt	r3, #:upper16:__init_array_end
 232 00de 9D42     		cmp	r5, r3
 233 00e0 0BD2     		bcs	.L18
 234 00e2 EE43     		mvns	r6, r5
 235 00e4 1E44     		add	r6, r6, r3
 236 00e6 B608     		lsrs	r6, r6, #2
 237 00e8 0136     		adds	r6, r6, #1
 238 00ea 043D     		subs	r5, r5, #4
 239 00ec 0024     		movs	r4, #0
 240              	.LVL16:
 241              	.L22:
 242 00ee 0134     		adds	r4, r4, #1
 243              		.loc 1 325 0
 244 00f0 55F8043F 		ldr	r3, [r5, #4]!
 245              	.LVL17:
 246 00f4 9847     		blx	r3
 247              	.LVL18:
 248              		.loc 1 324 0
 249 00f6 B442     		cmp	r4, r6
 250 00f8 F9D1     		bne	.L22
 251              	.LVL19:
 252              	.L18:
 253              	.LBE18:
 254              		.loc 1 332 0
 255 00fa FFF7FEFF 		bl	main
 256              	.LVL20:
 257              	.LBB19:
 258              		.loc 1 338 0
 259 00fe 40F20005 		movw	r5, #:lower16:__fini_array_start
 260 0102 40F20003 		movw	r3, #:lower16:__fini_array_end
 261 0106 C0F20005 		movt	r5, #:upper16:__fini_array_start
 262 010a C0F20003 		movt	r3, #:upper16:__fini_array_end
 263 010e 9D42     		cmp	r5, r3
 264 0110 0BD2     		bcs	.L21
 265 0112 EE43     		mvns	r6, r5
 266 0114 1E44     		add	r6, r6, r3
 267 0116 B608     		lsrs	r6, r6, #2
 268 0118 0136     		adds	r6, r6, #1
 269 011a 043D     		subs	r5, r5, #4
 270 011c 0024     		movs	r4, #0
 271              	.LVL21:
 272              	.L23:
 273 011e 0134     		adds	r4, r4, #1
 274              		.loc 1 339 0
 275 0120 55F8043F 		ldr	r3, [r5, #4]!
 276              	.LVL22:
ARM GAS  /tmp/ccfUjVTx.s 			page 6


 277 0124 9847     		blx	r3
 278              	.LVL23:
 279              		.loc 1 338 0
 280 0126 B442     		cmp	r4, r6
 281 0128 F9D1     		bne	.L23
 282              	.LVL24:
 283              	.L21:
 284              	.LBE19:
 285              		.loc 1 346 0
 286 012a FFF7FEFF 		bl	_default_exit
 287              	.LVL25:
 288              		.loc 1 347 0
 289              	.L28:
 290 012e 00BF     		.align	2
 291              	.L27:
 292 0130 03000000 		.word	__process_stack_end__+3
 293              		.cfi_endproc
 294              	.LFE11:
 295              		.size	ResetHandler, .-ResetHandler
 296 0134 AFF30080 		.text
 296      AFF30080 
 296      AFF30080 
 297              	.Letext0:
 298              		.file 2 "/usr/include/newlib/machine/_default_types.h"
 299              		.file 3 "/usr/include/newlib/stdint.h"
 300              		.section	.debug_info,"",%progbits
 301              	.Ldebug_info0:
 302 0000 FA020000 		.4byte	0x2fa
 303 0004 0400     		.2byte	0x4
 304 0006 00000000 		.4byte	.Ldebug_abbrev0
 305 000a 04       		.byte	0x4
 306 000b 01       		.uleb128 0x1
 307 000c 6E000000 		.4byte	.LASF35
 308 0010 01       		.byte	0x1
 309 0011 30010000 		.4byte	.LASF36
 310 0015 3E020000 		.4byte	.LASF37
 311 0019 00000000 		.4byte	.Ldebug_ranges0+0
 312 001d 00000000 		.4byte	0
 313 0021 00000000 		.4byte	.Ldebug_line0
 314 0025 02       		.uleb128 0x2
 315 0026 04       		.byte	0x4
 316 0027 05       		.byte	0x5
 317 0028 696E7400 		.ascii	"int\000"
 318 002c 03       		.uleb128 0x3
 319 002d 04       		.byte	0x4
 320 002e 07       		.byte	0x7
 321 002f BE010000 		.4byte	.LASF0
 322 0033 03       		.uleb128 0x3
 323 0034 01       		.byte	0x1
 324 0035 06       		.byte	0x6
 325 0036 9B020000 		.4byte	.LASF1
 326 003a 04       		.uleb128 0x4
 327 003b 0B000000 		.4byte	.LASF6
 328 003f 02       		.byte	0x2
 329 0040 1C       		.byte	0x1c
 330 0041 45000000 		.4byte	0x45
 331 0045 03       		.uleb128 0x3
ARM GAS  /tmp/ccfUjVTx.s 			page 7


 332 0046 01       		.byte	0x1
 333 0047 08       		.byte	0x8
 334 0048 16010000 		.4byte	.LASF2
 335 004c 03       		.uleb128 0x3
 336 004d 02       		.byte	0x2
 337 004e 05       		.byte	0x5
 338 004f 34020000 		.4byte	.LASF3
 339 0053 03       		.uleb128 0x3
 340 0054 02       		.byte	0x2
 341 0055 07       		.byte	0x7
 342 0056 5E010000 		.4byte	.LASF4
 343 005a 03       		.uleb128 0x3
 344 005b 04       		.byte	0x4
 345 005c 05       		.byte	0x5
 346 005d 8C020000 		.4byte	.LASF5
 347 0061 04       		.uleb128 0x4
 348 0062 A7010000 		.4byte	.LASF7
 349 0066 02       		.byte	0x2
 350 0067 38       		.byte	0x38
 351 0068 6C000000 		.4byte	0x6c
 352 006c 03       		.uleb128 0x3
 353 006d 04       		.byte	0x4
 354 006e 07       		.byte	0x7
 355 006f 95010000 		.4byte	.LASF8
 356 0073 03       		.uleb128 0x3
 357 0074 08       		.byte	0x8
 358 0075 05       		.byte	0x5
 359 0076 1A020000 		.4byte	.LASF9
 360 007a 03       		.uleb128 0x3
 361 007b 08       		.byte	0x8
 362 007c 07       		.byte	0x7
 363 007d CB010000 		.4byte	.LASF10
 364 0081 04       		.uleb128 0x4
 365 0082 12020000 		.4byte	.LASF11
 366 0086 03       		.byte	0x3
 367 0087 2A       		.byte	0x2a
 368 0088 3A000000 		.4byte	0x3a
 369 008c 04       		.uleb128 0x4
 370 008d 83020000 		.4byte	.LASF12
 371 0091 03       		.byte	0x3
 372 0092 42       		.byte	0x42
 373 0093 61000000 		.4byte	0x61
 374 0097 03       		.uleb128 0x3
 375 0098 04       		.byte	0x4
 376 0099 07       		.byte	0x7
 377 009a 09020000 		.4byte	.LASF13
 378 009e 03       		.uleb128 0x3
 379 009f 01       		.byte	0x1
 380 00a0 08       		.byte	0x8
 381 00a1 28020000 		.4byte	.LASF14
 382 00a5 04       		.uleb128 0x4
 383 00a6 7B020000 		.4byte	.LASF15
 384 00aa 01       		.byte	0x1
 385 00ab 26       		.byte	0x26
 386 00ac B0000000 		.4byte	0xb0
 387 00b0 05       		.uleb128 0x5
 388 00b1 04       		.byte	0x4
ARM GAS  /tmp/ccfUjVTx.s 			page 8


 389 00b2 B6000000 		.4byte	0xb6
 390 00b6 06       		.uleb128 0x6
 391 00b7 04       		.uleb128 0x4
 392 00b8 57000000 		.4byte	.LASF16
 393 00bc 01       		.byte	0x1
 394 00bd 27       		.byte	0x27
 395 00be C2000000 		.4byte	0xc2
 396 00c2 05       		.uleb128 0x5
 397 00c3 04       		.byte	0x4
 398 00c4 A5000000 		.4byte	0xa5
 399 00c8 07       		.uleb128 0x7
 400 00c9 F5010000 		.4byte	.LASF38
 401 00cd 01       		.byte	0x1
 402 00ce F4       		.byte	0xf4
 403 00cf 01       		.byte	0x1
 404 00d0 F6000000 		.4byte	0xf6
 405 00d4 08       		.uleb128 0x8
 406 00d5 51000000 		.4byte	.LASF17
 407 00d9 01       		.byte	0x1
 408 00da F4       		.byte	0xf4
 409 00db F6000000 		.4byte	0xf6
 410 00df 09       		.uleb128 0x9
 411 00e0 656E6400 		.ascii	"end\000"
 412 00e4 01       		.byte	0x1
 413 00e5 F4       		.byte	0xf4
 414 00e6 F6000000 		.4byte	0xf6
 415 00ea 08       		.uleb128 0x8
 416 00eb B2010000 		.4byte	.LASF18
 417 00ef 01       		.byte	0x1
 418 00f0 F4       		.byte	0xf4
 419 00f1 8C000000 		.4byte	0x8c
 420 00f5 00       		.byte	0
 421 00f6 05       		.uleb128 0x5
 422 00f7 04       		.byte	0x4
 423 00f8 8C000000 		.4byte	0x8c
 424 00fc 0A       		.uleb128 0xa
 425 00fd FC010000 		.4byte	.LASF19
 426 0101 01       		.byte	0x1
 427 0102 D1       		.byte	0xd1
 428 0103 00000000 		.4byte	.LFB7
 429 0107 02000000 		.4byte	.LFE7-.LFB7
 430 010b 01       		.uleb128 0x1
 431 010c 9C       		.byte	0x9c
 432 010d 0A       		.uleb128 0xa
 433 010e 24010000 		.4byte	.LASF20
 434 0112 01       		.byte	0x1
 435 0113 DD       		.byte	0xdd
 436 0114 00000000 		.4byte	.LFB8
 437 0118 02000000 		.4byte	.LFE8-.LFB8
 438 011c 01       		.uleb128 0x1
 439 011d 9C       		.byte	0x9c
 440 011e 0A       		.uleb128 0xa
 441 011f 60000000 		.4byte	.LASF21
 442 0123 01       		.byte	0x1
 443 0124 E8       		.byte	0xe8
 444 0125 00000000 		.4byte	.LFB9
 445 0129 02000000 		.4byte	.LFE9-.LFB9
ARM GAS  /tmp/ccfUjVTx.s 			page 9


 446 012d 01       		.uleb128 0x1
 447 012e 9C       		.byte	0x9c
 448 012f 0B       		.uleb128 0xb
 449 0130 51010000 		.4byte	.LASF39
 450 0134 01       		.byte	0x1
 451 0135 0001     		.2byte	0x100
 452 0137 00000000 		.4byte	.LFB11
 453 013b 34010000 		.4byte	.LFE11-.LFB11
 454 013f 01       		.uleb128 0x1
 455 0140 9C       		.byte	0x9c
 456 0141 67020000 		.4byte	0x267
 457 0145 0C       		.uleb128 0xc
 458 0146 70737000 		.ascii	"psp\000"
 459 014a 01       		.byte	0x1
 460 014b 0101     		.2byte	0x101
 461 014d 8C000000 		.4byte	0x8c
 462 0151 0D       		.uleb128 0xd
 463 0152 72656700 		.ascii	"reg\000"
 464 0156 01       		.byte	0x1
 465 0157 0101     		.2byte	0x101
 466 0159 8C000000 		.4byte	0x8c
 467 015d 02       		.byte	0x2
 468 015e 0E       		.uleb128 0xe
 469 015f C8000000 		.4byte	0xc8
 470 0163 1C000000 		.4byte	.LBB11
 471 0167 2C000000 		.4byte	.LBE11-.LBB11
 472 016b 01       		.byte	0x1
 473 016c 2401     		.2byte	0x124
 474 016e 8A010000 		.4byte	0x18a
 475 0172 0F       		.uleb128 0xf
 476 0173 EA000000 		.4byte	0xea
 477 0177 55555555 		.4byte	0x55555555
 478 017b 10       		.uleb128 0x10
 479 017c DF000000 		.4byte	0xdf
 480 0180 11       		.uleb128 0x11
 481 0181 D4000000 		.4byte	0xd4
 482 0185 00000000 		.4byte	.LLST0
 483 0189 00       		.byte	0
 484 018a 0E       		.uleb128 0xe
 485 018b C8000000 		.4byte	0xc8
 486 018f 48000000 		.4byte	.LBB13
 487 0193 26000000 		.4byte	.LBE13-.LBB13
 488 0197 01       		.byte	0x1
 489 0198 2701     		.2byte	0x127
 490 019a B2010000 		.4byte	0x1b2
 491 019e 10       		.uleb128 0x10
 492 019f EA000000 		.4byte	0xea
 493 01a3 10       		.uleb128 0x10
 494 01a4 DF000000 		.4byte	0xdf
 495 01a8 11       		.uleb128 0x11
 496 01a9 D4000000 		.4byte	0xd4
 497 01ad 22000000 		.4byte	.LLST1
 498 01b1 00       		.byte	0
 499 01b2 12       		.uleb128 0x12
 500 01b3 6E000000 		.4byte	.LBB15
 501 01b7 32000000 		.4byte	.LBE15-.LBB15
 502 01bb DE010000 		.4byte	0x1de
ARM GAS  /tmp/ccfUjVTx.s 			page 10


 503 01bf 13       		.uleb128 0x13
 504 01c0 747000   		.ascii	"tp\000"
 505 01c3 01       		.byte	0x1
 506 01c4 2F01     		.2byte	0x12f
 507 01c6 F6000000 		.4byte	0xf6
 508 01ca 44000000 		.4byte	.LLST2
 509 01ce 13       		.uleb128 0x13
 510 01cf 647000   		.ascii	"dp\000"
 511 01d2 01       		.byte	0x1
 512 01d3 2F01     		.2byte	0x12f
 513 01d5 F6000000 		.4byte	0xf6
 514 01d9 44000000 		.4byte	.LLST2
 515 01dd 00       		.byte	0
 516 01de 0E       		.uleb128 0xe
 517 01df C8000000 		.4byte	0xc8
 518 01e3 A0000000 		.4byte	.LBB16
 519 01e7 2A000000 		.4byte	.LBE16-.LBB16
 520 01eb 01       		.byte	0x1
 521 01ec 3A01     		.2byte	0x13a
 522 01ee 06020000 		.4byte	0x206
 523 01f2 10       		.uleb128 0x10
 524 01f3 EA000000 		.4byte	0xea
 525 01f7 10       		.uleb128 0x10
 526 01f8 DF000000 		.4byte	0xdf
 527 01fc 11       		.uleb128 0x11
 528 01fd D4000000 		.4byte	0xd4
 529 0201 66000000 		.4byte	.LLST4
 530 0205 00       		.byte	0
 531 0206 12       		.uleb128 0x12
 532 0207 CE000000 		.4byte	.LBB18
 533 020b 2C000000 		.4byte	.LBE18-.LBB18
 534 020f 24020000 		.4byte	0x224
 535 0213 13       		.uleb128 0x13
 536 0214 66707000 		.ascii	"fpp\000"
 537 0218 01       		.byte	0x1
 538 0219 4301     		.2byte	0x143
 539 021b B7000000 		.4byte	0xb7
 540 021f 88000000 		.4byte	.LLST5
 541 0223 00       		.byte	0
 542 0224 12       		.uleb128 0x12
 543 0225 FE000000 		.4byte	.LBB19
 544 0229 2C000000 		.4byte	.LBE19-.LBB19
 545 022d 42020000 		.4byte	0x242
 546 0231 13       		.uleb128 0x13
 547 0232 66707000 		.ascii	"fpp\000"
 548 0236 01       		.byte	0x1
 549 0237 5101     		.2byte	0x151
 550 0239 B7000000 		.4byte	0xb7
 551 023d B5000000 		.4byte	.LLST6
 552 0241 00       		.byte	0
 553 0242 14       		.uleb128 0x14
 554 0243 1C000000 		.4byte	.LVL2
 555 0247 FC000000 		.4byte	0xfc
 556 024b 14       		.uleb128 0x14
 557 024c CE000000 		.4byte	.LVL15
 558 0250 0D010000 		.4byte	0x10d
 559 0254 14       		.uleb128 0x14
ARM GAS  /tmp/ccfUjVTx.s 			page 11


 560 0255 FE000000 		.4byte	.LVL20
 561 0259 F6020000 		.4byte	0x2f6
 562 025d 14       		.uleb128 0x14
 563 025e 2E010000 		.4byte	.LVL25
 564 0262 1E010000 		.4byte	0x11e
 565 0266 00       		.byte	0
 566 0267 15       		.uleb128 0x15
 567 0268 26000000 		.4byte	.LASF22
 568 026c 01       		.byte	0x1
 569 026d 72       		.byte	0x72
 570 026e 8C000000 		.4byte	0x8c
 571 0272 15       		.uleb128 0x15
 572 0273 D0020000 		.4byte	.LASF23
 573 0277 01       		.byte	0x1
 574 0278 7A       		.byte	0x7a
 575 0279 8C000000 		.4byte	0x8c
 576 027d 15       		.uleb128 0x15
 577 027e 3A000000 		.4byte	.LASF24
 578 0282 01       		.byte	0x1
 579 0283 81       		.byte	0x81
 580 0284 8C000000 		.4byte	0x8c
 581 0288 15       		.uleb128 0x15
 582 0289 A7020000 		.4byte	.LASF25
 583 028d 01       		.byte	0x1
 584 028e 88       		.byte	0x88
 585 028f 8C000000 		.4byte	0x8c
 586 0293 15       		.uleb128 0x15
 587 0294 EB010000 		.4byte	.LASF26
 588 0298 01       		.byte	0x1
 589 0299 8E       		.byte	0x8e
 590 029a 8C000000 		.4byte	0x8c
 591 029e 15       		.uleb128 0x15
 592 029f 95020000 		.4byte	.LASF27
 593 02a3 01       		.byte	0x1
 594 02a4 94       		.byte	0x94
 595 02a5 8C000000 		.4byte	0x8c
 596 02a9 15       		.uleb128 0x15
 597 02aa 2D020000 		.4byte	.LASF28
 598 02ae 01       		.byte	0x1
 599 02af 9A       		.byte	0x9a
 600 02b0 8C000000 		.4byte	0x8c
 601 02b4 15       		.uleb128 0x15
 602 02b5 00000000 		.4byte	.LASF29
 603 02b9 01       		.byte	0x1
 604 02ba A0       		.byte	0xa0
 605 02bb 8C000000 		.4byte	0x8c
 606 02bf 15       		.uleb128 0x15
 607 02c0 E2010000 		.4byte	.LASF30
 608 02c4 01       		.byte	0x1
 609 02c5 A6       		.byte	0xa6
 610 02c6 8C000000 		.4byte	0x8c
 611 02ca 15       		.uleb128 0x15
 612 02cb BD020000 		.4byte	.LASF31
 613 02cf 01       		.byte	0x1
 614 02d0 AC       		.byte	0xac
 615 02d1 A5000000 		.4byte	0xa5
 616 02d5 15       		.uleb128 0x15
ARM GAS  /tmp/ccfUjVTx.s 			page 12


 617 02d6 84010000 		.4byte	.LASF32
 618 02da 01       		.byte	0x1
 619 02db B2       		.byte	0xb2
 620 02dc A5000000 		.4byte	0xa5
 621 02e0 15       		.uleb128 0x15
 622 02e1 71010000 		.4byte	.LASF33
 623 02e5 01       		.byte	0x1
 624 02e6 B8       		.byte	0xb8
 625 02e7 A5000000 		.4byte	0xa5
 626 02eb 15       		.uleb128 0x15
 627 02ec 15000000 		.4byte	.LASF34
 628 02f0 01       		.byte	0x1
 629 02f1 BE       		.byte	0xbe
 630 02f2 A5000000 		.4byte	0xa5
 631 02f6 16       		.uleb128 0x16
 632 02f7 B9010000 		.4byte	.LASF40
 633 02fb 01       		.byte	0x1
 634 02fc C5       		.byte	0xc5
 635 02fd 00       		.byte	0
 636              		.section	.debug_abbrev,"",%progbits
 637              	.Ldebug_abbrev0:
 638 0000 01       		.uleb128 0x1
 639 0001 11       		.uleb128 0x11
 640 0002 01       		.byte	0x1
 641 0003 25       		.uleb128 0x25
 642 0004 0E       		.uleb128 0xe
 643 0005 13       		.uleb128 0x13
 644 0006 0B       		.uleb128 0xb
 645 0007 03       		.uleb128 0x3
 646 0008 0E       		.uleb128 0xe
 647 0009 1B       		.uleb128 0x1b
 648 000a 0E       		.uleb128 0xe
 649 000b 55       		.uleb128 0x55
 650 000c 17       		.uleb128 0x17
 651 000d 11       		.uleb128 0x11
 652 000e 01       		.uleb128 0x1
 653 000f 10       		.uleb128 0x10
 654 0010 17       		.uleb128 0x17
 655 0011 00       		.byte	0
 656 0012 00       		.byte	0
 657 0013 02       		.uleb128 0x2
 658 0014 24       		.uleb128 0x24
 659 0015 00       		.byte	0
 660 0016 0B       		.uleb128 0xb
 661 0017 0B       		.uleb128 0xb
 662 0018 3E       		.uleb128 0x3e
 663 0019 0B       		.uleb128 0xb
 664 001a 03       		.uleb128 0x3
 665 001b 08       		.uleb128 0x8
 666 001c 00       		.byte	0
 667 001d 00       		.byte	0
 668 001e 03       		.uleb128 0x3
 669 001f 24       		.uleb128 0x24
 670 0020 00       		.byte	0
 671 0021 0B       		.uleb128 0xb
 672 0022 0B       		.uleb128 0xb
 673 0023 3E       		.uleb128 0x3e
ARM GAS  /tmp/ccfUjVTx.s 			page 13


 674 0024 0B       		.uleb128 0xb
 675 0025 03       		.uleb128 0x3
 676 0026 0E       		.uleb128 0xe
 677 0027 00       		.byte	0
 678 0028 00       		.byte	0
 679 0029 04       		.uleb128 0x4
 680 002a 16       		.uleb128 0x16
 681 002b 00       		.byte	0
 682 002c 03       		.uleb128 0x3
 683 002d 0E       		.uleb128 0xe
 684 002e 3A       		.uleb128 0x3a
 685 002f 0B       		.uleb128 0xb
 686 0030 3B       		.uleb128 0x3b
 687 0031 0B       		.uleb128 0xb
 688 0032 49       		.uleb128 0x49
 689 0033 13       		.uleb128 0x13
 690 0034 00       		.byte	0
 691 0035 00       		.byte	0
 692 0036 05       		.uleb128 0x5
 693 0037 0F       		.uleb128 0xf
 694 0038 00       		.byte	0
 695 0039 0B       		.uleb128 0xb
 696 003a 0B       		.uleb128 0xb
 697 003b 49       		.uleb128 0x49
 698 003c 13       		.uleb128 0x13
 699 003d 00       		.byte	0
 700 003e 00       		.byte	0
 701 003f 06       		.uleb128 0x6
 702 0040 15       		.uleb128 0x15
 703 0041 00       		.byte	0
 704 0042 27       		.uleb128 0x27
 705 0043 19       		.uleb128 0x19
 706 0044 00       		.byte	0
 707 0045 00       		.byte	0
 708 0046 07       		.uleb128 0x7
 709 0047 2E       		.uleb128 0x2e
 710 0048 01       		.byte	0x1
 711 0049 03       		.uleb128 0x3
 712 004a 0E       		.uleb128 0xe
 713 004b 3A       		.uleb128 0x3a
 714 004c 0B       		.uleb128 0xb
 715 004d 3B       		.uleb128 0x3b
 716 004e 0B       		.uleb128 0xb
 717 004f 27       		.uleb128 0x27
 718 0050 19       		.uleb128 0x19
 719 0051 20       		.uleb128 0x20
 720 0052 0B       		.uleb128 0xb
 721 0053 01       		.uleb128 0x1
 722 0054 13       		.uleb128 0x13
 723 0055 00       		.byte	0
 724 0056 00       		.byte	0
 725 0057 08       		.uleb128 0x8
 726 0058 05       		.uleb128 0x5
 727 0059 00       		.byte	0
 728 005a 03       		.uleb128 0x3
 729 005b 0E       		.uleb128 0xe
 730 005c 3A       		.uleb128 0x3a
ARM GAS  /tmp/ccfUjVTx.s 			page 14


 731 005d 0B       		.uleb128 0xb
 732 005e 3B       		.uleb128 0x3b
 733 005f 0B       		.uleb128 0xb
 734 0060 49       		.uleb128 0x49
 735 0061 13       		.uleb128 0x13
 736 0062 00       		.byte	0
 737 0063 00       		.byte	0
 738 0064 09       		.uleb128 0x9
 739 0065 05       		.uleb128 0x5
 740 0066 00       		.byte	0
 741 0067 03       		.uleb128 0x3
 742 0068 08       		.uleb128 0x8
 743 0069 3A       		.uleb128 0x3a
 744 006a 0B       		.uleb128 0xb
 745 006b 3B       		.uleb128 0x3b
 746 006c 0B       		.uleb128 0xb
 747 006d 49       		.uleb128 0x49
 748 006e 13       		.uleb128 0x13
 749 006f 00       		.byte	0
 750 0070 00       		.byte	0
 751 0071 0A       		.uleb128 0xa
 752 0072 2E       		.uleb128 0x2e
 753 0073 00       		.byte	0
 754 0074 3F       		.uleb128 0x3f
 755 0075 19       		.uleb128 0x19
 756 0076 03       		.uleb128 0x3
 757 0077 0E       		.uleb128 0xe
 758 0078 3A       		.uleb128 0x3a
 759 0079 0B       		.uleb128 0xb
 760 007a 3B       		.uleb128 0x3b
 761 007b 0B       		.uleb128 0xb
 762 007c 27       		.uleb128 0x27
 763 007d 19       		.uleb128 0x19
 764 007e 11       		.uleb128 0x11
 765 007f 01       		.uleb128 0x1
 766 0080 12       		.uleb128 0x12
 767 0081 06       		.uleb128 0x6
 768 0082 40       		.uleb128 0x40
 769 0083 18       		.uleb128 0x18
 770 0084 9742     		.uleb128 0x2117
 771 0086 19       		.uleb128 0x19
 772 0087 00       		.byte	0
 773 0088 00       		.byte	0
 774 0089 0B       		.uleb128 0xb
 775 008a 2E       		.uleb128 0x2e
 776 008b 01       		.byte	0x1
 777 008c 3F       		.uleb128 0x3f
 778 008d 19       		.uleb128 0x19
 779 008e 03       		.uleb128 0x3
 780 008f 0E       		.uleb128 0xe
 781 0090 3A       		.uleb128 0x3a
 782 0091 0B       		.uleb128 0xb
 783 0092 3B       		.uleb128 0x3b
 784 0093 05       		.uleb128 0x5
 785 0094 27       		.uleb128 0x27
 786 0095 19       		.uleb128 0x19
 787 0096 11       		.uleb128 0x11
ARM GAS  /tmp/ccfUjVTx.s 			page 15


 788 0097 01       		.uleb128 0x1
 789 0098 12       		.uleb128 0x12
 790 0099 06       		.uleb128 0x6
 791 009a 40       		.uleb128 0x40
 792 009b 18       		.uleb128 0x18
 793 009c 9642     		.uleb128 0x2116
 794 009e 19       		.uleb128 0x19
 795 009f 01       		.uleb128 0x1
 796 00a0 13       		.uleb128 0x13
 797 00a1 00       		.byte	0
 798 00a2 00       		.byte	0
 799 00a3 0C       		.uleb128 0xc
 800 00a4 34       		.uleb128 0x34
 801 00a5 00       		.byte	0
 802 00a6 03       		.uleb128 0x3
 803 00a7 08       		.uleb128 0x8
 804 00a8 3A       		.uleb128 0x3a
 805 00a9 0B       		.uleb128 0xb
 806 00aa 3B       		.uleb128 0x3b
 807 00ab 05       		.uleb128 0x5
 808 00ac 49       		.uleb128 0x49
 809 00ad 13       		.uleb128 0x13
 810 00ae 00       		.byte	0
 811 00af 00       		.byte	0
 812 00b0 0D       		.uleb128 0xd
 813 00b1 34       		.uleb128 0x34
 814 00b2 00       		.byte	0
 815 00b3 03       		.uleb128 0x3
 816 00b4 08       		.uleb128 0x8
 817 00b5 3A       		.uleb128 0x3a
 818 00b6 0B       		.uleb128 0xb
 819 00b7 3B       		.uleb128 0x3b
 820 00b8 05       		.uleb128 0x5
 821 00b9 49       		.uleb128 0x49
 822 00ba 13       		.uleb128 0x13
 823 00bb 1C       		.uleb128 0x1c
 824 00bc 0B       		.uleb128 0xb
 825 00bd 00       		.byte	0
 826 00be 00       		.byte	0
 827 00bf 0E       		.uleb128 0xe
 828 00c0 1D       		.uleb128 0x1d
 829 00c1 01       		.byte	0x1
 830 00c2 31       		.uleb128 0x31
 831 00c3 13       		.uleb128 0x13
 832 00c4 11       		.uleb128 0x11
 833 00c5 01       		.uleb128 0x1
 834 00c6 12       		.uleb128 0x12
 835 00c7 06       		.uleb128 0x6
 836 00c8 58       		.uleb128 0x58
 837 00c9 0B       		.uleb128 0xb
 838 00ca 59       		.uleb128 0x59
 839 00cb 05       		.uleb128 0x5
 840 00cc 01       		.uleb128 0x1
 841 00cd 13       		.uleb128 0x13
 842 00ce 00       		.byte	0
 843 00cf 00       		.byte	0
 844 00d0 0F       		.uleb128 0xf
ARM GAS  /tmp/ccfUjVTx.s 			page 16


 845 00d1 05       		.uleb128 0x5
 846 00d2 00       		.byte	0
 847 00d3 31       		.uleb128 0x31
 848 00d4 13       		.uleb128 0x13
 849 00d5 1C       		.uleb128 0x1c
 850 00d6 06       		.uleb128 0x6
 851 00d7 00       		.byte	0
 852 00d8 00       		.byte	0
 853 00d9 10       		.uleb128 0x10
 854 00da 05       		.uleb128 0x5
 855 00db 00       		.byte	0
 856 00dc 31       		.uleb128 0x31
 857 00dd 13       		.uleb128 0x13
 858 00de 00       		.byte	0
 859 00df 00       		.byte	0
 860 00e0 11       		.uleb128 0x11
 861 00e1 05       		.uleb128 0x5
 862 00e2 00       		.byte	0
 863 00e3 31       		.uleb128 0x31
 864 00e4 13       		.uleb128 0x13
 865 00e5 02       		.uleb128 0x2
 866 00e6 17       		.uleb128 0x17
 867 00e7 00       		.byte	0
 868 00e8 00       		.byte	0
 869 00e9 12       		.uleb128 0x12
 870 00ea 0B       		.uleb128 0xb
 871 00eb 01       		.byte	0x1
 872 00ec 11       		.uleb128 0x11
 873 00ed 01       		.uleb128 0x1
 874 00ee 12       		.uleb128 0x12
 875 00ef 06       		.uleb128 0x6
 876 00f0 01       		.uleb128 0x1
 877 00f1 13       		.uleb128 0x13
 878 00f2 00       		.byte	0
 879 00f3 00       		.byte	0
 880 00f4 13       		.uleb128 0x13
 881 00f5 34       		.uleb128 0x34
 882 00f6 00       		.byte	0
 883 00f7 03       		.uleb128 0x3
 884 00f8 08       		.uleb128 0x8
 885 00f9 3A       		.uleb128 0x3a
 886 00fa 0B       		.uleb128 0xb
 887 00fb 3B       		.uleb128 0x3b
 888 00fc 05       		.uleb128 0x5
 889 00fd 49       		.uleb128 0x49
 890 00fe 13       		.uleb128 0x13
 891 00ff 02       		.uleb128 0x2
 892 0100 17       		.uleb128 0x17
 893 0101 00       		.byte	0
 894 0102 00       		.byte	0
 895 0103 14       		.uleb128 0x14
 896 0104 898201   		.uleb128 0x4109
 897 0107 00       		.byte	0
 898 0108 11       		.uleb128 0x11
 899 0109 01       		.uleb128 0x1
 900 010a 31       		.uleb128 0x31
 901 010b 13       		.uleb128 0x13
ARM GAS  /tmp/ccfUjVTx.s 			page 17


 902 010c 00       		.byte	0
 903 010d 00       		.byte	0
 904 010e 15       		.uleb128 0x15
 905 010f 34       		.uleb128 0x34
 906 0110 00       		.byte	0
 907 0111 03       		.uleb128 0x3
 908 0112 0E       		.uleb128 0xe
 909 0113 3A       		.uleb128 0x3a
 910 0114 0B       		.uleb128 0xb
 911 0115 3B       		.uleb128 0x3b
 912 0116 0B       		.uleb128 0xb
 913 0117 49       		.uleb128 0x49
 914 0118 13       		.uleb128 0x13
 915 0119 3F       		.uleb128 0x3f
 916 011a 19       		.uleb128 0x19
 917 011b 3C       		.uleb128 0x3c
 918 011c 19       		.uleb128 0x19
 919 011d 00       		.byte	0
 920 011e 00       		.byte	0
 921 011f 16       		.uleb128 0x16
 922 0120 2E       		.uleb128 0x2e
 923 0121 00       		.byte	0
 924 0122 3F       		.uleb128 0x3f
 925 0123 19       		.uleb128 0x19
 926 0124 03       		.uleb128 0x3
 927 0125 0E       		.uleb128 0xe
 928 0126 3A       		.uleb128 0x3a
 929 0127 0B       		.uleb128 0xb
 930 0128 3B       		.uleb128 0x3b
 931 0129 0B       		.uleb128 0xb
 932 012a 27       		.uleb128 0x27
 933 012b 19       		.uleb128 0x19
 934 012c 3C       		.uleb128 0x3c
 935 012d 19       		.uleb128 0x19
 936 012e 00       		.byte	0
 937 012f 00       		.byte	0
 938 0130 00       		.byte	0
 939              		.section	.debug_loc,"",%progbits
 940              	.Ldebug_loc0:
 941              	.LLST0:
 942 0000 40000000 		.4byte	.LVL3
 943 0004 44000000 		.4byte	.LVL4
 944 0008 0300     		.2byte	0x3
 945 000a 73       		.byte	0x73
 946 000b 08       		.sleb128 8
 947 000c 9F       		.byte	0x9f
 948 000d 44000000 		.4byte	.LVL4
 949 0011 48000000 		.4byte	.LVL5
 950 0015 0300     		.2byte	0x3
 951 0017 73       		.byte	0x73
 952 0018 04       		.sleb128 4
 953 0019 9F       		.byte	0x9f
 954 001a 00000000 		.4byte	0
 955 001e 00000000 		.4byte	0
 956              	.LLST1:
 957 0022 66000000 		.4byte	.LVL6
 958 0026 6A000000 		.4byte	.LVL7
ARM GAS  /tmp/ccfUjVTx.s 			page 18


 959 002a 0300     		.2byte	0x3
 960 002c 73       		.byte	0x73
 961 002d 08       		.sleb128 8
 962 002e 9F       		.byte	0x9f
 963 002f 6A000000 		.4byte	.LVL7
 964 0033 6E000000 		.4byte	.LVL8
 965 0037 0300     		.2byte	0x3
 966 0039 73       		.byte	0x73
 967 003a 04       		.sleb128 4
 968 003b 9F       		.byte	0x9f
 969 003c 00000000 		.4byte	0
 970 0040 00000000 		.4byte	0
 971              	.LLST2:
 972 0044 96000000 		.4byte	.LVL9
 973 0048 9C000000 		.4byte	.LVL10
 974 004c 0300     		.2byte	0x3
 975 004e 73       		.byte	0x73
 976 004f 00       		.sleb128 0
 977 0050 9F       		.byte	0x9f
 978 0051 9C000000 		.4byte	.LVL10
 979 0055 A0000000 		.4byte	.LVL11
 980 0059 0300     		.2byte	0x3
 981 005b 73       		.byte	0x73
 982 005c 00       		.sleb128 0
 983 005d 9F       		.byte	0x9f
 984 005e 00000000 		.4byte	0
 985 0062 00000000 		.4byte	0
 986              	.LLST4:
 987 0066 C2000000 		.4byte	.LVL12
 988 006a C6000000 		.4byte	.LVL13
 989 006e 0300     		.2byte	0x3
 990 0070 73       		.byte	0x73
 991 0071 08       		.sleb128 8
 992 0072 9F       		.byte	0x9f
 993 0073 C6000000 		.4byte	.LVL13
 994 0077 CA000000 		.4byte	.LVL14
 995 007b 0300     		.2byte	0x3
 996 007d 73       		.byte	0x73
 997 007e 04       		.sleb128 4
 998 007f 9F       		.byte	0x9f
 999 0080 00000000 		.4byte	0
 1000 0084 00000000 		.4byte	0
 1001              	.LLST5:
 1002 0088 EE000000 		.4byte	.LVL16
 1003 008c F4000000 		.4byte	.LVL17
 1004 0090 0300     		.2byte	0x3
 1005 0092 75       		.byte	0x75
 1006 0093 04       		.sleb128 4
 1007 0094 9F       		.byte	0x9f
 1008 0095 F4000000 		.4byte	.LVL17
 1009 0099 F6000000 		.4byte	.LVL18
 1010 009d 0100     		.2byte	0x1
 1011 009f 55       		.byte	0x55
 1012 00a0 F6000000 		.4byte	.LVL18
 1013 00a4 FA000000 		.4byte	.LVL19
 1014 00a8 0300     		.2byte	0x3
 1015 00aa 75       		.byte	0x75
ARM GAS  /tmp/ccfUjVTx.s 			page 19


 1016 00ab 04       		.sleb128 4
 1017 00ac 9F       		.byte	0x9f
 1018 00ad 00000000 		.4byte	0
 1019 00b1 00000000 		.4byte	0
 1020              	.LLST6:
 1021 00b5 1E010000 		.4byte	.LVL21
 1022 00b9 24010000 		.4byte	.LVL22
 1023 00bd 0300     		.2byte	0x3
 1024 00bf 75       		.byte	0x75
 1025 00c0 04       		.sleb128 4
 1026 00c1 9F       		.byte	0x9f
 1027 00c2 24010000 		.4byte	.LVL22
 1028 00c6 26010000 		.4byte	.LVL23
 1029 00ca 0100     		.2byte	0x1
 1030 00cc 55       		.byte	0x55
 1031 00cd 26010000 		.4byte	.LVL23
 1032 00d1 2A010000 		.4byte	.LVL24
 1033 00d5 0300     		.2byte	0x3
 1034 00d7 75       		.byte	0x75
 1035 00d8 04       		.sleb128 4
 1036 00d9 9F       		.byte	0x9f
 1037 00da 00000000 		.4byte	0
 1038 00de 00000000 		.4byte	0
 1039              		.section	.debug_aranges,"",%progbits
 1040 0000 34000000 		.4byte	0x34
 1041 0004 0200     		.2byte	0x2
 1042 0006 00000000 		.4byte	.Ldebug_info0
 1043 000a 04       		.byte	0x4
 1044 000b 00       		.byte	0
 1045 000c 0000     		.2byte	0
 1046 000e 0000     		.2byte	0
 1047 0010 00000000 		.4byte	.LFB7
 1048 0014 02000000 		.4byte	.LFE7-.LFB7
 1049 0018 00000000 		.4byte	.LFB8
 1050 001c 02000000 		.4byte	.LFE8-.LFB8
 1051 0020 00000000 		.4byte	.LFB9
 1052 0024 02000000 		.4byte	.LFE9-.LFB9
 1053 0028 00000000 		.4byte	.LFB11
 1054 002c 34010000 		.4byte	.LFE11-.LFB11
 1055 0030 00000000 		.4byte	0
 1056 0034 00000000 		.4byte	0
 1057              		.section	.debug_ranges,"",%progbits
 1058              	.Ldebug_ranges0:
 1059 0000 00000000 		.4byte	.LFB7
 1060 0004 02000000 		.4byte	.LFE7
 1061 0008 00000000 		.4byte	.LFB8
 1062 000c 02000000 		.4byte	.LFE8
 1063 0010 00000000 		.4byte	.LFB9
 1064 0014 02000000 		.4byte	.LFE9
 1065 0018 00000000 		.4byte	.LFB11
 1066 001c 34010000 		.4byte	.LFE11
 1067 0020 00000000 		.4byte	0
 1068 0024 00000000 		.4byte	0
 1069              		.section	.debug_line,"",%progbits
 1070              	.Ldebug_line0:
 1071 0000 F5000000 		.section	.debug_str,"MS",%progbits,1
 1071      02008700 
ARM GAS  /tmp/ccfUjVTx.s 			page 20


 1071      00000201 
 1071      FB0E0D00 
 1071      01010101 
 1072              	.LASF29:
 1073 0000 5F627373 		.ascii	"_bss_start\000"
 1073      5F737461 
 1073      727400
 1074              	.LASF6:
 1075 000b 5F5F7569 		.ascii	"__uint8_t\000"
 1075      6E74385F 
 1075      7400
 1076              	.LASF34:
 1077 0015 5F5F6669 		.ascii	"__fini_array_end\000"
 1077      6E695F61 
 1077      72726179 
 1077      5F656E64 
 1077      00
 1078              	.LASF22:
 1079 0026 5F5F6D61 		.ascii	"__main_stack_base__\000"
 1079      696E5F73 
 1079      7461636B 
 1079      5F626173 
 1079      655F5F00 
 1080              	.LASF24:
 1081 003a 5F5F7072 		.ascii	"__process_stack_base__\000"
 1081      6F636573 
 1081      735F7374 
 1081      61636B5F 
 1081      62617365 
 1082              	.LASF17:
 1083 0051 73746172 		.ascii	"start\000"
 1083      7400
 1084              	.LASF16:
 1085 0057 66756E63 		.ascii	"funcpp_t\000"
 1085      70705F74 
 1085      00
 1086              	.LASF21:
 1087 0060 5F646566 		.ascii	"_default_exit\000"
 1087      61756C74 
 1087      5F657869 
 1087      7400
 1088              	.LASF35:
 1089 006e 474E5520 		.ascii	"GNU C 4.8.2 -mcpu=cortex-m3 -mno-thumb-interwork -m"
 1089      4320342E 
 1089      382E3220 
 1089      2D6D6370 
 1089      753D636F 
 1090 00a1 7468756D 		.ascii	"thumb -ggdb -O2 -std=gnu99 -fomit-frame-pointer -fa"
 1090      62202D67 
 1090      67646220 
 1090      2D4F3220 
 1090      2D737464 
 1091 00d4 6C69676E 		.ascii	"lign-functions=16 -ffunction-sections -fdata-sectio"
 1091      2D66756E 
 1091      6374696F 
 1091      6E733D31 
 1091      36202D66 
ARM GAS  /tmp/ccfUjVTx.s 			page 21


 1092 0107 6E73202D 		.ascii	"ns -fno-common\000"
 1092      666E6F2D 
 1092      636F6D6D 
 1092      6F6E00
 1093              	.LASF2:
 1094 0116 756E7369 		.ascii	"unsigned char\000"
 1094      676E6564 
 1094      20636861 
 1094      7200
 1095              	.LASF20:
 1096 0124 5F5F6C61 		.ascii	"__late_init\000"
 1096      74655F69 
 1096      6E697400 
 1097              	.LASF36:
 1098 0130 2E2E2F2E 		.ascii	"../../os/ports/GCC/ARMCMx/crt0.c\000"
 1098      2E2F6F73 
 1098      2F706F72 
 1098      74732F47 
 1098      43432F41 
 1099              	.LASF39:
 1100 0151 52657365 		.ascii	"ResetHandler\000"
 1100      7448616E 
 1100      646C6572 
 1100      00
 1101              	.LASF4:
 1102 015e 73686F72 		.ascii	"short unsigned int\000"
 1102      7420756E 
 1102      7369676E 
 1102      65642069 
 1102      6E7400
 1103              	.LASF33:
 1104 0171 5F5F6669 		.ascii	"__fini_array_start\000"
 1104      6E695F61 
 1104      72726179 
 1104      5F737461 
 1104      727400
 1105              	.LASF32:
 1106 0184 5F5F696E 		.ascii	"__init_array_end\000"
 1106      69745F61 
 1106      72726179 
 1106      5F656E64 
 1106      00
 1107              	.LASF8:
 1108 0195 6C6F6E67 		.ascii	"long unsigned int\000"
 1108      20756E73 
 1108      69676E65 
 1108      6420696E 
 1108      7400
 1109              	.LASF7:
 1110 01a7 5F5F7569 		.ascii	"__uint32_t\000"
 1110      6E743332 
 1110      5F7400
 1111              	.LASF18:
 1112 01b2 66696C6C 		.ascii	"filler\000"
 1112      657200
 1113              	.LASF40:
 1114 01b9 6D61696E 		.ascii	"main\000"
ARM GAS  /tmp/ccfUjVTx.s 			page 22


 1114      00
 1115              	.LASF0:
 1116 01be 756E7369 		.ascii	"unsigned int\000"
 1116      676E6564 
 1116      20696E74 
 1116      00
 1117              	.LASF10:
 1118 01cb 6C6F6E67 		.ascii	"long long unsigned int\000"
 1118      206C6F6E 
 1118      6720756E 
 1118      7369676E 
 1118      65642069 
 1119              	.LASF30:
 1120 01e2 5F627373 		.ascii	"_bss_end\000"
 1120      5F656E64 
 1120      00
 1121              	.LASF26:
 1122 01eb 5F746578 		.ascii	"_textdata\000"
 1122      74646174 
 1122      6100
 1123              	.LASF38:
 1124 01f5 66696C6C 		.ascii	"fill32\000"
 1124      333200
 1125              	.LASF19:
 1126 01fc 5F5F6561 		.ascii	"__early_init\000"
 1126      726C795F 
 1126      696E6974 
 1126      00
 1127              	.LASF13:
 1128 0209 73697A65 		.ascii	"sizetype\000"
 1128      74797065 
 1128      00
 1129              	.LASF11:
 1130 0212 75696E74 		.ascii	"uint8_t\000"
 1130      385F7400 
 1131              	.LASF9:
 1132 021a 6C6F6E67 		.ascii	"long long int\000"
 1132      206C6F6E 
 1132      6720696E 
 1132      7400
 1133              	.LASF14:
 1134 0228 63686172 		.ascii	"char\000"
 1134      00
 1135              	.LASF28:
 1136 022d 5F656461 		.ascii	"_edata\000"
 1136      746100
 1137              	.LASF3:
 1138 0234 73686F72 		.ascii	"short int\000"
 1138      7420696E 
 1138      7400
 1139              	.LASF37:
 1140 023e 2F686F6D 		.ascii	"/home/cata/Documents/Embebidos/ChibiOS/iflab_code/s"
 1140      652F6361 
 1140      74612F44 
 1140      6F63756D 
 1140      656E7473 
 1141 0271 74616D70 		.ascii	"tamp_code\000"
ARM GAS  /tmp/ccfUjVTx.s 			page 23


 1141      5F636F64 
 1141      6500
 1142              	.LASF15:
 1143 027b 66756E63 		.ascii	"funcp_t\000"
 1143      705F7400 
 1144              	.LASF12:
 1145 0283 75696E74 		.ascii	"uint32_t\000"
 1145      33325F74 
 1145      00
 1146              	.LASF5:
 1147 028c 6C6F6E67 		.ascii	"long int\000"
 1147      20696E74 
 1147      00
 1148              	.LASF27:
 1149 0295 5F646174 		.ascii	"_data\000"
 1149      6100
 1150              	.LASF1:
 1151 029b 7369676E 		.ascii	"signed char\000"
 1151      65642063 
 1151      68617200 
 1152              	.LASF25:
 1153 02a7 5F5F7072 		.ascii	"__process_stack_end__\000"
 1153      6F636573 
 1153      735F7374 
 1153      61636B5F 
 1153      656E645F 
 1154              	.LASF31:
 1155 02bd 5F5F696E 		.ascii	"__init_array_start\000"
 1155      69745F61 
 1155      72726179 
 1155      5F737461 
 1155      727400
 1156              	.LASF23:
 1157 02d0 5F5F6D61 		.ascii	"__main_stack_end__\000"
 1157      696E5F73 
 1157      7461636B 
 1157      5F656E64 
 1157      5F5F00
 1158              		.ident	"GCC: (4.8.2-14ubuntu1+6) 4.8.2"
ARM GAS  /tmp/ccfUjVTx.s 			page 24


DEFINED SYMBOLS
                            *ABS*:0000000000000000 crt0.c
     /tmp/ccfUjVTx.s:19     .text.__early_init:0000000000000000 $t
     /tmp/ccfUjVTx.s:25     .text.__early_init:0000000000000000 __early_init
     /tmp/ccfUjVTx.s:38     .text.__late_init:0000000000000000 $t
     /tmp/ccfUjVTx.s:44     .text.__late_init:0000000000000000 __late_init
     /tmp/ccfUjVTx.s:56     .text._default_exit:0000000000000000 $t
     /tmp/ccfUjVTx.s:62     .text._default_exit:0000000000000000 _default_exit
     /tmp/ccfUjVTx.s:75     .text.ResetHandler:0000000000000000 $t
     /tmp/ccfUjVTx.s:81     .text.ResetHandler:0000000000000000 ResetHandler
     /tmp/ccfUjVTx.s:292    .text.ResetHandler:0000000000000130 $d
                     .debug_frame:0000000000000010 $d
     /tmp/ccfUjVTx.s:296    .text.ResetHandler:0000000000000134 $t

UNDEFINED SYMBOLS
__process_stack_end__
__main_stack_base__
__main_stack_end__
__process_stack_base__
_data
_edata
_textdata
_bss_start
_bss_end
__init_array_start
__init_array_end
main
__fini_array_start
__fini_array_end
