ARM GAS  /tmp/ccJpduug.s 			page 1


   1              		.syntax unified
   2              		.cpu cortex-m3
   3              		.fpu softvfp
   4              		.eabi_attribute 20, 1
   5              		.eabi_attribute 21, 1
   6              		.eabi_attribute 23, 3
   7              		.eabi_attribute 24, 1
   8              		.eabi_attribute 25, 1
   9              		.eabi_attribute 26, 1
  10              		.eabi_attribute 30, 2
  11              		.eabi_attribute 34, 1
  12              		.eabi_attribute 18, 4
  13              		.thumb
  14              		.file	"pal.c"
  15              		.text
  16              	.Ltext0:
  17              		.cfi_sections	.debug_frame
  18              		.section	.text.palReadBus,"ax",%progbits
  19              		.align	2
  20              		.p2align 4,,15
  21              		.global	palReadBus
  22              		.thumb
  23              		.thumb_func
  24              		.type	palReadBus, %function
  25              	palReadBus:
  26              	.LFB36:
  27              		.file 1 "../../os/hal/src/pal.c"
  28              		.loc 1 76 0
  29              		.cfi_startproc
  30              		@ args = 0, pretend = 0, frame = 0
  31              		@ frame_needed = 0, uses_anonymous_args = 0
  32              		@ link register save eliminated.
  33              	.LVL0:
  34              		.loc 1 81 0
  35 0000 0368     		ldr	r3, [r0]
  36 0002 8268     		ldr	r2, [r0, #8]
  37 0004 D96B     		ldr	r1, [r3, #60]
  38 0006 4368     		ldr	r3, [r0, #4]
  39 0008 21FA02F0 		lsr	r0, r1, r2
  40              	.LVL1:
  41              		.loc 1 82 0
  42 000c 1840     		ands	r0, r0, r3
  43 000e 7047     		bx	lr
  44              		.cfi_endproc
  45              	.LFE36:
  46              		.size	palReadBus, .-palReadBus
  47              		.section	.text.palWriteBus,"ax",%progbits
  48              		.align	2
  49              		.p2align 4,,15
  50              		.global	palWriteBus
  51              		.thumb
  52              		.thumb_func
  53              		.type	palWriteBus, %function
  54              	palWriteBus:
  55              	.LFB37:
  56              		.loc 1 101 0
  57              		.cfi_startproc
ARM GAS  /tmp/ccJpduug.s 			page 2


  58              		@ args = 0, pretend = 0, frame = 0
  59              		@ frame_needed = 0, uses_anonymous_args = 0
  60              		@ link register save eliminated.
  61              	.LVL2:
  62              		.loc 1 106 0
  63 0000 8368     		ldr	r3, [r0, #8]
  64 0002 4268     		ldr	r2, [r0, #4]
  65 0004 9940     		lsls	r1, r1, r3
  66              	.LVL3:
  67 0006 9A40     		lsls	r2, r2, r3
  68 0008 0368     		ldr	r3, [r0]
  69 000a C3F8A020 		str	r2, [r3, #160]
  70 000e 9963     		str	r1, [r3, #56]
  71 0010 C3F8A420 		str	r2, [r3, #164]
  72 0014 7047     		bx	lr
  73              		.cfi_endproc
  74              	.LFE37:
  75              		.size	palWriteBus, .-palWriteBus
  76 0016 00BFAFF3 		.section	.text.palSetBusMode,"ax",%progbits
  76      0080AFF3 
  76      0080
  77              		.align	2
  78              		.p2align 4,,15
  79              		.global	palSetBusMode
  80              		.thumb
  81              		.thumb_func
  82              		.type	palSetBusMode, %function
  83              	palSetBusMode:
  84              	.LFB38:
  85              		.loc 1 124 0
  86              		.cfi_startproc
  87              		@ args = 0, pretend = 0, frame = 0
  88              		@ frame_needed = 0, uses_anonymous_args = 0
  89              		@ link register save eliminated.
  90              	.LVL4:
  91 0000 10B4     		push	{r4}
  92              		.cfi_def_cfa_offset 4
  93              		.cfi_offset 4, -4
  94              		.loc 1 129 0
  95 0002 8368     		ldr	r3, [r0, #8]
  96 0004 4468     		ldr	r4, [r0, #4]
  97              		.loc 1 124 0
  98 0006 0A46     		mov	r2, r1
  99              		.loc 1 129 0
 100 0008 0068     		ldr	r0, [r0]
 101              	.LVL5:
 102 000a 04FA03F1 		lsl	r1, r4, r3
 103              	.LVL6:
 104              		.loc 1 130 0
 105 000e 5DF8044B 		ldr	r4, [sp], #4
 106              		.loc 1 129 0
 107 0012 FFF7FEBF 		b	_pal_lld_setgroupmode
 108              	.LVL7:
 109              		.cfi_endproc
 110              	.LFE38:
 111              		.size	palSetBusMode, .-palSetBusMode
 112 0016 00BFAFF3 		.text
ARM GAS  /tmp/ccJpduug.s 			page 3


 112      0080AFF3 
 112      0080
 113              	.Letext0:
 114              		.file 2 "/usr/include/newlib/machine/_default_types.h"
 115              		.file 3 "/usr/include/newlib/stdint.h"
 116              		.file 4 "../../os/hal/platforms/AT91SAM3/at91lib/SAM3N.h"
 117              		.file 5 "../../os/hal/platforms/AT91SAM3/pal_lld.h"
 118              		.file 6 "../../os/hal/include/pal.h"
 119              		.file 7 "../../os/hal/platforms/AT91SAM3/core_cm3.h"
 120              		.section	.debug_info,"",%progbits
 121              	.Ldebug_info0:
 122 0000 77050000 		.4byte	0x577
 123 0004 0400     		.2byte	0x4
 124 0006 00000000 		.4byte	.Ldebug_abbrev0
 125 000a 04       		.byte	0x4
 126 000b 01       		.uleb128 0x1
 127 000c A4010000 		.4byte	.LASF87
 128 0010 01       		.byte	0x1
 129 0011 9B000000 		.4byte	.LASF88
 130 0015 50030000 		.4byte	.LASF89
 131 0019 00000000 		.4byte	.Ldebug_ranges0+0
 132 001d 00000000 		.4byte	0
 133 0021 00000000 		.4byte	.Ldebug_line0
 134 0025 02       		.uleb128 0x2
 135 0026 04       		.byte	0x4
 136 0027 05       		.byte	0x5
 137 0028 696E7400 		.ascii	"int\000"
 138 002c 03       		.uleb128 0x3
 139 002d 04       		.byte	0x4
 140 002e 07       		.byte	0x7
 141 002f B9020000 		.4byte	.LASF0
 142 0033 03       		.uleb128 0x3
 143 0034 01       		.byte	0x1
 144 0035 06       		.byte	0x6
 145 0036 80020000 		.4byte	.LASF1
 146 003a 03       		.uleb128 0x3
 147 003b 01       		.byte	0x1
 148 003c 08       		.byte	0x8
 149 003d 6C020000 		.4byte	.LASF2
 150 0041 03       		.uleb128 0x3
 151 0042 02       		.byte	0x2
 152 0043 05       		.byte	0x5
 153 0044 50000000 		.4byte	.LASF3
 154 0048 03       		.uleb128 0x3
 155 0049 02       		.byte	0x2
 156 004a 07       		.byte	0x7
 157 004b 21030000 		.4byte	.LASF4
 158 004f 03       		.uleb128 0x3
 159 0050 04       		.byte	0x4
 160 0051 05       		.byte	0x5
 161 0052 58010000 		.4byte	.LASF5
 162 0056 04       		.uleb128 0x4
 163 0057 2B000000 		.4byte	.LASF9
 164 005b 02       		.byte	0x2
 165 005c 38       		.byte	0x38
 166 005d 61000000 		.4byte	0x61
 167 0061 03       		.uleb128 0x3
ARM GAS  /tmp/ccJpduug.s 			page 4


 168 0062 04       		.byte	0x4
 169 0063 07       		.byte	0x7
 170 0064 96030000 		.4byte	.LASF6
 171 0068 03       		.uleb128 0x3
 172 0069 08       		.byte	0x8
 173 006a 05       		.byte	0x5
 174 006b 33010000 		.4byte	.LASF7
 175 006f 03       		.uleb128 0x3
 176 0070 08       		.byte	0x8
 177 0071 07       		.byte	0x7
 178 0072 8C020000 		.4byte	.LASF8
 179 0076 04       		.uleb128 0x4
 180 0077 B0020000 		.4byte	.LASF10
 181 007b 03       		.byte	0x3
 182 007c 42       		.byte	0x42
 183 007d 56000000 		.4byte	0x56
 184 0081 04       		.uleb128 0x4
 185 0082 A3020000 		.4byte	.LASF11
 186 0086 03       		.byte	0x3
 187 0087 60       		.byte	0x60
 188 0088 2C000000 		.4byte	0x2c
 189 008c 05       		.uleb128 0x5
 190 008d 76000000 		.4byte	0x76
 191 0091 03       		.uleb128 0x3
 192 0092 04       		.byte	0x4
 193 0093 07       		.byte	0x7
 194 0094 5A000000 		.4byte	.LASF12
 195 0098 03       		.uleb128 0x3
 196 0099 01       		.byte	0x1
 197 009a 08       		.byte	0x8
 198 009b 0B030000 		.4byte	.LASF13
 199 009f 04       		.uleb128 0x4
 200 00a0 95010000 		.4byte	.LASF14
 201 00a4 04       		.byte	0x4
 202 00a5 35       		.byte	0x35
 203 00a6 AA000000 		.4byte	0xaa
 204 00aa 06       		.uleb128 0x6
 205 00ab 8C000000 		.4byte	0x8c
 206 00af 04       		.uleb128 0x4
 207 00b0 25000000 		.4byte	.LASF15
 208 00b4 04       		.byte	0x4
 209 00b5 39       		.byte	0x39
 210 00b6 8C000000 		.4byte	0x8c
 211 00ba 04       		.uleb128 0x4
 212 00bb 7A020000 		.4byte	.LASF16
 213 00bf 04       		.byte	0x4
 214 00c0 3A       		.byte	0x3a
 215 00c1 8C000000 		.4byte	0x8c
 216 00c5 07       		.uleb128 0x7
 217 00c6 BA000000 		.4byte	0xba
 218 00ca D5000000 		.4byte	0xd5
 219 00ce 08       		.uleb128 0x8
 220 00cf 91000000 		.4byte	0x91
 221 00d3 00       		.byte	0
 222 00d4 00       		.byte	0
 223 00d5 07       		.uleb128 0x7
 224 00d6 BA000000 		.4byte	0xba
ARM GAS  /tmp/ccJpduug.s 			page 5


 225 00da E5000000 		.4byte	0xe5
 226 00de 08       		.uleb128 0x8
 227 00df 91000000 		.4byte	0x91
 228 00e3 01       		.byte	0x1
 229 00e4 00       		.byte	0
 230 00e5 07       		.uleb128 0x7
 231 00e6 BA000000 		.4byte	0xba
 232 00ea F5000000 		.4byte	0xf5
 233 00ee 08       		.uleb128 0x8
 234 00ef 91000000 		.4byte	0x91
 235 00f3 04       		.byte	0x4
 236 00f4 00       		.byte	0
 237 00f5 09       		.uleb128 0x9
 238 00f6 0401     		.2byte	0x104
 239 00f8 04       		.byte	0x4
 240 00f9 0D04     		.2byte	0x40d
 241 00fb 00040000 		.4byte	0x400
 242 00ff 0A       		.uleb128 0xa
 243 0100 F6030000 		.4byte	.LASF17
 244 0104 04       		.byte	0x4
 245 0105 0E04     		.2byte	0x40e
 246 0107 AF000000 		.4byte	0xaf
 247 010b 00       		.byte	0
 248 010c 0A       		.uleb128 0xa
 249 010d 63040000 		.4byte	.LASF18
 250 0111 04       		.byte	0x4
 251 0112 0F04     		.2byte	0x40f
 252 0114 AF000000 		.4byte	0xaf
 253 0118 04       		.byte	0x4
 254 0119 0A       		.uleb128 0xa
 255 011a 6B040000 		.4byte	.LASF19
 256 011e 04       		.byte	0x4
 257 011f 1004     		.2byte	0x410
 258 0121 9F000000 		.4byte	0x9f
 259 0125 08       		.byte	0x8
 260 0126 0A       		.uleb128 0xa
 261 0127 CD000000 		.4byte	.LASF20
 262 012b 04       		.byte	0x4
 263 012c 1104     		.2byte	0x411
 264 012e 00040000 		.4byte	0x400
 265 0132 0C       		.byte	0xc
 266 0133 0A       		.uleb128 0xa
 267 0134 26040000 		.4byte	.LASF21
 268 0138 04       		.byte	0x4
 269 0139 1204     		.2byte	0x412
 270 013b AF000000 		.4byte	0xaf
 271 013f 10       		.byte	0x10
 272 0140 0A       		.uleb128 0xa
 273 0141 40000000 		.4byte	.LASF22
 274 0145 04       		.byte	0x4
 275 0146 1304     		.2byte	0x413
 276 0148 AF000000 		.4byte	0xaf
 277 014c 14       		.byte	0x14
 278 014d 0A       		.uleb128 0xa
 279 014e 48000000 		.4byte	.LASF23
 280 0152 04       		.byte	0x4
 281 0153 1404     		.2byte	0x414
ARM GAS  /tmp/ccJpduug.s 			page 6


 282 0155 9F000000 		.4byte	0x9f
 283 0159 18       		.byte	0x18
 284 015a 0A       		.uleb128 0xa
 285 015b D7000000 		.4byte	.LASF24
 286 015f 04       		.byte	0x4
 287 0160 1504     		.2byte	0x415
 288 0162 05040000 		.4byte	0x405
 289 0166 1C       		.byte	0x1c
 290 0167 0A       		.uleb128 0xa
 291 0168 F0020000 		.4byte	.LASF25
 292 016c 04       		.byte	0x4
 293 016d 1604     		.2byte	0x416
 294 016f AF000000 		.4byte	0xaf
 295 0173 20       		.byte	0x20
 296 0174 0A       		.uleb128 0xa
 297 0175 46010000 		.4byte	.LASF26
 298 0179 04       		.byte	0x4
 299 017a 1704     		.2byte	0x417
 300 017c AF000000 		.4byte	0xaf
 301 0180 24       		.byte	0x24
 302 0181 0A       		.uleb128 0xa
 303 0182 4F010000 		.4byte	.LASF27
 304 0186 04       		.byte	0x4
 305 0187 1804     		.2byte	0x418
 306 0189 9F000000 		.4byte	0x9f
 307 018d 28       		.byte	0x28
 308 018e 0A       		.uleb128 0xa
 309 018f E1000000 		.4byte	.LASF28
 310 0193 04       		.byte	0x4
 311 0194 1904     		.2byte	0x419
 312 0196 0A040000 		.4byte	0x40a
 313 019a 2C       		.byte	0x2c
 314 019b 0A       		.uleb128 0xa
 315 019c 1D040000 		.4byte	.LASF29
 316 01a0 04       		.byte	0x4
 317 01a1 1A04     		.2byte	0x41a
 318 01a3 AF000000 		.4byte	0xaf
 319 01a7 30       		.byte	0x30
 320 01a8 0A       		.uleb128 0xa
 321 01a9 8D030000 		.4byte	.LASF30
 322 01ad 04       		.byte	0x4
 323 01ae 1B04     		.2byte	0x41b
 324 01b0 AF000000 		.4byte	0xaf
 325 01b4 34       		.byte	0x34
 326 01b5 0A       		.uleb128 0xa
 327 01b6 63000000 		.4byte	.LASF31
 328 01ba 04       		.byte	0x4
 329 01bb 1C04     		.2byte	0x41c
 330 01bd BA000000 		.4byte	0xba
 331 01c1 38       		.byte	0x38
 332 01c2 0A       		.uleb128 0xa
 333 01c3 68010000 		.4byte	.LASF32
 334 01c7 04       		.byte	0x4
 335 01c8 1D04     		.2byte	0x41d
 336 01ca 9F000000 		.4byte	0x9f
 337 01ce 3C       		.byte	0x3c
 338 01cf 0A       		.uleb128 0xa
ARM GAS  /tmp/ccJpduug.s 			page 7


 339 01d0 1D000000 		.4byte	.LASF33
 340 01d4 04       		.byte	0x4
 341 01d5 1E04     		.2byte	0x41e
 342 01d7 AF000000 		.4byte	0xaf
 343 01db 40       		.byte	0x40
 344 01dc 0A       		.uleb128 0xa
 345 01dd B2030000 		.4byte	.LASF34
 346 01e1 04       		.byte	0x4
 347 01e2 1F04     		.2byte	0x41f
 348 01e4 AF000000 		.4byte	0xaf
 349 01e8 44       		.byte	0x44
 350 01e9 0A       		.uleb128 0xa
 351 01ea 48030000 		.4byte	.LASF35
 352 01ee 04       		.byte	0x4
 353 01ef 2004     		.2byte	0x420
 354 01f1 9F000000 		.4byte	0x9f
 355 01f5 48       		.byte	0x48
 356 01f6 0A       		.uleb128 0xa
 357 01f7 BA030000 		.4byte	.LASF36
 358 01fb 04       		.byte	0x4
 359 01fc 2104     		.2byte	0x421
 360 01fe 9F000000 		.4byte	0x9f
 361 0202 4C       		.byte	0x4c
 362 0203 0A       		.uleb128 0xa
 363 0204 C6020000 		.4byte	.LASF37
 364 0208 04       		.byte	0x4
 365 0209 2204     		.2byte	0x422
 366 020b AF000000 		.4byte	0xaf
 367 020f 50       		.byte	0x50
 368 0210 0A       		.uleb128 0xa
 369 0211 14040000 		.4byte	.LASF38
 370 0215 04       		.byte	0x4
 371 0216 2304     		.2byte	0x423
 372 0218 AF000000 		.4byte	0xaf
 373 021c 54       		.byte	0x54
 374 021d 0A       		.uleb128 0xa
 375 021e F9020000 		.4byte	.LASF39
 376 0222 04       		.byte	0x4
 377 0223 2404     		.2byte	0x424
 378 0225 9F000000 		.4byte	0x9f
 379 0229 58       		.byte	0x58
 380 022a 0A       		.uleb128 0xa
 381 022b A8030000 		.4byte	.LASF40
 382 022f 04       		.byte	0x4
 383 0230 2504     		.2byte	0x425
 384 0232 0F040000 		.4byte	0x40f
 385 0236 5C       		.byte	0x5c
 386 0237 0A       		.uleb128 0xa
 387 0238 7B010000 		.4byte	.LASF41
 388 023c 04       		.byte	0x4
 389 023d 2604     		.2byte	0x426
 390 023f AF000000 		.4byte	0xaf
 391 0243 60       		.byte	0x60
 392 0244 0A       		.uleb128 0xa
 393 0245 34030000 		.4byte	.LASF42
 394 0249 04       		.byte	0x4
 395 024a 2704     		.2byte	0x427
ARM GAS  /tmp/ccJpduug.s 			page 8


 396 024c AF000000 		.4byte	0xaf
 397 0250 64       		.byte	0x64
 398 0251 0A       		.uleb128 0xa
 399 0252 84010000 		.4byte	.LASF43
 400 0256 04       		.byte	0x4
 401 0257 2804     		.2byte	0x428
 402 0259 9F000000 		.4byte	0x9f
 403 025d 68       		.byte	0x68
 404 025e 0A       		.uleb128 0xa
 405 025f F3000000 		.4byte	.LASF44
 406 0263 04       		.byte	0x4
 407 0264 2904     		.2byte	0x429
 408 0266 14040000 		.4byte	0x414
 409 026a 6C       		.byte	0x6c
 410 026b 0A       		.uleb128 0xa
 411 026c FE030000 		.4byte	.LASF45
 412 0270 04       		.byte	0x4
 413 0271 2A04     		.2byte	0x42a
 414 0273 19040000 		.4byte	0x419
 415 0277 70       		.byte	0x70
 416 0278 0A       		.uleb128 0xa
 417 0279 FD000000 		.4byte	.LASF46
 418 027d 04       		.byte	0x4
 419 027e 2B04     		.2byte	0x42b
 420 0280 1E040000 		.4byte	0x41e
 421 0284 78       		.byte	0x78
 422 0285 0A       		.uleb128 0xa
 423 0286 4C020000 		.4byte	.LASF47
 424 028a 04       		.byte	0x4
 425 028b 2C04     		.2byte	0x42c
 426 028d AF000000 		.4byte	0xaf
 427 0291 80       		.byte	0x80
 428 0292 0A       		.uleb128 0xa
 429 0293 3D030000 		.4byte	.LASF48
 430 0297 04       		.byte	0x4
 431 0298 2D04     		.2byte	0x42d
 432 029a AF000000 		.4byte	0xaf
 433 029e 84       		.byte	0x84
 434 029f 0A       		.uleb128 0xa
 435 02a0 57020000 		.4byte	.LASF49
 436 02a4 04       		.byte	0x4
 437 02a5 2E04     		.2byte	0x42e
 438 02a7 9F000000 		.4byte	0x9f
 439 02ab 88       		.byte	0x88
 440 02ac 0A       		.uleb128 0xa
 441 02ad 73040000 		.4byte	.LASF50
 442 02b1 04       		.byte	0x4
 443 02b2 2F04     		.2byte	0x42f
 444 02b4 BA000000 		.4byte	0xba
 445 02b8 8C       		.byte	0x8c
 446 02b9 0A       		.uleb128 0xa
 447 02ba 87000000 		.4byte	.LASF51
 448 02be 04       		.byte	0x4
 449 02bf 3004     		.2byte	0x430
 450 02c1 AF000000 		.4byte	0xaf
 451 02c5 90       		.byte	0x90
 452 02c6 0A       		.uleb128 0xa
ARM GAS  /tmp/ccJpduug.s 			page 9


 453 02c7 71010000 		.4byte	.LASF52
 454 02cb 04       		.byte	0x4
 455 02cc 3104     		.2byte	0x431
 456 02ce AF000000 		.4byte	0xaf
 457 02d2 94       		.byte	0x94
 458 02d3 0A       		.uleb128 0xa
 459 02d4 91000000 		.4byte	.LASF53
 460 02d8 04       		.byte	0x4
 461 02d9 3204     		.2byte	0x432
 462 02db 9F000000 		.4byte	0x9f
 463 02df 98       		.byte	0x98
 464 02e0 0A       		.uleb128 0xa
 465 02e1 07010000 		.4byte	.LASF54
 466 02e5 04       		.byte	0x4
 467 02e6 3304     		.2byte	0x433
 468 02e8 23040000 		.4byte	0x423
 469 02ec 9C       		.byte	0x9c
 470 02ed 0A       		.uleb128 0xa
 471 02ee B2000000 		.4byte	.LASF55
 472 02f2 04       		.byte	0x4
 473 02f3 3404     		.2byte	0x434
 474 02f5 AF000000 		.4byte	0xaf
 475 02f9 A0       		.byte	0xa0
 476 02fa 0A       		.uleb128 0xa
 477 02fb 3B040000 		.4byte	.LASF56
 478 02ff 04       		.byte	0x4
 479 0300 3504     		.2byte	0x435
 480 0302 AF000000 		.4byte	0xaf
 481 0306 A4       		.byte	0xa4
 482 0307 0A       		.uleb128 0xa
 483 0308 44040000 		.4byte	.LASF57
 484 030c 04       		.byte	0x4
 485 030d 3604     		.2byte	0x436
 486 030f 9F000000 		.4byte	0x9f
 487 0313 A8       		.byte	0xa8
 488 0314 0A       		.uleb128 0xa
 489 0315 D0030000 		.4byte	.LASF58
 490 0319 04       		.byte	0x4
 491 031a 3704     		.2byte	0x437
 492 031c 28040000 		.4byte	0x428
 493 0320 AC       		.byte	0xac
 494 0321 0A       		.uleb128 0xa
 495 0322 4D040000 		.4byte	.LASF59
 496 0326 04       		.byte	0x4
 497 0327 3804     		.2byte	0x438
 498 0329 AF000000 		.4byte	0xaf
 499 032d B0       		.byte	0xb0
 500 032e 0A       		.uleb128 0xa
 501 032f 36000000 		.4byte	.LASF60
 502 0333 04       		.byte	0x4
 503 0334 3904     		.2byte	0x439
 504 0336 AF000000 		.4byte	0xaf
 505 033a B4       		.byte	0xb4
 506 033b 0A       		.uleb128 0xa
 507 033c 62020000 		.4byte	.LASF61
 508 0340 04       		.byte	0x4
 509 0341 3A04     		.2byte	0x43a
ARM GAS  /tmp/ccJpduug.s 			page 10


 510 0343 9F000000 		.4byte	0x9f
 511 0347 B8       		.byte	0xb8
 512 0348 0A       		.uleb128 0xa
 513 0349 1E010000 		.4byte	.LASF62
 514 034d 04       		.byte	0x4
 515 034e 3B04     		.2byte	0x43b
 516 0350 2D040000 		.4byte	0x42d
 517 0354 BC       		.byte	0xbc
 518 0355 0A       		.uleb128 0xa
 519 0356 EB000000 		.4byte	.LASF63
 520 035a 04       		.byte	0x4
 521 035b 3C04     		.2byte	0x43c
 522 035d AF000000 		.4byte	0xaf
 523 0361 C0       		.byte	0xc0
 524 0362 0A       		.uleb128 0xa
 525 0363 8D010000 		.4byte	.LASF64
 526 0367 04       		.byte	0x4
 527 0368 3D04     		.2byte	0x43d
 528 036a AF000000 		.4byte	0xaf
 529 036e C4       		.byte	0xc4
 530 036f 0A       		.uleb128 0xa
 531 0370 02030000 		.4byte	.LASF65
 532 0374 04       		.byte	0x4
 533 0375 3E04     		.2byte	0x43e
 534 0377 9F000000 		.4byte	0x9f
 535 037b C8       		.byte	0xc8
 536 037c 0A       		.uleb128 0xa
 537 037d 10030000 		.4byte	.LASF66
 538 0381 04       		.byte	0x4
 539 0382 3F04     		.2byte	0x43f
 540 0384 32040000 		.4byte	0x432
 541 0388 CC       		.byte	0xcc
 542 0389 0A       		.uleb128 0xa
 543 038a 28010000 		.4byte	.LASF67
 544 038e 04       		.byte	0x4
 545 038f 4004     		.2byte	0x440
 546 0391 AF000000 		.4byte	0xaf
 547 0395 D0       		.byte	0xd0
 548 0396 0A       		.uleb128 0xa
 549 0397 6C000000 		.4byte	.LASF68
 550 039b 04       		.byte	0x4
 551 039c 4104     		.2byte	0x441
 552 039e AF000000 		.4byte	0xaf
 553 03a2 D4       		.byte	0xd4
 554 03a3 0A       		.uleb128 0xa
 555 03a4 DA030000 		.4byte	.LASF69
 556 03a8 04       		.byte	0x4
 557 03a9 4204     		.2byte	0x442
 558 03ab 9F000000 		.4byte	0x9f
 559 03af D8       		.byte	0xd8
 560 03b0 0A       		.uleb128 0xa
 561 03b1 DA020000 		.4byte	.LASF70
 562 03b5 04       		.byte	0x4
 563 03b6 4304     		.2byte	0x443
 564 03b8 37040000 		.4byte	0x437
 565 03bc DC       		.byte	0xdc
 566 03bd 0A       		.uleb128 0xa
ARM GAS  /tmp/ccJpduug.s 			page 11


 567 03be 7C000000 		.4byte	.LASF71
 568 03c2 04       		.byte	0x4
 569 03c3 4404     		.2byte	0x444
 570 03c5 9F000000 		.4byte	0x9f
 571 03c9 E0       		.byte	0xe0
 572 03ca 0A       		.uleb128 0xa
 573 03cb C4000000 		.4byte	.LASF72
 574 03cf 04       		.byte	0x4
 575 03d0 4504     		.2byte	0x445
 576 03d2 BA000000 		.4byte	0xba
 577 03d6 E4       		.byte	0xe4
 578 03d7 0A       		.uleb128 0xa
 579 03d8 9B010000 		.4byte	.LASF73
 580 03dc 04       		.byte	0x4
 581 03dd 4604     		.2byte	0x446
 582 03df 9F000000 		.4byte	0x9f
 583 03e3 E8       		.byte	0xe8
 584 03e4 0A       		.uleb128 0xa
 585 03e5 E5020000 		.4byte	.LASF74
 586 03e9 04       		.byte	0x4
 587 03ea 4704     		.2byte	0x447
 588 03ec 3C040000 		.4byte	0x43c
 589 03f0 EC       		.byte	0xec
 590 03f1 0B       		.uleb128 0xb
 591 03f2 EA030000 		.4byte	.LASF75
 592 03f6 04       		.byte	0x4
 593 03f7 4804     		.2byte	0x448
 594 03f9 BA000000 		.4byte	0xba
 595 03fd 0001     		.2byte	0x100
 596 03ff 00       		.byte	0
 597 0400 05       		.uleb128 0x5
 598 0401 C5000000 		.4byte	0xc5
 599 0405 05       		.uleb128 0x5
 600 0406 C5000000 		.4byte	0xc5
 601 040a 05       		.uleb128 0x5
 602 040b C5000000 		.4byte	0xc5
 603 040f 05       		.uleb128 0x5
 604 0410 C5000000 		.4byte	0xc5
 605 0414 05       		.uleb128 0x5
 606 0415 C5000000 		.4byte	0xc5
 607 0419 05       		.uleb128 0x5
 608 041a D5000000 		.4byte	0xd5
 609 041e 05       		.uleb128 0x5
 610 041f D5000000 		.4byte	0xd5
 611 0423 05       		.uleb128 0x5
 612 0424 C5000000 		.4byte	0xc5
 613 0428 05       		.uleb128 0x5
 614 0429 C5000000 		.4byte	0xc5
 615 042d 05       		.uleb128 0x5
 616 042e C5000000 		.4byte	0xc5
 617 0432 05       		.uleb128 0x5
 618 0433 C5000000 		.4byte	0xc5
 619 0437 05       		.uleb128 0x5
 620 0438 C5000000 		.4byte	0xc5
 621 043c 05       		.uleb128 0x5
 622 043d E5000000 		.4byte	0xe5
 623 0441 0C       		.uleb128 0xc
ARM GAS  /tmp/ccJpduug.s 			page 12


 624 0442 50696F00 		.ascii	"Pio\000"
 625 0446 04       		.byte	0x4
 626 0447 4904     		.2byte	0x449
 627 0449 F5000000 		.4byte	0xf5
 628 044d 04       		.uleb128 0x4
 629 044e BB000000 		.4byte	.LASF76
 630 0452 05       		.byte	0x5
 631 0453 2E       		.byte	0x2e
 632 0454 76000000 		.4byte	0x76
 633 0458 04       		.uleb128 0x4
 634 0459 11010000 		.4byte	.LASF77
 635 045d 05       		.byte	0x5
 636 045e 5D       		.byte	0x5d
 637 045f 76000000 		.4byte	0x76
 638 0463 04       		.uleb128 0x4
 639 0464 09040000 		.4byte	.LASF78
 640 0468 05       		.byte	0x5
 641 0469 65       		.byte	0x65
 642 046a 6E040000 		.4byte	0x46e
 643 046e 0D       		.uleb128 0xd
 644 046f 04       		.byte	0x4
 645 0470 41040000 		.4byte	0x441
 646 0474 0E       		.uleb128 0xe
 647 0475 0C       		.byte	0xc
 648 0476 06       		.byte	0x6
 649 0477 85       		.byte	0x85
 650 0478 A1040000 		.4byte	0x4a1
 651 047c 0F       		.uleb128 0xf
 652 047d 00000000 		.4byte	.LASF79
 653 0481 06       		.byte	0x6
 654 0482 89       		.byte	0x89
 655 0483 63040000 		.4byte	0x463
 656 0487 00       		.byte	0
 657 0488 0F       		.uleb128 0xf
 658 0489 E5030000 		.4byte	.LASF80
 659 048d 06       		.byte	0x6
 660 048e 8F       		.byte	0x8f
 661 048f 58040000 		.4byte	0x458
 662 0493 04       		.byte	0x4
 663 0494 0F       		.uleb128 0xf
 664 0495 61010000 		.4byte	.LASF81
 665 0499 06       		.byte	0x6
 666 049a 93       		.byte	0x93
 667 049b 81000000 		.4byte	0x81
 668 049f 08       		.byte	0x8
 669 04a0 00       		.byte	0
 670 04a1 04       		.uleb128 0x4
 671 04a2 1B030000 		.4byte	.LASF82
 672 04a6 06       		.byte	0x6
 673 04a7 94       		.byte	0x94
 674 04a8 74040000 		.4byte	0x474
 675 04ac 10       		.uleb128 0x10
 676 04ad CF020000 		.4byte	.LASF90
 677 04b1 01       		.byte	0x1
 678 04b2 4C       		.byte	0x4c
 679 04b3 58040000 		.4byte	0x458
 680 04b7 00000000 		.4byte	.LFB36
ARM GAS  /tmp/ccJpduug.s 			page 13


 681 04bb 10000000 		.4byte	.LFE36-.LFB36
 682 04bf 01       		.uleb128 0x1
 683 04c0 9C       		.byte	0x9c
 684 04c1 D5040000 		.4byte	0x4d5
 685 04c5 11       		.uleb128 0x11
 686 04c6 62757300 		.ascii	"bus\000"
 687 04ca 01       		.byte	0x1
 688 04cb 4C       		.byte	0x4c
 689 04cc D5040000 		.4byte	0x4d5
 690 04d0 00000000 		.4byte	.LLST0
 691 04d4 00       		.byte	0
 692 04d5 0D       		.uleb128 0xd
 693 04d6 04       		.byte	0x4
 694 04d7 A1040000 		.4byte	0x4a1
 695 04db 12       		.uleb128 0x12
 696 04dc 57040000 		.4byte	.LASF84
 697 04e0 01       		.byte	0x1
 698 04e1 65       		.byte	0x65
 699 04e2 00000000 		.4byte	.LFB37
 700 04e6 16000000 		.4byte	.LFE37-.LFB37
 701 04ea 01       		.uleb128 0x1
 702 04eb 9C       		.byte	0x9c
 703 04ec 0D050000 		.4byte	0x50d
 704 04f0 13       		.uleb128 0x13
 705 04f1 62757300 		.ascii	"bus\000"
 706 04f5 01       		.byte	0x1
 707 04f6 65       		.byte	0x65
 708 04f7 D5040000 		.4byte	0x4d5
 709 04fb 01       		.uleb128 0x1
 710 04fc 50       		.byte	0x50
 711 04fd 14       		.uleb128 0x14
 712 04fe 41010000 		.4byte	.LASF83
 713 0502 01       		.byte	0x1
 714 0503 65       		.byte	0x65
 715 0504 58040000 		.4byte	0x458
 716 0508 21000000 		.4byte	.LLST1
 717 050c 00       		.byte	0
 718 050d 12       		.uleb128 0x12
 719 050e C2030000 		.4byte	.LASF85
 720 0512 01       		.byte	0x1
 721 0513 7C       		.byte	0x7c
 722 0514 00000000 		.4byte	.LFB38
 723 0518 16000000 		.4byte	.LFE38-.LFB38
 724 051c 01       		.uleb128 0x1
 725 051d 9C       		.byte	0x9c
 726 051e 52050000 		.4byte	0x552
 727 0522 11       		.uleb128 0x11
 728 0523 62757300 		.ascii	"bus\000"
 729 0527 01       		.byte	0x1
 730 0528 7C       		.byte	0x7c
 731 0529 D5040000 		.4byte	0x4d5
 732 052d 42000000 		.4byte	.LLST2
 733 0531 14       		.uleb128 0x14
 734 0532 77000000 		.4byte	.LASF86
 735 0536 01       		.byte	0x1
 736 0537 7C       		.byte	0x7c
 737 0538 4D040000 		.4byte	0x44d
ARM GAS  /tmp/ccJpduug.s 			page 14


 738 053c 63000000 		.4byte	.LLST3
 739 0540 15       		.uleb128 0x15
 740 0541 16000000 		.4byte	.LVL7
 741 0545 63050000 		.4byte	0x563
 742 0549 16       		.uleb128 0x16
 743 054a 01       		.uleb128 0x1
 744 054b 52       		.byte	0x52
 745 054c 03       		.uleb128 0x3
 746 054d F3       		.byte	0xf3
 747 054e 01       		.uleb128 0x1
 748 054f 51       		.byte	0x51
 749 0550 00       		.byte	0
 750 0551 00       		.byte	0
 751 0552 17       		.uleb128 0x17
 752 0553 2E040000 		.4byte	.LASF91
 753 0557 07       		.byte	0x7
 754 0558 CE06     		.2byte	0x6ce
 755 055a 5E050000 		.4byte	0x55e
 756 055e 05       		.uleb128 0x5
 757 055f 25000000 		.4byte	0x25
 758 0563 18       		.uleb128 0x18
 759 0564 07000000 		.4byte	.LASF92
 760 0568 05       		.byte	0x5
 761 0569 F6       		.byte	0xf6
 762 056a 19       		.uleb128 0x19
 763 056b 63040000 		.4byte	0x463
 764 056f 19       		.uleb128 0x19
 765 0570 58040000 		.4byte	0x458
 766 0574 19       		.uleb128 0x19
 767 0575 81000000 		.4byte	0x81
 768 0579 00       		.byte	0
 769 057a 00       		.byte	0
 770              		.section	.debug_abbrev,"",%progbits
 771              	.Ldebug_abbrev0:
 772 0000 01       		.uleb128 0x1
 773 0001 11       		.uleb128 0x11
 774 0002 01       		.byte	0x1
 775 0003 25       		.uleb128 0x25
 776 0004 0E       		.uleb128 0xe
 777 0005 13       		.uleb128 0x13
 778 0006 0B       		.uleb128 0xb
 779 0007 03       		.uleb128 0x3
 780 0008 0E       		.uleb128 0xe
 781 0009 1B       		.uleb128 0x1b
 782 000a 0E       		.uleb128 0xe
 783 000b 55       		.uleb128 0x55
 784 000c 17       		.uleb128 0x17
 785 000d 11       		.uleb128 0x11
 786 000e 01       		.uleb128 0x1
 787 000f 10       		.uleb128 0x10
 788 0010 17       		.uleb128 0x17
 789 0011 00       		.byte	0
 790 0012 00       		.byte	0
 791 0013 02       		.uleb128 0x2
 792 0014 24       		.uleb128 0x24
 793 0015 00       		.byte	0
 794 0016 0B       		.uleb128 0xb
ARM GAS  /tmp/ccJpduug.s 			page 15


 795 0017 0B       		.uleb128 0xb
 796 0018 3E       		.uleb128 0x3e
 797 0019 0B       		.uleb128 0xb
 798 001a 03       		.uleb128 0x3
 799 001b 08       		.uleb128 0x8
 800 001c 00       		.byte	0
 801 001d 00       		.byte	0
 802 001e 03       		.uleb128 0x3
 803 001f 24       		.uleb128 0x24
 804 0020 00       		.byte	0
 805 0021 0B       		.uleb128 0xb
 806 0022 0B       		.uleb128 0xb
 807 0023 3E       		.uleb128 0x3e
 808 0024 0B       		.uleb128 0xb
 809 0025 03       		.uleb128 0x3
 810 0026 0E       		.uleb128 0xe
 811 0027 00       		.byte	0
 812 0028 00       		.byte	0
 813 0029 04       		.uleb128 0x4
 814 002a 16       		.uleb128 0x16
 815 002b 00       		.byte	0
 816 002c 03       		.uleb128 0x3
 817 002d 0E       		.uleb128 0xe
 818 002e 3A       		.uleb128 0x3a
 819 002f 0B       		.uleb128 0xb
 820 0030 3B       		.uleb128 0x3b
 821 0031 0B       		.uleb128 0xb
 822 0032 49       		.uleb128 0x49
 823 0033 13       		.uleb128 0x13
 824 0034 00       		.byte	0
 825 0035 00       		.byte	0
 826 0036 05       		.uleb128 0x5
 827 0037 35       		.uleb128 0x35
 828 0038 00       		.byte	0
 829 0039 49       		.uleb128 0x49
 830 003a 13       		.uleb128 0x13
 831 003b 00       		.byte	0
 832 003c 00       		.byte	0
 833 003d 06       		.uleb128 0x6
 834 003e 26       		.uleb128 0x26
 835 003f 00       		.byte	0
 836 0040 49       		.uleb128 0x49
 837 0041 13       		.uleb128 0x13
 838 0042 00       		.byte	0
 839 0043 00       		.byte	0
 840 0044 07       		.uleb128 0x7
 841 0045 01       		.uleb128 0x1
 842 0046 01       		.byte	0x1
 843 0047 49       		.uleb128 0x49
 844 0048 13       		.uleb128 0x13
 845 0049 01       		.uleb128 0x1
 846 004a 13       		.uleb128 0x13
 847 004b 00       		.byte	0
 848 004c 00       		.byte	0
 849 004d 08       		.uleb128 0x8
 850 004e 21       		.uleb128 0x21
 851 004f 00       		.byte	0
ARM GAS  /tmp/ccJpduug.s 			page 16


 852 0050 49       		.uleb128 0x49
 853 0051 13       		.uleb128 0x13
 854 0052 2F       		.uleb128 0x2f
 855 0053 0B       		.uleb128 0xb
 856 0054 00       		.byte	0
 857 0055 00       		.byte	0
 858 0056 09       		.uleb128 0x9
 859 0057 13       		.uleb128 0x13
 860 0058 01       		.byte	0x1
 861 0059 0B       		.uleb128 0xb
 862 005a 05       		.uleb128 0x5
 863 005b 3A       		.uleb128 0x3a
 864 005c 0B       		.uleb128 0xb
 865 005d 3B       		.uleb128 0x3b
 866 005e 05       		.uleb128 0x5
 867 005f 01       		.uleb128 0x1
 868 0060 13       		.uleb128 0x13
 869 0061 00       		.byte	0
 870 0062 00       		.byte	0
 871 0063 0A       		.uleb128 0xa
 872 0064 0D       		.uleb128 0xd
 873 0065 00       		.byte	0
 874 0066 03       		.uleb128 0x3
 875 0067 0E       		.uleb128 0xe
 876 0068 3A       		.uleb128 0x3a
 877 0069 0B       		.uleb128 0xb
 878 006a 3B       		.uleb128 0x3b
 879 006b 05       		.uleb128 0x5
 880 006c 49       		.uleb128 0x49
 881 006d 13       		.uleb128 0x13
 882 006e 38       		.uleb128 0x38
 883 006f 0B       		.uleb128 0xb
 884 0070 00       		.byte	0
 885 0071 00       		.byte	0
 886 0072 0B       		.uleb128 0xb
 887 0073 0D       		.uleb128 0xd
 888 0074 00       		.byte	0
 889 0075 03       		.uleb128 0x3
 890 0076 0E       		.uleb128 0xe
 891 0077 3A       		.uleb128 0x3a
 892 0078 0B       		.uleb128 0xb
 893 0079 3B       		.uleb128 0x3b
 894 007a 05       		.uleb128 0x5
 895 007b 49       		.uleb128 0x49
 896 007c 13       		.uleb128 0x13
 897 007d 38       		.uleb128 0x38
 898 007e 05       		.uleb128 0x5
 899 007f 00       		.byte	0
 900 0080 00       		.byte	0
 901 0081 0C       		.uleb128 0xc
 902 0082 16       		.uleb128 0x16
 903 0083 00       		.byte	0
 904 0084 03       		.uleb128 0x3
 905 0085 08       		.uleb128 0x8
 906 0086 3A       		.uleb128 0x3a
 907 0087 0B       		.uleb128 0xb
 908 0088 3B       		.uleb128 0x3b
ARM GAS  /tmp/ccJpduug.s 			page 17


 909 0089 05       		.uleb128 0x5
 910 008a 49       		.uleb128 0x49
 911 008b 13       		.uleb128 0x13
 912 008c 00       		.byte	0
 913 008d 00       		.byte	0
 914 008e 0D       		.uleb128 0xd
 915 008f 0F       		.uleb128 0xf
 916 0090 00       		.byte	0
 917 0091 0B       		.uleb128 0xb
 918 0092 0B       		.uleb128 0xb
 919 0093 49       		.uleb128 0x49
 920 0094 13       		.uleb128 0x13
 921 0095 00       		.byte	0
 922 0096 00       		.byte	0
 923 0097 0E       		.uleb128 0xe
 924 0098 13       		.uleb128 0x13
 925 0099 01       		.byte	0x1
 926 009a 0B       		.uleb128 0xb
 927 009b 0B       		.uleb128 0xb
 928 009c 3A       		.uleb128 0x3a
 929 009d 0B       		.uleb128 0xb
 930 009e 3B       		.uleb128 0x3b
 931 009f 0B       		.uleb128 0xb
 932 00a0 01       		.uleb128 0x1
 933 00a1 13       		.uleb128 0x13
 934 00a2 00       		.byte	0
 935 00a3 00       		.byte	0
 936 00a4 0F       		.uleb128 0xf
 937 00a5 0D       		.uleb128 0xd
 938 00a6 00       		.byte	0
 939 00a7 03       		.uleb128 0x3
 940 00a8 0E       		.uleb128 0xe
 941 00a9 3A       		.uleb128 0x3a
 942 00aa 0B       		.uleb128 0xb
 943 00ab 3B       		.uleb128 0x3b
 944 00ac 0B       		.uleb128 0xb
 945 00ad 49       		.uleb128 0x49
 946 00ae 13       		.uleb128 0x13
 947 00af 38       		.uleb128 0x38
 948 00b0 0B       		.uleb128 0xb
 949 00b1 00       		.byte	0
 950 00b2 00       		.byte	0
 951 00b3 10       		.uleb128 0x10
 952 00b4 2E       		.uleb128 0x2e
 953 00b5 01       		.byte	0x1
 954 00b6 3F       		.uleb128 0x3f
 955 00b7 19       		.uleb128 0x19
 956 00b8 03       		.uleb128 0x3
 957 00b9 0E       		.uleb128 0xe
 958 00ba 3A       		.uleb128 0x3a
 959 00bb 0B       		.uleb128 0xb
 960 00bc 3B       		.uleb128 0x3b
 961 00bd 0B       		.uleb128 0xb
 962 00be 27       		.uleb128 0x27
 963 00bf 19       		.uleb128 0x19
 964 00c0 49       		.uleb128 0x49
 965 00c1 13       		.uleb128 0x13
ARM GAS  /tmp/ccJpduug.s 			page 18


 966 00c2 11       		.uleb128 0x11
 967 00c3 01       		.uleb128 0x1
 968 00c4 12       		.uleb128 0x12
 969 00c5 06       		.uleb128 0x6
 970 00c6 40       		.uleb128 0x40
 971 00c7 18       		.uleb128 0x18
 972 00c8 9742     		.uleb128 0x2117
 973 00ca 19       		.uleb128 0x19
 974 00cb 01       		.uleb128 0x1
 975 00cc 13       		.uleb128 0x13
 976 00cd 00       		.byte	0
 977 00ce 00       		.byte	0
 978 00cf 11       		.uleb128 0x11
 979 00d0 05       		.uleb128 0x5
 980 00d1 00       		.byte	0
 981 00d2 03       		.uleb128 0x3
 982 00d3 08       		.uleb128 0x8
 983 00d4 3A       		.uleb128 0x3a
 984 00d5 0B       		.uleb128 0xb
 985 00d6 3B       		.uleb128 0x3b
 986 00d7 0B       		.uleb128 0xb
 987 00d8 49       		.uleb128 0x49
 988 00d9 13       		.uleb128 0x13
 989 00da 02       		.uleb128 0x2
 990 00db 17       		.uleb128 0x17
 991 00dc 00       		.byte	0
 992 00dd 00       		.byte	0
 993 00de 12       		.uleb128 0x12
 994 00df 2E       		.uleb128 0x2e
 995 00e0 01       		.byte	0x1
 996 00e1 3F       		.uleb128 0x3f
 997 00e2 19       		.uleb128 0x19
 998 00e3 03       		.uleb128 0x3
 999 00e4 0E       		.uleb128 0xe
 1000 00e5 3A       		.uleb128 0x3a
 1001 00e6 0B       		.uleb128 0xb
 1002 00e7 3B       		.uleb128 0x3b
 1003 00e8 0B       		.uleb128 0xb
 1004 00e9 27       		.uleb128 0x27
 1005 00ea 19       		.uleb128 0x19
 1006 00eb 11       		.uleb128 0x11
 1007 00ec 01       		.uleb128 0x1
 1008 00ed 12       		.uleb128 0x12
 1009 00ee 06       		.uleb128 0x6
 1010 00ef 40       		.uleb128 0x40
 1011 00f0 18       		.uleb128 0x18
 1012 00f1 9742     		.uleb128 0x2117
 1013 00f3 19       		.uleb128 0x19
 1014 00f4 01       		.uleb128 0x1
 1015 00f5 13       		.uleb128 0x13
 1016 00f6 00       		.byte	0
 1017 00f7 00       		.byte	0
 1018 00f8 13       		.uleb128 0x13
 1019 00f9 05       		.uleb128 0x5
 1020 00fa 00       		.byte	0
 1021 00fb 03       		.uleb128 0x3
 1022 00fc 08       		.uleb128 0x8
ARM GAS  /tmp/ccJpduug.s 			page 19


 1023 00fd 3A       		.uleb128 0x3a
 1024 00fe 0B       		.uleb128 0xb
 1025 00ff 3B       		.uleb128 0x3b
 1026 0100 0B       		.uleb128 0xb
 1027 0101 49       		.uleb128 0x49
 1028 0102 13       		.uleb128 0x13
 1029 0103 02       		.uleb128 0x2
 1030 0104 18       		.uleb128 0x18
 1031 0105 00       		.byte	0
 1032 0106 00       		.byte	0
 1033 0107 14       		.uleb128 0x14
 1034 0108 05       		.uleb128 0x5
 1035 0109 00       		.byte	0
 1036 010a 03       		.uleb128 0x3
 1037 010b 0E       		.uleb128 0xe
 1038 010c 3A       		.uleb128 0x3a
 1039 010d 0B       		.uleb128 0xb
 1040 010e 3B       		.uleb128 0x3b
 1041 010f 0B       		.uleb128 0xb
 1042 0110 49       		.uleb128 0x49
 1043 0111 13       		.uleb128 0x13
 1044 0112 02       		.uleb128 0x2
 1045 0113 17       		.uleb128 0x17
 1046 0114 00       		.byte	0
 1047 0115 00       		.byte	0
 1048 0116 15       		.uleb128 0x15
 1049 0117 898201   		.uleb128 0x4109
 1050 011a 01       		.byte	0x1
 1051 011b 11       		.uleb128 0x11
 1052 011c 01       		.uleb128 0x1
 1053 011d 9542     		.uleb128 0x2115
 1054 011f 19       		.uleb128 0x19
 1055 0120 31       		.uleb128 0x31
 1056 0121 13       		.uleb128 0x13
 1057 0122 00       		.byte	0
 1058 0123 00       		.byte	0
 1059 0124 16       		.uleb128 0x16
 1060 0125 8A8201   		.uleb128 0x410a
 1061 0128 00       		.byte	0
 1062 0129 02       		.uleb128 0x2
 1063 012a 18       		.uleb128 0x18
 1064 012b 9142     		.uleb128 0x2111
 1065 012d 18       		.uleb128 0x18
 1066 012e 00       		.byte	0
 1067 012f 00       		.byte	0
 1068 0130 17       		.uleb128 0x17
 1069 0131 34       		.uleb128 0x34
 1070 0132 00       		.byte	0
 1071 0133 03       		.uleb128 0x3
 1072 0134 0E       		.uleb128 0xe
 1073 0135 3A       		.uleb128 0x3a
 1074 0136 0B       		.uleb128 0xb
 1075 0137 3B       		.uleb128 0x3b
 1076 0138 05       		.uleb128 0x5
 1077 0139 49       		.uleb128 0x49
 1078 013a 13       		.uleb128 0x13
 1079 013b 3F       		.uleb128 0x3f
ARM GAS  /tmp/ccJpduug.s 			page 20


 1080 013c 19       		.uleb128 0x19
 1081 013d 3C       		.uleb128 0x3c
 1082 013e 19       		.uleb128 0x19
 1083 013f 00       		.byte	0
 1084 0140 00       		.byte	0
 1085 0141 18       		.uleb128 0x18
 1086 0142 2E       		.uleb128 0x2e
 1087 0143 01       		.byte	0x1
 1088 0144 3F       		.uleb128 0x3f
 1089 0145 19       		.uleb128 0x19
 1090 0146 03       		.uleb128 0x3
 1091 0147 0E       		.uleb128 0xe
 1092 0148 3A       		.uleb128 0x3a
 1093 0149 0B       		.uleb128 0xb
 1094 014a 3B       		.uleb128 0x3b
 1095 014b 0B       		.uleb128 0xb
 1096 014c 27       		.uleb128 0x27
 1097 014d 19       		.uleb128 0x19
 1098 014e 3C       		.uleb128 0x3c
 1099 014f 19       		.uleb128 0x19
 1100 0150 00       		.byte	0
 1101 0151 00       		.byte	0
 1102 0152 19       		.uleb128 0x19
 1103 0153 05       		.uleb128 0x5
 1104 0154 00       		.byte	0
 1105 0155 49       		.uleb128 0x49
 1106 0156 13       		.uleb128 0x13
 1107 0157 00       		.byte	0
 1108 0158 00       		.byte	0
 1109 0159 00       		.byte	0
 1110              		.section	.debug_loc,"",%progbits
 1111              	.Ldebug_loc0:
 1112              	.LLST0:
 1113 0000 00000000 		.4byte	.LVL0
 1114 0004 0C000000 		.4byte	.LVL1
 1115 0008 0100     		.2byte	0x1
 1116 000a 50       		.byte	0x50
 1117 000b 0C000000 		.4byte	.LVL1
 1118 000f 10000000 		.4byte	.LFE36
 1119 0013 0400     		.2byte	0x4
 1120 0015 F3       		.byte	0xf3
 1121 0016 01       		.uleb128 0x1
 1122 0017 50       		.byte	0x50
 1123 0018 9F       		.byte	0x9f
 1124 0019 00000000 		.4byte	0
 1125 001d 00000000 		.4byte	0
 1126              	.LLST1:
 1127 0021 00000000 		.4byte	.LVL2
 1128 0025 06000000 		.4byte	.LVL3
 1129 0029 0100     		.2byte	0x1
 1130 002b 51       		.byte	0x51
 1131 002c 06000000 		.4byte	.LVL3
 1132 0030 16000000 		.4byte	.LFE37
 1133 0034 0400     		.2byte	0x4
 1134 0036 F3       		.byte	0xf3
 1135 0037 01       		.uleb128 0x1
 1136 0038 51       		.byte	0x51
ARM GAS  /tmp/ccJpduug.s 			page 21


 1137 0039 9F       		.byte	0x9f
 1138 003a 00000000 		.4byte	0
 1139 003e 00000000 		.4byte	0
 1140              	.LLST2:
 1141 0042 00000000 		.4byte	.LVL4
 1142 0046 0A000000 		.4byte	.LVL5
 1143 004a 0100     		.2byte	0x1
 1144 004c 50       		.byte	0x50
 1145 004d 0A000000 		.4byte	.LVL5
 1146 0051 16000000 		.4byte	.LFE38
 1147 0055 0400     		.2byte	0x4
 1148 0057 F3       		.byte	0xf3
 1149 0058 01       		.uleb128 0x1
 1150 0059 50       		.byte	0x50
 1151 005a 9F       		.byte	0x9f
 1152 005b 00000000 		.4byte	0
 1153 005f 00000000 		.4byte	0
 1154              	.LLST3:
 1155 0063 00000000 		.4byte	.LVL4
 1156 0067 0E000000 		.4byte	.LVL6
 1157 006b 0100     		.2byte	0x1
 1158 006d 51       		.byte	0x51
 1159 006e 0E000000 		.4byte	.LVL6
 1160 0072 15000000 		.4byte	.LVL7-1
 1161 0076 0100     		.2byte	0x1
 1162 0078 52       		.byte	0x52
 1163 0079 15000000 		.4byte	.LVL7-1
 1164 007d 16000000 		.4byte	.LFE38
 1165 0081 0400     		.2byte	0x4
 1166 0083 F3       		.byte	0xf3
 1167 0084 01       		.uleb128 0x1
 1168 0085 51       		.byte	0x51
 1169 0086 9F       		.byte	0x9f
 1170 0087 00000000 		.4byte	0
 1171 008b 00000000 		.4byte	0
 1172              		.section	.debug_aranges,"",%progbits
 1173 0000 2C000000 		.4byte	0x2c
 1174 0004 0200     		.2byte	0x2
 1175 0006 00000000 		.4byte	.Ldebug_info0
 1176 000a 04       		.byte	0x4
 1177 000b 00       		.byte	0
 1178 000c 0000     		.2byte	0
 1179 000e 0000     		.2byte	0
 1180 0010 00000000 		.4byte	.LFB36
 1181 0014 10000000 		.4byte	.LFE36-.LFB36
 1182 0018 00000000 		.4byte	.LFB37
 1183 001c 16000000 		.4byte	.LFE37-.LFB37
 1184 0020 00000000 		.4byte	.LFB38
 1185 0024 16000000 		.4byte	.LFE38-.LFB38
 1186 0028 00000000 		.4byte	0
 1187 002c 00000000 		.4byte	0
 1188              		.section	.debug_ranges,"",%progbits
 1189              	.Ldebug_ranges0:
 1190 0000 00000000 		.4byte	.LFB36
 1191 0004 10000000 		.4byte	.LFE36
 1192 0008 00000000 		.4byte	.LFB37
 1193 000c 16000000 		.4byte	.LFE37
ARM GAS  /tmp/ccJpduug.s 			page 22


 1194 0010 00000000 		.4byte	.LFB38
 1195 0014 16000000 		.4byte	.LFE38
 1196 0018 00000000 		.4byte	0
 1197 001c 00000000 		.4byte	0
 1198              		.section	.debug_line,"",%progbits
 1199              	.Ldebug_line0:
 1200 0000 47010000 		.section	.debug_str,"MS",%progbits,1
 1200      02000901 
 1200      00000201 
 1200      FB0E0D00 
 1200      01010101 
 1201              	.LASF79:
 1202 0000 706F7274 		.ascii	"portid\000"
 1202      696400
 1203              	.LASF92:
 1204 0007 5F70616C 		.ascii	"_pal_lld_setgroupmode\000"
 1204      5F6C6C64 
 1204      5F736574 
 1204      67726F75 
 1204      706D6F64 
 1205              	.LASF33:
 1206 001d 50494F5F 		.ascii	"PIO_IER\000"
 1206      49455200 
 1207              	.LASF15:
 1208 0025 576F5265 		.ascii	"WoReg\000"
 1208      6700
 1209              	.LASF9:
 1210 002b 5F5F7569 		.ascii	"__uint32_t\000"
 1210      6E743332 
 1210      5F7400
 1211              	.LASF60:
 1212 0036 50494F5F 		.ascii	"PIO_AIMDR\000"
 1212      41494D44 
 1212      5200
 1213              	.LASF22:
 1214 0040 50494F5F 		.ascii	"PIO_ODR\000"
 1214      4F445200 
 1215              	.LASF23:
 1216 0048 50494F5F 		.ascii	"PIO_OSR\000"
 1216      4F535200 
 1217              	.LASF3:
 1218 0050 73686F72 		.ascii	"short int\000"
 1218      7420696E 
 1218      7400
 1219              	.LASF12:
 1220 005a 73697A65 		.ascii	"sizetype\000"
 1220      74797065 
 1220      00
 1221              	.LASF31:
 1222 0063 50494F5F 		.ascii	"PIO_ODSR\000"
 1222      4F445352 
 1222      00
 1223              	.LASF68:
 1224 006c 50494F5F 		.ascii	"PIO_REHLSR\000"
 1224      5245484C 
 1224      535200
 1225              	.LASF86:
ARM GAS  /tmp/ccJpduug.s 			page 23


 1226 0077 6D6F6465 		.ascii	"mode\000"
 1226      00
 1227              	.LASF71:
 1228 007c 50494F5F 		.ascii	"PIO_LOCKSR\000"
 1228      4C4F434B 
 1228      535200
 1229              	.LASF51:
 1230 0087 50494F5F 		.ascii	"PIO_PPDDR\000"
 1230      50504444 
 1230      5200
 1231              	.LASF53:
 1232 0091 50494F5F 		.ascii	"PIO_PPDSR\000"
 1232      50504453 
 1232      5200
 1233              	.LASF88:
 1234 009b 2E2E2F2E 		.ascii	"../../os/hal/src/pal.c\000"
 1234      2E2F6F73 
 1234      2F68616C 
 1234      2F737263 
 1234      2F70616C 
 1235              	.LASF55:
 1236 00b2 50494F5F 		.ascii	"PIO_OWER\000"
 1236      4F574552 
 1236      00
 1237              	.LASF76:
 1238 00bb 696F6D6F 		.ascii	"iomode_t\000"
 1238      64655F74 
 1238      00
 1239              	.LASF72:
 1240 00c4 50494F5F 		.ascii	"PIO_WPMR\000"
 1240      57504D52 
 1240      00
 1241              	.LASF20:
 1242 00cd 52657365 		.ascii	"Reserved1\000"
 1242      72766564 
 1242      3100
 1243              	.LASF24:
 1244 00d7 52657365 		.ascii	"Reserved2\000"
 1244      72766564 
 1244      3200
 1245              	.LASF28:
 1246 00e1 52657365 		.ascii	"Reserved3\000"
 1246      72766564 
 1246      3300
 1247              	.LASF63:
 1248 00eb 50494F5F 		.ascii	"PIO_ESR\000"
 1248      45535200 
 1249              	.LASF44:
 1250 00f3 52657365 		.ascii	"Reserved5\000"
 1250      72766564 
 1250      3500
 1251              	.LASF46:
 1252 00fd 52657365 		.ascii	"Reserved6\000"
 1252      72766564 
 1252      3600
 1253              	.LASF54:
 1254 0107 52657365 		.ascii	"Reserved7\000"
ARM GAS  /tmp/ccJpduug.s 			page 24


 1254      72766564 
 1254      3700
 1255              	.LASF77:
 1256 0111 696F706F 		.ascii	"ioportmask_t\000"
 1256      72746D61 
 1256      736B5F74 
 1256      00
 1257              	.LASF62:
 1258 011e 52657365 		.ascii	"Reserved9\000"
 1258      72766564 
 1258      3900
 1259              	.LASF67:
 1260 0128 50494F5F 		.ascii	"PIO_FELLSR\000"
 1260      46454C4C 
 1260      535200
 1261              	.LASF7:
 1262 0133 6C6F6E67 		.ascii	"long long int\000"
 1262      206C6F6E 
 1262      6720696E 
 1262      7400
 1263              	.LASF83:
 1264 0141 62697473 		.ascii	"bits\000"
 1264      00
 1265              	.LASF26:
 1266 0146 50494F5F 		.ascii	"PIO_IFDR\000"
 1266      49464452 
 1266      00
 1267              	.LASF27:
 1268 014f 50494F5F 		.ascii	"PIO_IFSR\000"
 1268      49465352 
 1268      00
 1269              	.LASF5:
 1270 0158 6C6F6E67 		.ascii	"long int\000"
 1270      20696E74 
 1270      00
 1271              	.LASF81:
 1272 0161 6F666673 		.ascii	"offset\000"
 1272      657400
 1273              	.LASF32:
 1274 0168 50494F5F 		.ascii	"PIO_PDSR\000"
 1274      50445352 
 1274      00
 1275              	.LASF52:
 1276 0171 50494F5F 		.ascii	"PIO_PPDER\000"
 1276      50504445 
 1276      5200
 1277              	.LASF41:
 1278 017b 50494F5F 		.ascii	"PIO_PUDR\000"
 1278      50554452 
 1278      00
 1279              	.LASF43:
 1280 0184 50494F5F 		.ascii	"PIO_PUSR\000"
 1280      50555352 
 1280      00
 1281              	.LASF64:
 1282 018d 50494F5F 		.ascii	"PIO_LSR\000"
 1282      4C535200 
ARM GAS  /tmp/ccJpduug.s 			page 25


 1283              	.LASF14:
 1284 0195 526F5265 		.ascii	"RoReg\000"
 1284      6700
 1285              	.LASF73:
 1286 019b 50494F5F 		.ascii	"PIO_WPSR\000"
 1286      57505352 
 1286      00
 1287              	.LASF87:
 1288 01a4 474E5520 		.ascii	"GNU C 4.8.2 -mcpu=cortex-m3 -mno-thumb-interwork -m"
 1288      4320342E 
 1288      382E3220 
 1288      2D6D6370 
 1288      753D636F 
 1289 01d7 7468756D 		.ascii	"thumb -ggdb -O2 -std=gnu99 -fomit-frame-pointer -fa"
 1289      62202D67 
 1289      67646220 
 1289      2D4F3220 
 1289      2D737464 
 1290 020a 6C69676E 		.ascii	"lign-functions=16 -ffunction-sections -fdata-sectio"
 1290      2D66756E 
 1290      6374696F 
 1290      6E733D31 
 1290      36202D66 
 1291 023d 6E73202D 		.ascii	"ns -fno-common\000"
 1291      666E6F2D 
 1291      636F6D6D 
 1291      6F6E00
 1292              	.LASF47:
 1293 024c 50494F5F 		.ascii	"PIO_IFSCDR\000"
 1293      49465343 
 1293      445200
 1294              	.LASF49:
 1295 0257 50494F5F 		.ascii	"PIO_IFSCSR\000"
 1295      49465343 
 1295      535200
 1296              	.LASF61:
 1297 0262 50494F5F 		.ascii	"PIO_AIMMR\000"
 1297      41494D4D 
 1297      5200
 1298              	.LASF2:
 1299 026c 756E7369 		.ascii	"unsigned char\000"
 1299      676E6564 
 1299      20636861 
 1299      7200
 1300              	.LASF16:
 1301 027a 52775265 		.ascii	"RwReg\000"
 1301      6700
 1302              	.LASF1:
 1303 0280 7369676E 		.ascii	"signed char\000"
 1303      65642063 
 1303      68617200 
 1304              	.LASF8:
 1305 028c 6C6F6E67 		.ascii	"long long unsigned int\000"
 1305      206C6F6E 
 1305      6720756E 
 1305      7369676E 
 1305      65642069 
ARM GAS  /tmp/ccJpduug.s 			page 26


 1306              	.LASF11:
 1307 02a3 75696E74 		.ascii	"uint_fast8_t\000"
 1307      5F666173 
 1307      74385F74 
 1307      00
 1308              	.LASF10:
 1309 02b0 75696E74 		.ascii	"uint32_t\000"
 1309      33325F74 
 1309      00
 1310              	.LASF0:
 1311 02b9 756E7369 		.ascii	"unsigned int\000"
 1311      676E6564 
 1311      20696E74 
 1311      00
 1312              	.LASF37:
 1313 02c6 50494F5F 		.ascii	"PIO_MDER\000"
 1313      4D444552 
 1313      00
 1314              	.LASF90:
 1315 02cf 70616C52 		.ascii	"palReadBus\000"
 1315      65616442 
 1315      757300
 1316              	.LASF70:
 1317 02da 52657365 		.ascii	"Reserved11\000"
 1317      72766564 
 1317      313100
 1318              	.LASF74:
 1319 02e5 52657365 		.ascii	"Reserved12\000"
 1319      72766564 
 1319      313200
 1320              	.LASF25:
 1321 02f0 50494F5F 		.ascii	"PIO_IFER\000"
 1321      49464552 
 1321      00
 1322              	.LASF39:
 1323 02f9 50494F5F 		.ascii	"PIO_MDSR\000"
 1323      4D445352 
 1323      00
 1324              	.LASF65:
 1325 0302 50494F5F 		.ascii	"PIO_ELSR\000"
 1325      454C5352 
 1325      00
 1326              	.LASF13:
 1327 030b 63686172 		.ascii	"char\000"
 1327      00
 1328              	.LASF66:
 1329 0310 52657365 		.ascii	"Reserved10\000"
 1329      72766564 
 1329      313000
 1330              	.LASF82:
 1331 031b 494F4275 		.ascii	"IOBus\000"
 1331      7300
 1332              	.LASF4:
 1333 0321 73686F72 		.ascii	"short unsigned int\000"
 1333      7420756E 
 1333      7369676E 
 1333      65642069 
ARM GAS  /tmp/ccJpduug.s 			page 27


 1333      6E7400
 1334              	.LASF42:
 1335 0334 50494F5F 		.ascii	"PIO_PUER\000"
 1335      50554552 
 1335      00
 1336              	.LASF48:
 1337 033d 50494F5F 		.ascii	"PIO_IFSCER\000"
 1337      49465343 
 1337      455200
 1338              	.LASF35:
 1339 0348 50494F5F 		.ascii	"PIO_IMR\000"
 1339      494D5200 
 1340              	.LASF89:
 1341 0350 2F686F6D 		.ascii	"/home/cata/Documents/Embebidos/ChibiOS/iflab_code/s"
 1341      652F6361 
 1341      74612F44 
 1341      6F63756D 
 1341      656E7473 
 1342 0383 74616D70 		.ascii	"tamp_code\000"
 1342      5F636F64 
 1342      6500
 1343              	.LASF30:
 1344 038d 50494F5F 		.ascii	"PIO_CODR\000"
 1344      434F4452 
 1344      00
 1345              	.LASF6:
 1346 0396 6C6F6E67 		.ascii	"long unsigned int\000"
 1346      20756E73 
 1346      69676E65 
 1346      6420696E 
 1346      7400
 1347              	.LASF40:
 1348 03a8 52657365 		.ascii	"Reserved4\000"
 1348      72766564 
 1348      3400
 1349              	.LASF34:
 1350 03b2 50494F5F 		.ascii	"PIO_IDR\000"
 1350      49445200 
 1351              	.LASF36:
 1352 03ba 50494F5F 		.ascii	"PIO_ISR\000"
 1352      49535200 
 1353              	.LASF85:
 1354 03c2 70616C53 		.ascii	"palSetBusMode\000"
 1354      65744275 
 1354      734D6F64 
 1354      6500
 1355              	.LASF58:
 1356 03d0 52657365 		.ascii	"Reserved8\000"
 1356      72766564 
 1356      3800
 1357              	.LASF69:
 1358 03da 50494F5F 		.ascii	"PIO_FRLHSR\000"
 1358      46524C48 
 1358      535200
 1359              	.LASF80:
 1360 03e5 6D61736B 		.ascii	"mask\000"
 1360      00
ARM GAS  /tmp/ccJpduug.s 			page 28


 1361              	.LASF75:
 1362 03ea 50494F5F 		.ascii	"PIO_SCHMITT\000"
 1362      5343484D 
 1362      49545400 
 1363              	.LASF17:
 1364 03f6 50494F5F 		.ascii	"PIO_PER\000"
 1364      50455200 
 1365              	.LASF45:
 1366 03fe 50494F5F 		.ascii	"PIO_ABCDSR\000"
 1366      41424344 
 1366      535200
 1367              	.LASF78:
 1368 0409 696F706F 		.ascii	"ioportid_t\000"
 1368      72746964 
 1368      5F7400
 1369              	.LASF38:
 1370 0414 50494F5F 		.ascii	"PIO_MDDR\000"
 1370      4D444452 
 1370      00
 1371              	.LASF29:
 1372 041d 50494F5F 		.ascii	"PIO_SODR\000"
 1372      534F4452 
 1372      00
 1373              	.LASF21:
 1374 0426 50494F5F 		.ascii	"PIO_OER\000"
 1374      4F455200 
 1375              	.LASF91:
 1376 042e 49544D5F 		.ascii	"ITM_RxBuffer\000"
 1376      52784275 
 1376      66666572 
 1376      00
 1377              	.LASF56:
 1378 043b 50494F5F 		.ascii	"PIO_OWDR\000"
 1378      4F574452 
 1378      00
 1379              	.LASF57:
 1380 0444 50494F5F 		.ascii	"PIO_OWSR\000"
 1380      4F575352 
 1380      00
 1381              	.LASF59:
 1382 044d 50494F5F 		.ascii	"PIO_AIMER\000"
 1382      41494D45 
 1382      5200
 1383              	.LASF84:
 1384 0457 70616C57 		.ascii	"palWriteBus\000"
 1384      72697465 
 1384      42757300 
 1385              	.LASF18:
 1386 0463 50494F5F 		.ascii	"PIO_PDR\000"
 1386      50445200 
 1387              	.LASF19:
 1388 046b 50494F5F 		.ascii	"PIO_PSR\000"
 1388      50535200 
 1389              	.LASF50:
 1390 0473 50494F5F 		.ascii	"PIO_SCDR\000"
 1390      53434452 
 1390      00
ARM GAS  /tmp/ccJpduug.s 			page 29


 1391              		.ident	"GCC: (4.8.2-14ubuntu1+6) 4.8.2"
ARM GAS  /tmp/ccJpduug.s 			page 30


DEFINED SYMBOLS
                            *ABS*:0000000000000000 pal.c
     /tmp/ccJpduug.s:19     .text.palReadBus:0000000000000000 $t
     /tmp/ccJpduug.s:25     .text.palReadBus:0000000000000000 palReadBus
     /tmp/ccJpduug.s:48     .text.palWriteBus:0000000000000000 $t
     /tmp/ccJpduug.s:54     .text.palWriteBus:0000000000000000 palWriteBus
     /tmp/ccJpduug.s:77     .text.palSetBusMode:0000000000000000 $t
     /tmp/ccJpduug.s:83     .text.palSetBusMode:0000000000000000 palSetBusMode
                     .debug_frame:0000000000000010 $d

UNDEFINED SYMBOLS
_pal_lld_setgroupmode
