ARM GAS  /tmp/ccNCO5uG.s 			page 1


   1              		.syntax unified
   2              		.cpu cortex-m3
   3              		.fpu softvfp
   4              		.eabi_attribute 20, 1
   5              		.eabi_attribute 21, 1
   6              		.eabi_attribute 23, 3
   7              		.eabi_attribute 24, 1
   8              		.eabi_attribute 25, 1
   9              		.eabi_attribute 26, 1
  10              		.eabi_attribute 30, 2
  11              		.eabi_attribute 34, 1
  12              		.eabi_attribute 18, 4
  13              		.thumb
  14              		.file	"chcore_v7m.c"
  15              		.text
  16              	.Ltext0:
  17              		.cfi_sections	.debug_frame
  18              		.section	.text._port_switch_from_isr,"ax",%progbits
  19              		.align	2
  20              		.p2align 4,,15
  21              		.global	_port_switch_from_isr
  22              		.thumb
  23              		.thumb_func
  24              		.type	_port_switch_from_isr, %function
  25              	_port_switch_from_isr:
  26              	.LFB11:
  27              		.file 1 "../../os/ports/GCC/ARMCMx/chcore_v7m.c"
  28              		.loc 1 207 0
  29              		.cfi_startproc
  30              		@ Naked Function: prologue and epilogue provided by programmer.
  31              		@ args = 0, pretend = 0, frame = 0
  32              		@ frame_needed = 0, uses_anonymous_args = 0
  33              		.loc 1 210 0
  34 0000 FFF7FEFF 		bl	chSchDoReschedule
  35              	.LVL0:
  36              		.loc 1 212 0
  37              	@ 212 "../../os/ports/GCC/ARMCMx/chcore_v7m.c" 1
  38              		_port_exit_from_isr:
  39              	@ 0 "" 2
  40              		.loc 1 214 0
  41              	@ 214 "../../os/ports/GCC/ARMCMx/chcore_v7m.c" 1
  42 0004 00DF     		svc     #0
  43              	@ 0 "" 2
  44              		.loc 1 221 0
  45              		.thumb
  46              		.cfi_endproc
  47              	.LFE11:
  48              		.size	_port_switch_from_isr, .-_port_switch_from_isr
  49 0006 00BFAFF3 		.section	.text.SVCallVector,"ax",%progbits
  49      0080AFF3 
  49      0080
  50              		.align	2
  51              		.p2align 4,,15
  52              		.global	SVCallVector
  53              		.thumb
  54              		.thumb_func
  55              		.type	SVCallVector, %function
ARM GAS  /tmp/ccNCO5uG.s 			page 2


  56              	SVCallVector:
  57              	.LFB8:
  58              		.loc 1 65 0
  59              		.cfi_startproc
  60              		@ args = 0, pretend = 0, frame = 0
  61              		@ frame_needed = 0, uses_anonymous_args = 0
  62              		@ link register save eliminated.
  63              		.loc 1 69 0
  64              	@ 69 "../../os/ports/GCC/ARMCMx/chcore_v7m.c" 1
  65 0000 EFF30983 		mrs     r3, PSP
  66              	@ 0 "" 2
  67              	.LVL1:
  68              		.loc 1 73 0
  69              		.thumb
  70 0004 2033     		adds	r3, r3, #32
  71              	.LVL2:
  72              		.loc 1 80 0
  73              	@ 80 "../../os/ports/GCC/ARMCMx/chcore_v7m.c" 1
  74 0006 83F30988 		msr     PSP, r3
  75              	@ 0 "" 2
  76              		.thumb
  77              	.LBB2:
  78              		.loc 1 81 0
  79 000a 0023     		movs	r3, #0
  80              	.LVL3:
  81              	@ 81 "../../os/ports/GCC/ARMCMx/chcore_v7m.c" 1
  82 000c 83F31188 		msr     BASEPRI, r3
  83              	@ 0 "" 2
  84              		.thumb
  85 0010 7047     		bx	lr
  86              	.LBE2:
  87              		.cfi_endproc
  88              	.LFE8:
  89              		.size	SVCallVector, .-SVCallVector
  90 0012 00BFAFF3 		.section	.text._port_init,"ax",%progbits
  90      0080AFF3 
  90      0080AFF3 
  90      0080
  91              		.align	2
  92              		.p2align 4,,15
  93              		.global	_port_init
  94              		.thumb
  95              		.thumb_func
  96              		.type	_port_init, %function
  97              	_port_init:
  98              	.LFB9:
  99              		.loc 1 118 0
 100              		.cfi_startproc
 101              		@ args = 0, pretend = 0, frame = 0
 102              		@ frame_needed = 0, uses_anonymous_args = 0
 103 0000 08B5     		push	{r3, lr}
 104              		.cfi_def_cfa_offset 8
 105              		.cfi_offset 3, -8
 106              		.cfi_offset 14, -4
 107              		.loc 1 122 0
 108 0002 0022     		movs	r2, #0
 109              		.loc 1 121 0
ARM GAS  /tmp/ccNCO5uG.s 			page 3


 110 0004 4FF46D43 		mov	r3, #60672
 111 0008 CEF20003 		movt	r3, 57344
 112 000c 1146     		mov	r1, r2
 113              		.loc 1 122 0
 114 000e C0F2FA52 		movt	r2, 1530
 115              		.loc 1 121 0
 116 0012 9960     		str	r1, [r3, #8]
 117              		.loc 1 125 0
 118 0014 0720     		movs	r0, #7
 119              		.loc 1 122 0
 120 0016 DA60     		str	r2, [r3, #12]
 121              		.loc 1 125 0
 122 0018 1021     		movs	r1, #16
 123 001a FFF7FEFF 		bl	nvicSetSystemHandlerPriority
 124              	.LVL4:
 125              		.loc 1 127 0
 126 001e 0A20     		movs	r0, #10
 127 0020 4FF40071 		mov	r1, #512
 128 0024 FFF7FEFF 		bl	nvicSetSystemHandlerPriority
 129              	.LVL5:
 130              		.loc 1 131 0
 131 0028 BDE80840 		pop	{r3, lr}
 132              		.loc 1 129 0
 133 002c 0B20     		movs	r0, #11
 134 002e 8021     		movs	r1, #128
 135 0030 FFF7FEBF 		b	nvicSetSystemHandlerPriority
 136              	.LVL6:
 137              		.cfi_endproc
 138              	.LFE9:
 139              		.size	_port_init, .-_port_init
 140 0034 AFF30080 		.section	.text._port_irq_epilogue,"ax",%progbits
 140      AFF30080 
 140      AFF30080 
 141              		.align	2
 142              		.p2align 4,,15
 143              		.global	_port_irq_epilogue
 144              		.thumb
 145              		.thumb_func
 146              		.type	_port_irq_epilogue, %function
 147              	_port_irq_epilogue:
 148              	.LFB10:
 149              		.loc 1 148 0
 150              		.cfi_startproc
 151              		@ args = 0, pretend = 0, frame = 0
 152              		@ frame_needed = 0, uses_anonymous_args = 0
 153              		@ link register save eliminated.
 154              	.LBB3:
 155              		.loc 1 150 0
 156 0000 2023     		movs	r3, #32
 157              	@ 150 "../../os/ports/GCC/ARMCMx/chcore_v7m.c" 1
 158 0002 83F31188 		msr     BASEPRI, r3
 159              	@ 0 "" 2
 160              		.thumb
 161              	.LBE3:
 162              		.loc 1 151 0
 163 0006 4FF46D43 		mov	r3, #60672
 164 000a CEF20003 		movt	r3, 57344
ARM GAS  /tmp/ccNCO5uG.s 			page 4


 165 000e 5B68     		ldr	r3, [r3, #4]
 166 0010 13F40063 		ands	r3, r3, #2048
 167 0014 1FD0     		beq	.L5
 168              	.LBB4:
 169              		.loc 1 155 0
 170              	@ 155 "../../os/ports/GCC/ARMCMx/chcore_v7m.c" 1
 171 0016 EFF30982 		mrs     r2, PSP
 172              	@ 0 "" 2
 173              	.LVL7:
 174              		.loc 1 159 0
 175              		.thumb
 176 001a A2F12003 		sub	r3, r2, #32
 177              	.LVL8:
 178              		.loc 1 160 0
 179              	@ 160 "../../os/ports/GCC/ARMCMx/chcore_v7m.c" 1
 180 001e 83F30988 		msr     PSP, r3
 181              	@ 0 "" 2
 182              		.loc 1 165 0
 183              		.thumb
 184 0022 40F20003 		movw	r3, #:lower16:rlist
 185              	.LVL9:
 186 0026 C0F20003 		movt	r3, #:upper16:rlist
 187 002a 9969     		ldr	r1, [r3, #24]
 188              		.loc 1 161 0
 189 002c 4FF08070 		mov	r0, #16777216
 190 0030 42F8040C 		str	r0, [r2, #-4]
 191              		.loc 1 165 0
 192 0034 91B1     		cbz	r1, .L6
 193              		.loc 1 165 0 is_stmt 0 discriminator 1
 194 0036 1968     		ldr	r1, [r3]
 195 0038 DB69     		ldr	r3, [r3, #28]
 196 003a 8968     		ldr	r1, [r1, #8]
 197 003c 9B68     		ldr	r3, [r3, #8]
 198 003e 9942     		cmp	r1, r3
 199 0040 94BF     		ite	ls
 200 0042 0023     		movls	r3, #0
 201 0044 0123     		movhi	r3, #1
 202 0046 9BB1     		cbz	r3, .L8
 203              	.L11:
 204              		.loc 1 167 0 is_stmt 1
 205 0048 40F20003 		movw	r3, #:lower16:_port_switch_from_isr
 206 004c C0F20003 		movt	r3, #:upper16:_port_switch_from_isr
 207 0050 42F8083C 		str	r3, [r2, #-8]
 208 0054 7047     		bx	lr
 209              	.LVL10:
 210              	.L5:
 211              	.LBE4:
 212              	.LBB5:
 213              		.loc 1 197 0
 214              	@ 197 "../../os/ports/GCC/ARMCMx/chcore_v7m.c" 1
 215 0056 83F31188 		msr     BASEPRI, r3
 216              	@ 0 "" 2
 217              		.thumb
 218 005a 7047     		bx	lr
 219              	.LVL11:
 220              	.L6:
 221              	.LBE5:
ARM GAS  /tmp/ccNCO5uG.s 			page 5


 222              	.LBB6:
 223              		.loc 1 165 0 discriminator 2
 224 005c 1968     		ldr	r1, [r3]
 225 005e DB69     		ldr	r3, [r3, #28]
 226 0060 8968     		ldr	r1, [r1, #8]
 227 0062 9B68     		ldr	r3, [r3, #8]
 228 0064 9942     		cmp	r1, r3
 229 0066 34BF     		ite	cc
 230 0068 0023     		movcc	r3, #0
 231 006a 0123     		movcs	r3, #1
 232 006c 002B     		cmp	r3, #0
 233 006e EBD1     		bne	.L11
 234              	.L8:
 235              		.loc 1 176 0
 236 0070 40F20003 		movw	r3, #:lower16:_port_exit_from_isr
 237 0074 C0F20003 		movt	r3, #:upper16:_port_exit_from_isr
 238 0078 42F8083C 		str	r3, [r2, #-8]
 239 007c 7047     		bx	lr
 240              	.LBE6:
 241              		.cfi_endproc
 242              	.LFE10:
 243              		.size	_port_irq_epilogue, .-_port_irq_epilogue
 244 007e 00BF     		.section	.text.SysTickVector,"ax",%progbits
 245              		.align	2
 246              		.p2align 4,,15
 247              		.global	SysTickVector
 248              		.thumb
 249              		.thumb_func
 250              		.type	SysTickVector, %function
 251              	SysTickVector:
 252              	.LFB7:
 253              		.loc 1 47 0
 254              		.cfi_startproc
 255              		@ args = 0, pretend = 0, frame = 0
 256              		@ frame_needed = 0, uses_anonymous_args = 0
 257 0000 08B5     		push	{r3, lr}
 258              		.cfi_def_cfa_offset 8
 259              		.cfi_offset 3, -8
 260              		.cfi_offset 14, -4
 261              	.LBB7:
 262              		.loc 1 51 0
 263 0002 2023     		movs	r3, #32
 264              	@ 51 "../../os/ports/GCC/ARMCMx/chcore_v7m.c" 1
 265 0004 83F31188 		msr     BASEPRI, r3
 266              	@ 0 "" 2
 267              		.thumb
 268              	.LBE7:
 269              		.loc 1 52 0
 270 0008 FFF7FEFF 		bl	chSysTimerHandlerI
 271              	.LVL12:
 272              	.LBB8:
 273              		.loc 1 53 0
 274 000c 0023     		movs	r3, #0
 275              	@ 53 "../../os/ports/GCC/ARMCMx/chcore_v7m.c" 1
 276 000e 83F31188 		msr     BASEPRI, r3
 277              	@ 0 "" 2
 278              		.thumb
ARM GAS  /tmp/ccNCO5uG.s 			page 6


 279              	.LBE8:
 280              		.loc 1 56 0
 281 0012 BDE80840 		pop	{r3, lr}
 282              		.loc 1 55 0
 283 0016 FFF7FEBF 		b	_port_irq_epilogue
 284              	.LVL13:
 285              		.cfi_endproc
 286              	.LFE7:
 287              		.size	SysTickVector, .-SysTickVector
 288 001a 00BFAFF3 		.section	.text._port_switch,"ax",%progbits
 288      0080
 289              		.align	2
 290              		.p2align 4,,15
 291              		.global	_port_switch
 292              		.thumb
 293              		.thumb_func
 294              		.type	_port_switch, %function
 295              	_port_switch:
 296              	.LFB12:
 297              		.loc 1 236 0
 298              		.cfi_startproc
 299              		@ Naked Function: prologue and epilogue provided by programmer.
 300              		@ args = 0, pretend = 0, frame = 0
 301              		@ frame_needed = 0, uses_anonymous_args = 0
 302              	.LVL14:
 303              		.loc 1 238 0
 304              	@ 238 "../../os/ports/GCC/ARMCMx/chcore_v7m.c" 1
 305 0000 2DE9F04F 		push    {r4, r5, r6, r7, r8, r9, r10, r11, lr}
 306              	@ 0 "" 2
 307              		.loc 1 244 0
 308              	@ 244 "../../os/ports/GCC/ARMCMx/chcore_v7m.c" 1
 309 0004 C1F80CD0 		str     sp, [r1, #12]                          
 310 0008 D0F80CD0 		ldr     sp, [r0, #12]
 311              	@ 0 "" 2
 312              		.loc 1 250 0
 313              	@ 250 "../../os/ports/GCC/ARMCMx/chcore_v7m.c" 1
 314 000c BDE8F08F 		pop     {r4, r5, r6, r7, r8, r9, r10, r11, pc}
 315              	@ 0 "" 2
 316              		.loc 1 252 0
 317              		.thumb
 318              		.cfi_endproc
 319              	.LFE12:
 320              		.size	_port_switch, .-_port_switch
 321              		.section	.text._port_thread_start,"ax",%progbits
 322              		.align	2
 323              		.p2align 4,,15
 324              		.global	_port_thread_start
 325              		.thumb
 326              		.thumb_func
 327              		.type	_port_thread_start, %function
 328              	_port_thread_start:
 329              	.LFB13:
 330              		.loc 1 259 0
 331              		.cfi_startproc
 332              		@ args = 0, pretend = 0, frame = 0
 333              		@ frame_needed = 0, uses_anonymous_args = 0
 334              		@ link register save eliminated.
ARM GAS  /tmp/ccNCO5uG.s 			page 7


 335              	.LBB9:
 336              		.loc 1 261 0
 337 0000 0023     		movs	r3, #0
 338              	@ 261 "../../os/ports/GCC/ARMCMx/chcore_v7m.c" 1
 339 0002 83F31188 		msr     BASEPRI, r3
 340              	@ 0 "" 2
 341              		.thumb
 342              	.LBE9:
 343              		.loc 1 262 0
 344              	@ 262 "../../os/ports/GCC/ARMCMx/chcore_v7m.c" 1
 345 0006 2846     		mov     r0, r5                                 
 346 0008 A047     		blx     r4                                     
 347 000a FFF7FEFF 		bl      chThdExit
 348              	@ 0 "" 2
 349              		.thumb
 350 000e 7047     		bx	lr
 351              		.cfi_endproc
 352              	.LFE13:
 353              		.size	_port_thread_start, .-_port_thread_start
 354              		.text
 355              	.Letext0:
 356              		.file 2 "/usr/include/newlib/machine/_default_types.h"
 357              		.file 3 "/usr/include/newlib/stdint.h"
 358              		.file 4 "../../os/ports/GCC/ARMCMx/chtypes.h"
 359              		.file 5 "../../os/kernel/include/chlists.h"
 360              		.file 6 "../../os/kernel/include/chthreads.h"
 361              		.file 7 "../../os/ports/GCC/ARMCMx/chcore_v7m.h"
 362              		.file 8 "../../os/ports/common/ARMCMx/nvic.h"
 363              		.file 9 "../../os/kernel/include/chschd.h"
 364              		.file 10 "../../os/kernel/include/chmtx.h"
 365              		.file 11 "../../os/kernel/include/chsys.h"
 366              		.section	.debug_info,"",%progbits
 367              	.Ldebug_info0:
 368 0000 E9070000 		.4byte	0x7e9
 369 0004 0400     		.2byte	0x4
 370 0006 00000000 		.4byte	.Ldebug_abbrev0
 371 000a 04       		.byte	0x4
 372 000b 01       		.uleb128 0x1
 373 000c 19010000 		.4byte	.LASF95
 374 0010 01       		.byte	0x1
 375 0011 82030000 		.4byte	.LASF96
 376 0015 26040000 		.4byte	.LASF97
 377 0019 18000000 		.4byte	.Ldebug_ranges0+0x18
 378 001d 00000000 		.4byte	0
 379 0021 00000000 		.4byte	.Ldebug_line0
 380 0025 02       		.uleb128 0x2
 381 0026 04       		.byte	0x4
 382 0027 05       		.byte	0x5
 383 0028 696E7400 		.ascii	"int\000"
 384 002c 03       		.uleb128 0x3
 385 002d 04       		.byte	0x4
 386 002e 07       		.byte	0x7
 387 002f C7010000 		.4byte	.LASF0
 388 0033 03       		.uleb128 0x3
 389 0034 01       		.byte	0x1
 390 0035 06       		.byte	0x6
 391 0036 7B000000 		.4byte	.LASF1
ARM GAS  /tmp/ccNCO5uG.s 			page 8


 392 003a 04       		.uleb128 0x4
 393 003b 0D000000 		.4byte	.LASF5
 394 003f 02       		.byte	0x2
 395 0040 1C       		.byte	0x1c
 396 0041 45000000 		.4byte	0x45
 397 0045 03       		.uleb128 0x3
 398 0046 01       		.byte	0x1
 399 0047 08       		.byte	0x8
 400 0048 F3020000 		.4byte	.LASF2
 401 004c 03       		.uleb128 0x3
 402 004d 02       		.byte	0x2
 403 004e 05       		.byte	0x5
 404 004f 11030000 		.4byte	.LASF3
 405 0053 03       		.uleb128 0x3
 406 0054 02       		.byte	0x2
 407 0055 07       		.byte	0x7
 408 0056 24020000 		.4byte	.LASF4
 409 005a 04       		.uleb128 0x4
 410 005b C5030000 		.4byte	.LASF6
 411 005f 02       		.byte	0x2
 412 0060 37       		.byte	0x37
 413 0061 65000000 		.4byte	0x65
 414 0065 03       		.uleb128 0x3
 415 0066 04       		.byte	0x4
 416 0067 05       		.byte	0x5
 417 0068 97000000 		.4byte	.LASF7
 418 006c 04       		.uleb128 0x4
 419 006d D6000000 		.4byte	.LASF8
 420 0071 02       		.byte	0x2
 421 0072 38       		.byte	0x38
 422 0073 77000000 		.4byte	0x77
 423 0077 03       		.uleb128 0x3
 424 0078 04       		.byte	0x4
 425 0079 07       		.byte	0x7
 426 007a EF010000 		.4byte	.LASF9
 427 007e 03       		.uleb128 0x3
 428 007f 08       		.byte	0x8
 429 0080 05       		.byte	0x5
 430 0081 6D000000 		.4byte	.LASF10
 431 0085 03       		.uleb128 0x3
 432 0086 08       		.byte	0x8
 433 0087 07       		.byte	0x7
 434 0088 40000000 		.4byte	.LASF11
 435 008c 04       		.uleb128 0x4
 436 008d 13040000 		.4byte	.LASF12
 437 0091 03       		.byte	0x3
 438 0092 2A       		.byte	0x2a
 439 0093 3A000000 		.4byte	0x3a
 440 0097 04       		.uleb128 0x4
 441 0098 EB020000 		.4byte	.LASF13
 442 009c 03       		.byte	0x3
 443 009d 41       		.byte	0x41
 444 009e 5A000000 		.4byte	0x5a
 445 00a2 04       		.uleb128 0x4
 446 00a3 57030000 		.4byte	.LASF14
 447 00a7 03       		.byte	0x3
 448 00a8 42       		.byte	0x42
ARM GAS  /tmp/ccNCO5uG.s 			page 9


 449 00a9 6C000000 		.4byte	0x6c
 450 00ad 04       		.uleb128 0x4
 451 00ae 6E020000 		.4byte	.LASF15
 452 00b2 04       		.byte	0x4
 453 00b3 2F       		.byte	0x2f
 454 00b4 8C000000 		.4byte	0x8c
 455 00b8 04       		.uleb128 0x4
 456 00b9 AD000000 		.4byte	.LASF16
 457 00bd 04       		.byte	0x4
 458 00be 30       		.byte	0x30
 459 00bf 8C000000 		.4byte	0x8c
 460 00c3 04       		.uleb128 0x4
 461 00c4 CF020000 		.4byte	.LASF17
 462 00c8 04       		.byte	0x4
 463 00c9 31       		.byte	0x31
 464 00ca 8C000000 		.4byte	0x8c
 465 00ce 04       		.uleb128 0x4
 466 00cf E3020000 		.4byte	.LASF18
 467 00d3 04       		.byte	0x4
 468 00d4 32       		.byte	0x32
 469 00d5 A2000000 		.4byte	0xa2
 470 00d9 04       		.uleb128 0x4
 471 00da 3C020000 		.4byte	.LASF19
 472 00de 04       		.byte	0x4
 473 00df 33       		.byte	0x33
 474 00e0 97000000 		.4byte	0x97
 475 00e4 04       		.uleb128 0x4
 476 00e5 82020000 		.4byte	.LASF20
 477 00e9 04       		.byte	0x4
 478 00ea 35       		.byte	0x35
 479 00eb A2000000 		.4byte	0xa2
 480 00ef 04       		.uleb128 0x4
 481 00f0 B0030000 		.4byte	.LASF21
 482 00f4 04       		.byte	0x4
 483 00f5 36       		.byte	0x36
 484 00f6 A2000000 		.4byte	0xa2
 485 00fa 04       		.uleb128 0x4
 486 00fb C1010000 		.4byte	.LASF22
 487 00ff 04       		.byte	0x4
 488 0100 37       		.byte	0x37
 489 0101 97000000 		.4byte	0x97
 490 0105 04       		.uleb128 0x4
 491 0106 45030000 		.4byte	.LASF23
 492 010a 05       		.byte	0x5
 493 010b 2A       		.byte	0x2a
 494 010c 10010000 		.4byte	0x110
 495 0110 05       		.uleb128 0x5
 496 0111 45030000 		.4byte	.LASF23
 497 0115 48       		.byte	0x48
 498 0116 06       		.byte	0x6
 499 0117 5E       		.byte	0x5e
 500 0118 01020000 		.4byte	0x201
 501 011c 06       		.uleb128 0x6
 502 011d 36030000 		.4byte	.LASF24
 503 0121 06       		.byte	0x6
 504 0122 5F       		.byte	0x5f
 505 0123 22020000 		.4byte	0x222
ARM GAS  /tmp/ccNCO5uG.s 			page 10


 506 0127 00       		.byte	0
 507 0128 06       		.uleb128 0x6
 508 0129 DC020000 		.4byte	.LASF25
 509 012d 06       		.byte	0x6
 510 012e 61       		.byte	0x61
 511 012f 22020000 		.4byte	0x222
 512 0133 04       		.byte	0x4
 513 0134 06       		.uleb128 0x6
 514 0135 66000000 		.4byte	.LASF26
 515 0139 06       		.byte	0x6
 516 013a 63       		.byte	0x63
 517 013b CE000000 		.4byte	0xce
 518 013f 08       		.byte	0x8
 519 0140 06       		.uleb128 0x6
 520 0141 80040000 		.4byte	.LASF27
 521 0145 06       		.byte	0x6
 522 0146 64       		.byte	0x64
 523 0147 43030000 		.4byte	0x343
 524 014b 0C       		.byte	0xc
 525 014c 06       		.uleb128 0x6
 526 014d C9000000 		.4byte	.LASF28
 527 0151 06       		.byte	0x6
 528 0152 66       		.byte	0x66
 529 0153 22020000 		.4byte	0x222
 530 0157 10       		.byte	0x10
 531 0158 06       		.uleb128 0x6
 532 0159 A2020000 		.4byte	.LASF29
 533 015d 06       		.byte	0x6
 534 015e 67       		.byte	0x67
 535 015f 22020000 		.4byte	0x222
 536 0163 14       		.byte	0x14
 537 0164 06       		.uleb128 0x6
 538 0165 66040000 		.4byte	.LASF30
 539 0169 06       		.byte	0x6
 540 016a 6E       		.byte	0x6e
 541 016b C8050000 		.4byte	0x5c8
 542 016f 18       		.byte	0x18
 543 0170 06       		.uleb128 0x6
 544 0171 1B030000 		.4byte	.LASF31
 545 0175 06       		.byte	0x6
 546 0176 79       		.byte	0x79
 547 0177 B8000000 		.4byte	0xb8
 548 017b 1C       		.byte	0x1c
 549 017c 06       		.uleb128 0x6
 550 017d 3D030000 		.4byte	.LASF32
 551 0181 06       		.byte	0x6
 552 0182 7D       		.byte	0x7d
 553 0183 AD000000 		.4byte	0xad
 554 0187 1D       		.byte	0x1d
 555 0188 06       		.uleb128 0x6
 556 0189 F7030000 		.4byte	.LASF33
 557 018d 06       		.byte	0x6
 558 018e 82       		.byte	0x82
 559 018f C3000000 		.4byte	0xc3
 560 0193 1E       		.byte	0x1e
 561 0194 06       		.uleb128 0x6
 562 0195 D9030000 		.4byte	.LASF34
ARM GAS  /tmp/ccNCO5uG.s 			page 11


 563 0199 06       		.byte	0x6
 564 019a 89       		.byte	0x89
 565 019b E4040000 		.4byte	0x4e4
 566 019f 20       		.byte	0x20
 567 01a0 07       		.uleb128 0x7
 568 01a1 705F7500 		.ascii	"p_u\000"
 569 01a5 06       		.byte	0x6
 570 01a6 AE       		.byte	0xae
 571 01a7 93050000 		.4byte	0x593
 572 01ab 24       		.byte	0x24
 573 01ac 06       		.uleb128 0x6
 574 01ad 86040000 		.4byte	.LASF35
 575 01b1 06       		.byte	0x6
 576 01b2 B3       		.byte	0xb3
 577 01b3 48020000 		.4byte	0x248
 578 01b7 28       		.byte	0x28
 579 01b8 06       		.uleb128 0x6
 580 01b9 EC030000 		.4byte	.LASF36
 581 01bd 06       		.byte	0x6
 582 01be B9       		.byte	0xb9
 583 01bf 28020000 		.4byte	0x228
 584 01c3 2C       		.byte	0x2c
 585 01c4 06       		.uleb128 0x6
 586 01c5 00000000 		.4byte	.LASF37
 587 01c9 06       		.byte	0x6
 588 01ca BD       		.byte	0xbd
 589 01cb D9000000 		.4byte	0xd9
 590 01cf 34       		.byte	0x34
 591 01d0 06       		.uleb128 0x6
 592 01d1 4C030000 		.4byte	.LASF38
 593 01d5 06       		.byte	0x6
 594 01d6 C3       		.byte	0xc3
 595 01d7 E4000000 		.4byte	0xe4
 596 01db 38       		.byte	0x38
 597 01dc 06       		.uleb128 0x6
 598 01dd 07030000 		.4byte	.LASF39
 599 01e1 06       		.byte	0x6
 600 01e2 CA       		.byte	0xca
 601 01e3 DA050000 		.4byte	0x5da
 602 01e7 3C       		.byte	0x3c
 603 01e8 06       		.uleb128 0x6
 604 01e9 BA030000 		.4byte	.LASF40
 605 01ed 06       		.byte	0x6
 606 01ee CE       		.byte	0xce
 607 01ef CE000000 		.4byte	0xce
 608 01f3 40       		.byte	0x40
 609 01f4 06       		.uleb128 0x6
 610 01f5 87000000 		.4byte	.LASF41
 611 01f9 06       		.byte	0x6
 612 01fa D4       		.byte	0xd4
 613 01fb 5E020000 		.4byte	0x25e
 614 01ff 44       		.byte	0x44
 615 0200 00       		.byte	0
 616 0201 08       		.uleb128 0x8
 617 0202 08       		.byte	0x8
 618 0203 05       		.byte	0x5
 619 0204 61       		.byte	0x61
ARM GAS  /tmp/ccNCO5uG.s 			page 12


 620 0205 22020000 		.4byte	0x222
 621 0209 06       		.uleb128 0x6
 622 020a 36030000 		.4byte	.LASF24
 623 020e 05       		.byte	0x5
 624 020f 62       		.byte	0x62
 625 0210 22020000 		.4byte	0x222
 626 0214 00       		.byte	0
 627 0215 06       		.uleb128 0x6
 628 0216 DC020000 		.4byte	.LASF25
 629 021a 05       		.byte	0x5
 630 021b 64       		.byte	0x64
 631 021c 22020000 		.4byte	0x222
 632 0220 04       		.byte	0x4
 633 0221 00       		.byte	0
 634 0222 09       		.uleb128 0x9
 635 0223 04       		.byte	0x4
 636 0224 05010000 		.4byte	0x105
 637 0228 04       		.uleb128 0x4
 638 0229 B0020000 		.4byte	.LASF42
 639 022d 05       		.byte	0x5
 640 022e 66       		.byte	0x66
 641 022f 01020000 		.4byte	0x201
 642 0233 08       		.uleb128 0x8
 643 0234 04       		.byte	0x4
 644 0235 05       		.byte	0x5
 645 0236 6B       		.byte	0x6b
 646 0237 48020000 		.4byte	0x248
 647 023b 06       		.uleb128 0x6
 648 023c 36030000 		.4byte	.LASF24
 649 0240 05       		.byte	0x5
 650 0241 6D       		.byte	0x6d
 651 0242 22020000 		.4byte	0x222
 652 0246 00       		.byte	0
 653 0247 00       		.byte	0
 654 0248 04       		.uleb128 0x4
 655 0249 76020000 		.4byte	.LASF43
 656 024d 05       		.byte	0x5
 657 024e 70       		.byte	0x70
 658 024f 33020000 		.4byte	0x233
 659 0253 04       		.uleb128 0x4
 660 0254 FE000000 		.4byte	.LASF44
 661 0258 07       		.byte	0x7
 662 0259 D7       		.byte	0xd7
 663 025a 5E020000 		.4byte	0x25e
 664 025e 0A       		.uleb128 0xa
 665 025f 04       		.byte	0x4
 666 0260 05       		.uleb128 0x5
 667 0261 DB010000 		.4byte	.LASF45
 668 0265 20       		.byte	0x20
 669 0266 07       		.byte	0x7
 670 0267 DF       		.byte	0xdf
 671 0268 C8020000 		.4byte	0x2c8
 672 026c 07       		.uleb128 0x7
 673 026d 723000   		.ascii	"r0\000"
 674 0270 07       		.byte	0x7
 675 0271 E0       		.byte	0xe0
 676 0272 53020000 		.4byte	0x253
ARM GAS  /tmp/ccNCO5uG.s 			page 13


 677 0276 00       		.byte	0
 678 0277 07       		.uleb128 0x7
 679 0278 723100   		.ascii	"r1\000"
 680 027b 07       		.byte	0x7
 681 027c E1       		.byte	0xe1
 682 027d 53020000 		.4byte	0x253
 683 0281 04       		.byte	0x4
 684 0282 07       		.uleb128 0x7
 685 0283 723200   		.ascii	"r2\000"
 686 0286 07       		.byte	0x7
 687 0287 E2       		.byte	0xe2
 688 0288 53020000 		.4byte	0x253
 689 028c 08       		.byte	0x8
 690 028d 07       		.uleb128 0x7
 691 028e 723300   		.ascii	"r3\000"
 692 0291 07       		.byte	0x7
 693 0292 E3       		.byte	0xe3
 694 0293 53020000 		.4byte	0x253
 695 0297 0C       		.byte	0xc
 696 0298 07       		.uleb128 0x7
 697 0299 72313200 		.ascii	"r12\000"
 698 029d 07       		.byte	0x7
 699 029e E4       		.byte	0xe4
 700 029f 53020000 		.4byte	0x253
 701 02a3 10       		.byte	0x10
 702 02a4 06       		.uleb128 0x6
 703 02a5 D4010000 		.4byte	.LASF46
 704 02a9 07       		.byte	0x7
 705 02aa E5       		.byte	0xe5
 706 02ab 53020000 		.4byte	0x253
 707 02af 14       		.byte	0x14
 708 02b0 07       		.uleb128 0x7
 709 02b1 706300   		.ascii	"pc\000"
 710 02b4 07       		.byte	0x7
 711 02b5 E6       		.byte	0xe6
 712 02b6 53020000 		.4byte	0x253
 713 02ba 18       		.byte	0x18
 714 02bb 06       		.uleb128 0x6
 715 02bc 23030000 		.4byte	.LASF47
 716 02c0 07       		.byte	0x7
 717 02c1 E7       		.byte	0xe7
 718 02c2 53020000 		.4byte	0x253
 719 02c6 1C       		.byte	0x1c
 720 02c7 00       		.byte	0
 721 02c8 05       		.uleb128 0x5
 722 02c9 E5030000 		.4byte	.LASF48
 723 02cd 24       		.byte	0x24
 724 02ce 07       		.byte	0x7
 725 02cf FE       		.byte	0xfe
 726 02d0 43030000 		.4byte	0x343
 727 02d4 0B       		.uleb128 0xb
 728 02d5 723400   		.ascii	"r4\000"
 729 02d8 07       		.byte	0x7
 730 02d9 1101     		.2byte	0x111
 731 02db 53020000 		.4byte	0x253
 732 02df 00       		.byte	0
 733 02e0 0B       		.uleb128 0xb
ARM GAS  /tmp/ccNCO5uG.s 			page 14


 734 02e1 723500   		.ascii	"r5\000"
 735 02e4 07       		.byte	0x7
 736 02e5 1201     		.2byte	0x112
 737 02e7 53020000 		.4byte	0x253
 738 02eb 04       		.byte	0x4
 739 02ec 0B       		.uleb128 0xb
 740 02ed 723600   		.ascii	"r6\000"
 741 02f0 07       		.byte	0x7
 742 02f1 1301     		.2byte	0x113
 743 02f3 53020000 		.4byte	0x253
 744 02f7 08       		.byte	0x8
 745 02f8 0B       		.uleb128 0xb
 746 02f9 723700   		.ascii	"r7\000"
 747 02fc 07       		.byte	0x7
 748 02fd 1401     		.2byte	0x114
 749 02ff 53020000 		.4byte	0x253
 750 0303 0C       		.byte	0xc
 751 0304 0B       		.uleb128 0xb
 752 0305 723800   		.ascii	"r8\000"
 753 0308 07       		.byte	0x7
 754 0309 1501     		.2byte	0x115
 755 030b 53020000 		.4byte	0x253
 756 030f 10       		.byte	0x10
 757 0310 0B       		.uleb128 0xb
 758 0311 723900   		.ascii	"r9\000"
 759 0314 07       		.byte	0x7
 760 0315 1601     		.2byte	0x116
 761 0317 53020000 		.4byte	0x253
 762 031b 14       		.byte	0x14
 763 031c 0B       		.uleb128 0xb
 764 031d 72313000 		.ascii	"r10\000"
 765 0321 07       		.byte	0x7
 766 0322 1701     		.2byte	0x117
 767 0324 53020000 		.4byte	0x253
 768 0328 18       		.byte	0x18
 769 0329 0B       		.uleb128 0xb
 770 032a 72313100 		.ascii	"r11\000"
 771 032e 07       		.byte	0x7
 772 032f 1801     		.2byte	0x118
 773 0331 53020000 		.4byte	0x253
 774 0335 1C       		.byte	0x1c
 775 0336 0B       		.uleb128 0xb
 776 0337 6C7200   		.ascii	"lr\000"
 777 033a 07       		.byte	0x7
 778 033b 1901     		.2byte	0x119
 779 033d 53020000 		.4byte	0x253
 780 0341 20       		.byte	0x20
 781 0342 00       		.byte	0
 782 0343 0C       		.uleb128 0xc
 783 0344 1C020000 		.4byte	.LASF49
 784 0348 04       		.byte	0x4
 785 0349 07       		.byte	0x7
 786 034a 2301     		.2byte	0x123
 787 034c 5E030000 		.4byte	0x35e
 788 0350 0B       		.uleb128 0xb
 789 0351 72313300 		.ascii	"r13\000"
 790 0355 07       		.byte	0x7
ARM GAS  /tmp/ccNCO5uG.s 			page 15


 791 0356 2401     		.2byte	0x124
 792 0358 5E030000 		.4byte	0x35e
 793 035c 00       		.byte	0
 794 035d 00       		.byte	0
 795 035e 09       		.uleb128 0x9
 796 035f 04       		.byte	0x4
 797 0360 C8020000 		.4byte	0x2c8
 798 0364 04       		.uleb128 0x4
 799 0365 7A030000 		.4byte	.LASF50
 800 0369 08       		.byte	0x8
 801 036a 3A       		.byte	0x3a
 802 036b 6F030000 		.4byte	0x36f
 803 036f 0D       		.uleb128 0xd
 804 0370 A2000000 		.4byte	0xa2
 805 0374 03       		.uleb128 0x3
 806 0375 04       		.byte	0x4
 807 0376 07       		.byte	0x7
 808 0377 94020000 		.4byte	.LASF51
 809 037b 08       		.uleb128 0x8
 810 037c 8C       		.byte	0x8c
 811 037d 08       		.byte	0x8
 812 037e 89       		.byte	0x89
 813 037f 80040000 		.4byte	0x480
 814 0383 06       		.uleb128 0x6
 815 0384 60000000 		.4byte	.LASF52
 816 0388 08       		.byte	0x8
 817 0389 8A       		.byte	0x8a
 818 038a 64030000 		.4byte	0x364
 819 038e 00       		.byte	0
 820 038f 06       		.uleb128 0x6
 821 0390 37020000 		.4byte	.LASF53
 822 0394 08       		.byte	0x8
 823 0395 8B       		.byte	0x8b
 824 0396 64030000 		.4byte	0x364
 825 039a 04       		.byte	0x4
 826 039b 06       		.uleb128 0x6
 827 039c 01020000 		.4byte	.LASF54
 828 03a0 08       		.byte	0x8
 829 03a1 8C       		.byte	0x8c
 830 03a2 64030000 		.4byte	0x364
 831 03a6 08       		.byte	0x8
 832 03a7 06       		.uleb128 0x6
 833 03a8 42020000 		.4byte	.LASF55
 834 03ac 08       		.byte	0x8
 835 03ad 8D       		.byte	0x8d
 836 03ae 64030000 		.4byte	0x364
 837 03b2 0C       		.byte	0xc
 838 03b3 07       		.uleb128 0x7
 839 03b4 53435200 		.ascii	"SCR\000"
 840 03b8 08       		.byte	0x8
 841 03b9 8E       		.byte	0x8e
 842 03ba 64030000 		.4byte	0x364
 843 03be 10       		.byte	0x10
 844 03bf 07       		.uleb128 0x7
 845 03c0 43435200 		.ascii	"CCR\000"
 846 03c4 08       		.byte	0x8
 847 03c5 8F       		.byte	0x8f
ARM GAS  /tmp/ccNCO5uG.s 			page 16


 848 03c6 64030000 		.4byte	0x364
 849 03ca 14       		.byte	0x14
 850 03cb 06       		.uleb128 0x6
 851 03cc E0030000 		.4byte	.LASF56
 852 03d0 08       		.byte	0x8
 853 03d1 90       		.byte	0x90
 854 03d2 90040000 		.4byte	0x490
 855 03d6 18       		.byte	0x18
 856 03d7 06       		.uleb128 0x6
 857 03d8 01030000 		.4byte	.LASF57
 858 03dc 08       		.byte	0x8
 859 03dd 91       		.byte	0x91
 860 03de 64030000 		.4byte	0x364
 861 03e2 24       		.byte	0x24
 862 03e3 06       		.uleb128 0x6
 863 03e4 9D020000 		.4byte	.LASF58
 864 03e8 08       		.byte	0x8
 865 03e9 92       		.byte	0x92
 866 03ea 64030000 		.4byte	0x364
 867 03ee 28       		.byte	0x28
 868 03ef 06       		.uleb128 0x6
 869 03f0 73040000 		.4byte	.LASF59
 870 03f4 08       		.byte	0x8
 871 03f5 93       		.byte	0x93
 872 03f6 64030000 		.4byte	0x364
 873 03fa 2C       		.byte	0x2c
 874 03fb 06       		.uleb128 0x6
 875 03fc 48020000 		.4byte	.LASF60
 876 0400 08       		.byte	0x8
 877 0401 94       		.byte	0x94
 878 0402 64030000 		.4byte	0x364
 879 0406 30       		.byte	0x30
 880 0407 06       		.uleb128 0x6
 881 0408 55020000 		.4byte	.LASF61
 882 040c 08       		.byte	0x8
 883 040d 95       		.byte	0x95
 884 040e 64030000 		.4byte	0x364
 885 0412 34       		.byte	0x34
 886 0413 06       		.uleb128 0x6
 887 0414 D1000000 		.4byte	.LASF62
 888 0418 08       		.byte	0x8
 889 0419 96       		.byte	0x96
 890 041a 64030000 		.4byte	0x364
 891 041e 38       		.byte	0x38
 892 041f 06       		.uleb128 0x6
 893 0420 68030000 		.4byte	.LASF63
 894 0424 08       		.byte	0x8
 895 0425 97       		.byte	0x97
 896 0426 64030000 		.4byte	0x364
 897 042a 3C       		.byte	0x3c
 898 042b 07       		.uleb128 0x7
 899 042c 50465200 		.ascii	"PFR\000"
 900 0430 08       		.byte	0x8
 901 0431 98       		.byte	0x98
 902 0432 A5040000 		.4byte	0x4a5
 903 0436 40       		.byte	0x40
 904 0437 07       		.uleb128 0x7
ARM GAS  /tmp/ccNCO5uG.s 			page 17


 905 0438 44465200 		.ascii	"DFR\000"
 906 043c 08       		.byte	0x8
 907 043d 99       		.byte	0x99
 908 043e 64030000 		.4byte	0x364
 909 0442 48       		.byte	0x48
 910 0443 07       		.uleb128 0x7
 911 0444 41445200 		.ascii	"ADR\000"
 912 0448 08       		.byte	0x8
 913 0449 9A       		.byte	0x9a
 914 044a 64030000 		.4byte	0x364
 915 044e 4C       		.byte	0x4c
 916 044f 06       		.uleb128 0x6
 917 0450 08040000 		.4byte	.LASF64
 918 0454 08       		.byte	0x8
 919 0455 9B       		.byte	0x9b
 920 0456 BA040000 		.4byte	0x4ba
 921 045a 50       		.byte	0x50
 922 045b 07       		.uleb128 0x7
 923 045c 53415200 		.ascii	"SAR\000"
 924 0460 08       		.byte	0x8
 925 0461 9C       		.byte	0x9c
 926 0462 CF040000 		.4byte	0x4cf
 927 0466 60       		.byte	0x60
 928 0467 06       		.uleb128 0x6
 929 0468 6D030000 		.4byte	.LASF65
 930 046c 08       		.byte	0x8
 931 046d 9D       		.byte	0x9d
 932 046e D4040000 		.4byte	0x4d4
 933 0472 74       		.byte	0x74
 934 0473 06       		.uleb128 0x6
 935 0474 6D040000 		.4byte	.LASF66
 936 0478 08       		.byte	0x8
 937 0479 9E       		.byte	0x9e
 938 047a 64030000 		.4byte	0x364
 939 047e 88       		.byte	0x88
 940 047f 00       		.byte	0
 941 0480 0E       		.uleb128 0xe
 942 0481 64030000 		.4byte	0x364
 943 0485 90040000 		.4byte	0x490
 944 0489 0F       		.uleb128 0xf
 945 048a 74030000 		.4byte	0x374
 946 048e 02       		.byte	0x2
 947 048f 00       		.byte	0
 948 0490 0D       		.uleb128 0xd
 949 0491 80040000 		.4byte	0x480
 950 0495 0E       		.uleb128 0xe
 951 0496 64030000 		.4byte	0x364
 952 049a A5040000 		.4byte	0x4a5
 953 049e 0F       		.uleb128 0xf
 954 049f 74030000 		.4byte	0x374
 955 04a3 01       		.byte	0x1
 956 04a4 00       		.byte	0
 957 04a5 0D       		.uleb128 0xd
 958 04a6 95040000 		.4byte	0x495
 959 04aa 0E       		.uleb128 0xe
 960 04ab 64030000 		.4byte	0x364
 961 04af BA040000 		.4byte	0x4ba
ARM GAS  /tmp/ccNCO5uG.s 			page 18


 962 04b3 0F       		.uleb128 0xf
 963 04b4 74030000 		.4byte	0x374
 964 04b8 03       		.byte	0x3
 965 04b9 00       		.byte	0
 966 04ba 0D       		.uleb128 0xd
 967 04bb AA040000 		.4byte	0x4aa
 968 04bf 0E       		.uleb128 0xe
 969 04c0 64030000 		.4byte	0x364
 970 04c4 CF040000 		.4byte	0x4cf
 971 04c8 0F       		.uleb128 0xf
 972 04c9 74030000 		.4byte	0x374
 973 04cd 04       		.byte	0x4
 974 04ce 00       		.byte	0
 975 04cf 0D       		.uleb128 0xd
 976 04d0 BF040000 		.4byte	0x4bf
 977 04d4 0D       		.uleb128 0xd
 978 04d5 BF040000 		.4byte	0x4bf
 979 04d9 04       		.uleb128 0x4
 980 04da 17000000 		.4byte	.LASF67
 981 04de 08       		.byte	0x8
 982 04df 9F       		.byte	0x9f
 983 04e0 7B030000 		.4byte	0x37b
 984 04e4 0D       		.uleb128 0xd
 985 04e5 EF000000 		.4byte	0xef
 986 04e9 08       		.uleb128 0x8
 987 04ea 20       		.byte	0x20
 988 04eb 09       		.byte	0x9
 989 04ec 5E       		.byte	0x5e
 990 04ed 46050000 		.4byte	0x546
 991 04f1 06       		.uleb128 0x6
 992 04f2 60030000 		.4byte	.LASF68
 993 04f6 09       		.byte	0x9
 994 04f7 5F       		.byte	0x5f
 995 04f8 28020000 		.4byte	0x228
 996 04fc 00       		.byte	0
 997 04fd 06       		.uleb128 0x6
 998 04fe 28030000 		.4byte	.LASF69
 999 0502 09       		.byte	0x9
 1000 0503 60       		.byte	0x60
 1001 0504 CE000000 		.4byte	0xce
 1002 0508 08       		.byte	0x8
 1003 0509 06       		.uleb128 0x6
 1004 050a AA020000 		.4byte	.LASF70
 1005 050e 09       		.byte	0x9
 1006 050f 62       		.byte	0x62
 1007 0510 43030000 		.4byte	0x343
 1008 0514 0C       		.byte	0xc
 1009 0515 06       		.uleb128 0x6
 1010 0516 4D020000 		.4byte	.LASF71
 1011 051a 09       		.byte	0x9
 1012 051b 65       		.byte	0x65
 1013 051c 22020000 		.4byte	0x222
 1014 0520 10       		.byte	0x10
 1015 0521 06       		.uleb128 0x6
 1016 0522 C7020000 		.4byte	.LASF72
 1017 0526 09       		.byte	0x9
 1018 0527 66       		.byte	0x66
ARM GAS  /tmp/ccNCO5uG.s 			page 19


 1019 0528 22020000 		.4byte	0x222
 1020 052c 14       		.byte	0x14
 1021 052d 06       		.uleb128 0x6
 1022 052e CF030000 		.4byte	.LASF73
 1023 0532 09       		.byte	0x9
 1024 0533 6A       		.byte	0x6a
 1025 0534 FA000000 		.4byte	0xfa
 1026 0538 18       		.byte	0x18
 1027 0539 06       		.uleb128 0x6
 1028 053a BD020000 		.4byte	.LASF74
 1029 053e 09       		.byte	0x9
 1030 053f 6C       		.byte	0x6c
 1031 0540 22020000 		.4byte	0x222
 1032 0544 1C       		.byte	0x1c
 1033 0545 00       		.byte	0
 1034 0546 04       		.uleb128 0x4
 1035 0547 FE030000 		.4byte	.LASF75
 1036 054b 09       		.byte	0x9
 1037 054c 6E       		.byte	0x6e
 1038 054d E9040000 		.4byte	0x4e9
 1039 0551 05       		.uleb128 0x5
 1040 0552 8E020000 		.4byte	.LASF76
 1041 0556 10       		.byte	0x10
 1042 0557 0A       		.byte	0xa
 1043 0558 2C       		.byte	0x2c
 1044 0559 82050000 		.4byte	0x582
 1045 055d 06       		.uleb128 0x6
 1046 055e 8F000000 		.4byte	.LASF77
 1047 0562 0A       		.byte	0xa
 1048 0563 2D       		.byte	0x2d
 1049 0564 28020000 		.4byte	0x228
 1050 0568 00       		.byte	0
 1051 0569 06       		.uleb128 0x6
 1052 056a 78040000 		.4byte	.LASF78
 1053 056e 0A       		.byte	0xa
 1054 056f 2F       		.byte	0x2f
 1055 0570 22020000 		.4byte	0x222
 1056 0574 08       		.byte	0x8
 1057 0575 06       		.uleb128 0x6
 1058 0576 A9030000 		.4byte	.LASF79
 1059 057a 0A       		.byte	0xa
 1060 057b 31       		.byte	0x31
 1061 057c 82050000 		.4byte	0x582
 1062 0580 0C       		.byte	0xc
 1063 0581 00       		.byte	0
 1064 0582 09       		.uleb128 0x9
 1065 0583 04       		.byte	0x4
 1066 0584 51050000 		.4byte	0x551
 1067 0588 04       		.uleb128 0x4
 1068 0589 8E020000 		.4byte	.LASF76
 1069 058d 0A       		.byte	0xa
 1070 058e 33       		.byte	0x33
 1071 058f 51050000 		.4byte	0x551
 1072 0593 10       		.uleb128 0x10
 1073 0594 04       		.byte	0x4
 1074 0595 06       		.byte	0x6
 1075 0596 90       		.byte	0x90
ARM GAS  /tmp/ccNCO5uG.s 			page 20


 1076 0597 C8050000 		.4byte	0x5c8
 1077 059b 11       		.uleb128 0x11
 1078 059c 06000000 		.4byte	.LASF80
 1079 05a0 06       		.byte	0x6
 1080 05a1 97       		.byte	0x97
 1081 05a2 D9000000 		.4byte	0xd9
 1082 05a6 11       		.uleb128 0x11
 1083 05a7 57000000 		.4byte	.LASF81
 1084 05ab 06       		.byte	0x6
 1085 05ac 9E       		.byte	0x9e
 1086 05ad D9000000 		.4byte	0xd9
 1087 05b1 11       		.uleb128 0x11
 1088 05b2 5F040000 		.4byte	.LASF82
 1089 05b6 06       		.byte	0x6
 1090 05b7 A5       		.byte	0xa5
 1091 05b8 5E020000 		.4byte	0x25e
 1092 05bc 11       		.uleb128 0x11
 1093 05bd 2F030000 		.4byte	.LASF83
 1094 05c1 06       		.byte	0x6
 1095 05c2 AC       		.byte	0xac
 1096 05c3 E4000000 		.4byte	0xe4
 1097 05c7 00       		.byte	0
 1098 05c8 09       		.uleb128 0x9
 1099 05c9 04       		.byte	0x4
 1100 05ca CE050000 		.4byte	0x5ce
 1101 05ce 12       		.uleb128 0x12
 1102 05cf D3050000 		.4byte	0x5d3
 1103 05d3 03       		.uleb128 0x3
 1104 05d4 01       		.byte	0x1
 1105 05d5 08       		.byte	0x8
 1106 05d6 75030000 		.4byte	.LASF84
 1107 05da 09       		.uleb128 0x9
 1108 05db 04       		.byte	0x4
 1109 05dc 88050000 		.4byte	0x588
 1110 05e0 13       		.uleb128 0x13
 1111 05e1 06020000 		.4byte	.LASF85
 1112 05e5 01       		.byte	0x1
 1113 05e6 CF       		.byte	0xcf
 1114 05e7 00000000 		.4byte	.LFB11
 1115 05eb 06000000 		.4byte	.LFE11-.LFB11
 1116 05ef 01       		.uleb128 0x1
 1117 05f0 9C       		.byte	0x9c
 1118 05f1 FF050000 		.4byte	0x5ff
 1119 05f5 14       		.uleb128 0x14
 1120 05f6 04000000 		.4byte	.LVL0
 1121 05fa C7070000 		.4byte	0x7c7
 1122 05fe 00       		.byte	0
 1123 05ff 13       		.uleb128 0x13
 1124 0600 A0000000 		.4byte	.LASF86
 1125 0604 01       		.byte	0x1
 1126 0605 41       		.byte	0x41
 1127 0606 00000000 		.4byte	.LFB8
 1128 060a 12000000 		.4byte	.LFE8-.LFB8
 1129 060e 01       		.uleb128 0x1
 1130 060f 9C       		.byte	0x9c
 1131 0610 3B060000 		.4byte	0x63b
 1132 0614 15       		.uleb128 0x15
ARM GAS  /tmp/ccNCO5uG.s 			page 21


 1133 0615 D7020000 		.4byte	.LASF87
 1134 0619 01       		.byte	0x1
 1135 061a 42       		.byte	0x42
 1136 061b 3B060000 		.4byte	0x63b
 1137 061f 00000000 		.4byte	.LLST0
 1138 0623 16       		.uleb128 0x16
 1139 0624 0A000000 		.4byte	.LBB2
 1140 0628 08000000 		.4byte	.LBE2-.LBB2
 1141 062c 17       		.uleb128 0x17
 1142 062d 746D7000 		.ascii	"tmp\000"
 1143 0631 01       		.byte	0x1
 1144 0632 51       		.byte	0x51
 1145 0633 A2000000 		.4byte	0xa2
 1146 0637 01       		.uleb128 0x1
 1147 0638 53       		.byte	0x53
 1148 0639 00       		.byte	0
 1149 063a 00       		.byte	0
 1150 063b 09       		.uleb128 0x9
 1151 063c 04       		.byte	0x4
 1152 063d 60020000 		.4byte	0x260
 1153 0641 13       		.uleb128 0x13
 1154 0642 1B040000 		.4byte	.LASF88
 1155 0646 01       		.byte	0x1
 1156 0647 76       		.byte	0x76
 1157 0648 00000000 		.4byte	.LFB9
 1158 064c 34000000 		.4byte	.LFE9-.LFB9
 1159 0650 01       		.uleb128 0x1
 1160 0651 9C       		.byte	0x9c
 1161 0652 9E060000 		.4byte	0x69e
 1162 0656 18       		.uleb128 0x18
 1163 0657 1E000000 		.4byte	.LVL4
 1164 065b CE070000 		.4byte	0x7ce
 1165 065f 6E060000 		.4byte	0x66e
 1166 0663 19       		.uleb128 0x19
 1167 0664 01       		.uleb128 0x1
 1168 0665 51       		.byte	0x51
 1169 0666 01       		.uleb128 0x1
 1170 0667 40       		.byte	0x40
 1171 0668 19       		.uleb128 0x19
 1172 0669 01       		.uleb128 0x1
 1173 066a 50       		.byte	0x50
 1174 066b 01       		.uleb128 0x1
 1175 066c 37       		.byte	0x37
 1176 066d 00       		.byte	0
 1177 066e 18       		.uleb128 0x18
 1178 066f 28000000 		.4byte	.LVL5
 1179 0673 CE070000 		.4byte	0x7ce
 1180 0677 88060000 		.4byte	0x688
 1181 067b 19       		.uleb128 0x19
 1182 067c 01       		.uleb128 0x1
 1183 067d 51       		.byte	0x51
 1184 067e 03       		.uleb128 0x3
 1185 067f 0A       		.byte	0xa
 1186 0680 0002     		.2byte	0x200
 1187 0682 19       		.uleb128 0x19
 1188 0683 01       		.uleb128 0x1
 1189 0684 50       		.byte	0x50
ARM GAS  /tmp/ccNCO5uG.s 			page 22


 1190 0685 01       		.uleb128 0x1
 1191 0686 3A       		.byte	0x3a
 1192 0687 00       		.byte	0
 1193 0688 1A       		.uleb128 0x1a
 1194 0689 34000000 		.4byte	.LVL6
 1195 068d CE070000 		.4byte	0x7ce
 1196 0691 19       		.uleb128 0x19
 1197 0692 01       		.uleb128 0x1
 1198 0693 51       		.byte	0x51
 1199 0694 02       		.uleb128 0x2
 1200 0695 08       		.byte	0x8
 1201 0696 80       		.byte	0x80
 1202 0697 19       		.uleb128 0x19
 1203 0698 01       		.uleb128 0x1
 1204 0699 50       		.byte	0x50
 1205 069a 01       		.uleb128 0x1
 1206 069b 3B       		.byte	0x3b
 1207 069c 00       		.byte	0
 1208 069d 00       		.byte	0
 1209 069e 13       		.uleb128 0x13
 1210 069f 5B020000 		.4byte	.LASF89
 1211 06a3 01       		.byte	0x1
 1212 06a4 94       		.byte	0x94
 1213 06a5 00000000 		.4byte	.LFB10
 1214 06a9 7E000000 		.4byte	.LFE10-.LFB10
 1215 06ad 01       		.uleb128 0x1
 1216 06ae 9C       		.byte	0x9c
 1217 06af FF060000 		.4byte	0x6ff
 1218 06b3 1B       		.uleb128 0x1b
 1219 06b4 00000000 		.4byte	.LBB3
 1220 06b8 06000000 		.4byte	.LBE3-.LBB3
 1221 06bc CE060000 		.4byte	0x6ce
 1222 06c0 17       		.uleb128 0x17
 1223 06c1 746D7000 		.ascii	"tmp\000"
 1224 06c5 01       		.byte	0x1
 1225 06c6 96       		.byte	0x96
 1226 06c7 A2000000 		.4byte	0xa2
 1227 06cb 01       		.uleb128 0x1
 1228 06cc 53       		.byte	0x53
 1229 06cd 00       		.byte	0
 1230 06ce 1C       		.uleb128 0x1c
 1231 06cf 00000000 		.4byte	.Ldebug_ranges0+0
 1232 06d3 E7060000 		.4byte	0x6e7
 1233 06d7 15       		.uleb128 0x15
 1234 06d8 D7020000 		.4byte	.LASF87
 1235 06dc 01       		.byte	0x1
 1236 06dd 98       		.byte	0x98
 1237 06de 3B060000 		.4byte	0x63b
 1238 06e2 20000000 		.4byte	.LLST1
 1239 06e6 00       		.byte	0
 1240 06e7 16       		.uleb128 0x16
 1241 06e8 56000000 		.4byte	.LBB5
 1242 06ec 06000000 		.4byte	.LBE5-.LBB5
 1243 06f0 17       		.uleb128 0x17
 1244 06f1 746D7000 		.ascii	"tmp\000"
 1245 06f5 01       		.byte	0x1
 1246 06f6 C5       		.byte	0xc5
ARM GAS  /tmp/ccNCO5uG.s 			page 23


 1247 06f7 A2000000 		.4byte	0xa2
 1248 06fb 01       		.uleb128 0x1
 1249 06fc 53       		.byte	0x53
 1250 06fd 00       		.byte	0
 1251 06fe 00       		.byte	0
 1252 06ff 13       		.uleb128 0x13
 1253 0700 32000000 		.4byte	.LASF90
 1254 0704 01       		.byte	0x1
 1255 0705 2F       		.byte	0x2f
 1256 0706 00000000 		.4byte	.LFB7
 1257 070a 1A000000 		.4byte	.LFE7-.LFB7
 1258 070e 01       		.uleb128 0x1
 1259 070f 9C       		.byte	0x9c
 1260 0710 5D070000 		.4byte	0x75d
 1261 0714 1B       		.uleb128 0x1b
 1262 0715 02000000 		.4byte	.LBB7
 1263 0719 06000000 		.4byte	.LBE7-.LBB7
 1264 071d 2F070000 		.4byte	0x72f
 1265 0721 17       		.uleb128 0x17
 1266 0722 746D7000 		.ascii	"tmp\000"
 1267 0726 01       		.byte	0x1
 1268 0727 33       		.byte	0x33
 1269 0728 A2000000 		.4byte	0xa2
 1270 072c 01       		.uleb128 0x1
 1271 072d 53       		.byte	0x53
 1272 072e 00       		.byte	0
 1273 072f 1B       		.uleb128 0x1b
 1274 0730 0C000000 		.4byte	.LBB8
 1275 0734 06000000 		.4byte	.LBE8-.LBB8
 1276 0738 4A070000 		.4byte	0x74a
 1277 073c 17       		.uleb128 0x17
 1278 073d 746D7000 		.ascii	"tmp\000"
 1279 0741 01       		.byte	0x1
 1280 0742 35       		.byte	0x35
 1281 0743 A2000000 		.4byte	0xa2
 1282 0747 01       		.uleb128 0x1
 1283 0748 53       		.byte	0x53
 1284 0749 00       		.byte	0
 1285 074a 14       		.uleb128 0x14
 1286 074b 0C000000 		.4byte	.LVL12
 1287 074f E5070000 		.4byte	0x7e5
 1288 0753 1D       		.uleb128 0x1d
 1289 0754 1A000000 		.4byte	.LVL13
 1290 0758 9E060000 		.4byte	0x69e
 1291 075c 00       		.byte	0
 1292 075d 13       		.uleb128 0x13
 1293 075e E2010000 		.4byte	.LASF91
 1294 0762 01       		.byte	0x1
 1295 0763 EC       		.byte	0xec
 1296 0764 00000000 		.4byte	.LFB12
 1297 0768 10000000 		.4byte	.LFE12-.LFB12
 1298 076c 01       		.uleb128 0x1
 1299 076d 9C       		.byte	0x9c
 1300 076e 8D070000 		.4byte	0x78d
 1301 0772 1E       		.uleb128 0x1e
 1302 0773 6E747000 		.ascii	"ntp\000"
 1303 0777 01       		.byte	0x1
ARM GAS  /tmp/ccNCO5uG.s 			page 24


 1304 0778 EC       		.byte	0xec
 1305 0779 22020000 		.4byte	0x222
 1306 077d 01       		.uleb128 0x1
 1307 077e 50       		.byte	0x50
 1308 077f 1E       		.uleb128 0x1e
 1309 0780 6F747000 		.ascii	"otp\000"
 1310 0784 01       		.byte	0x1
 1311 0785 EC       		.byte	0xec
 1312 0786 22020000 		.4byte	0x222
 1313 078a 01       		.uleb128 0x1
 1314 078b 51       		.byte	0x51
 1315 078c 00       		.byte	0
 1316 078d 1F       		.uleb128 0x1f
 1317 078e B6000000 		.4byte	.LASF92
 1318 0792 01       		.byte	0x1
 1319 0793 0301     		.2byte	0x103
 1320 0795 00000000 		.4byte	.LFB13
 1321 0799 10000000 		.4byte	.LFE13-.LFB13
 1322 079d 01       		.uleb128 0x1
 1323 079e 9C       		.byte	0x9c
 1324 079f BC070000 		.4byte	0x7bc
 1325 07a3 16       		.uleb128 0x16
 1326 07a4 00000000 		.4byte	.LBB9
 1327 07a8 06000000 		.4byte	.LBE9-.LBB9
 1328 07ac 20       		.uleb128 0x20
 1329 07ad 746D7000 		.ascii	"tmp\000"
 1330 07b1 01       		.byte	0x1
 1331 07b2 0501     		.2byte	0x105
 1332 07b4 A2000000 		.4byte	0xa2
 1333 07b8 01       		.uleb128 0x1
 1334 07b9 53       		.byte	0x53
 1335 07ba 00       		.byte	0
 1336 07bb 00       		.byte	0
 1337 07bc 21       		.uleb128 0x21
 1338 07bd 0D040000 		.4byte	.LASF98
 1339 07c1 09       		.byte	0x9
 1340 07c2 72       		.byte	0x72
 1341 07c3 46050000 		.4byte	0x546
 1342 07c7 22       		.uleb128 0x22
 1343 07c8 07010000 		.4byte	.LASF93
 1344 07cc 09       		.byte	0x9
 1345 07cd A5       		.byte	0xa5
 1346 07ce 23       		.uleb128 0x23
 1347 07cf E1000000 		.4byte	.LASF99
 1348 07d3 08       		.byte	0x8
 1349 07d4 2501     		.2byte	0x125
 1350 07d6 E5070000 		.4byte	0x7e5
 1351 07da 24       		.uleb128 0x24
 1352 07db A2000000 		.4byte	0xa2
 1353 07df 24       		.uleb128 0x24
 1354 07e0 A2000000 		.4byte	0xa2
 1355 07e4 00       		.byte	0
 1356 07e5 22       		.uleb128 0x22
 1357 07e6 1F000000 		.4byte	.LASF94
 1358 07ea 0B       		.byte	0xb
 1359 07eb F7       		.byte	0xf7
 1360 07ec 00       		.byte	0
ARM GAS  /tmp/ccNCO5uG.s 			page 25


 1361              		.section	.debug_abbrev,"",%progbits
 1362              	.Ldebug_abbrev0:
 1363 0000 01       		.uleb128 0x1
 1364 0001 11       		.uleb128 0x11
 1365 0002 01       		.byte	0x1
 1366 0003 25       		.uleb128 0x25
 1367 0004 0E       		.uleb128 0xe
 1368 0005 13       		.uleb128 0x13
 1369 0006 0B       		.uleb128 0xb
 1370 0007 03       		.uleb128 0x3
 1371 0008 0E       		.uleb128 0xe
 1372 0009 1B       		.uleb128 0x1b
 1373 000a 0E       		.uleb128 0xe
 1374 000b 55       		.uleb128 0x55
 1375 000c 17       		.uleb128 0x17
 1376 000d 11       		.uleb128 0x11
 1377 000e 01       		.uleb128 0x1
 1378 000f 10       		.uleb128 0x10
 1379 0010 17       		.uleb128 0x17
 1380 0011 00       		.byte	0
 1381 0012 00       		.byte	0
 1382 0013 02       		.uleb128 0x2
 1383 0014 24       		.uleb128 0x24
 1384 0015 00       		.byte	0
 1385 0016 0B       		.uleb128 0xb
 1386 0017 0B       		.uleb128 0xb
 1387 0018 3E       		.uleb128 0x3e
 1388 0019 0B       		.uleb128 0xb
 1389 001a 03       		.uleb128 0x3
 1390 001b 08       		.uleb128 0x8
 1391 001c 00       		.byte	0
 1392 001d 00       		.byte	0
 1393 001e 03       		.uleb128 0x3
 1394 001f 24       		.uleb128 0x24
 1395 0020 00       		.byte	0
 1396 0021 0B       		.uleb128 0xb
 1397 0022 0B       		.uleb128 0xb
 1398 0023 3E       		.uleb128 0x3e
 1399 0024 0B       		.uleb128 0xb
 1400 0025 03       		.uleb128 0x3
 1401 0026 0E       		.uleb128 0xe
 1402 0027 00       		.byte	0
 1403 0028 00       		.byte	0
 1404 0029 04       		.uleb128 0x4
 1405 002a 16       		.uleb128 0x16
 1406 002b 00       		.byte	0
 1407 002c 03       		.uleb128 0x3
 1408 002d 0E       		.uleb128 0xe
 1409 002e 3A       		.uleb128 0x3a
 1410 002f 0B       		.uleb128 0xb
 1411 0030 3B       		.uleb128 0x3b
 1412 0031 0B       		.uleb128 0xb
 1413 0032 49       		.uleb128 0x49
 1414 0033 13       		.uleb128 0x13
 1415 0034 00       		.byte	0
 1416 0035 00       		.byte	0
 1417 0036 05       		.uleb128 0x5
ARM GAS  /tmp/ccNCO5uG.s 			page 26


 1418 0037 13       		.uleb128 0x13
 1419 0038 01       		.byte	0x1
 1420 0039 03       		.uleb128 0x3
 1421 003a 0E       		.uleb128 0xe
 1422 003b 0B       		.uleb128 0xb
 1423 003c 0B       		.uleb128 0xb
 1424 003d 3A       		.uleb128 0x3a
 1425 003e 0B       		.uleb128 0xb
 1426 003f 3B       		.uleb128 0x3b
 1427 0040 0B       		.uleb128 0xb
 1428 0041 01       		.uleb128 0x1
 1429 0042 13       		.uleb128 0x13
 1430 0043 00       		.byte	0
 1431 0044 00       		.byte	0
 1432 0045 06       		.uleb128 0x6
 1433 0046 0D       		.uleb128 0xd
 1434 0047 00       		.byte	0
 1435 0048 03       		.uleb128 0x3
 1436 0049 0E       		.uleb128 0xe
 1437 004a 3A       		.uleb128 0x3a
 1438 004b 0B       		.uleb128 0xb
 1439 004c 3B       		.uleb128 0x3b
 1440 004d 0B       		.uleb128 0xb
 1441 004e 49       		.uleb128 0x49
 1442 004f 13       		.uleb128 0x13
 1443 0050 38       		.uleb128 0x38
 1444 0051 0B       		.uleb128 0xb
 1445 0052 00       		.byte	0
 1446 0053 00       		.byte	0
 1447 0054 07       		.uleb128 0x7
 1448 0055 0D       		.uleb128 0xd
 1449 0056 00       		.byte	0
 1450 0057 03       		.uleb128 0x3
 1451 0058 08       		.uleb128 0x8
 1452 0059 3A       		.uleb128 0x3a
 1453 005a 0B       		.uleb128 0xb
 1454 005b 3B       		.uleb128 0x3b
 1455 005c 0B       		.uleb128 0xb
 1456 005d 49       		.uleb128 0x49
 1457 005e 13       		.uleb128 0x13
 1458 005f 38       		.uleb128 0x38
 1459 0060 0B       		.uleb128 0xb
 1460 0061 00       		.byte	0
 1461 0062 00       		.byte	0
 1462 0063 08       		.uleb128 0x8
 1463 0064 13       		.uleb128 0x13
 1464 0065 01       		.byte	0x1
 1465 0066 0B       		.uleb128 0xb
 1466 0067 0B       		.uleb128 0xb
 1467 0068 3A       		.uleb128 0x3a
 1468 0069 0B       		.uleb128 0xb
 1469 006a 3B       		.uleb128 0x3b
 1470 006b 0B       		.uleb128 0xb
 1471 006c 01       		.uleb128 0x1
 1472 006d 13       		.uleb128 0x13
 1473 006e 00       		.byte	0
 1474 006f 00       		.byte	0
ARM GAS  /tmp/ccNCO5uG.s 			page 27


 1475 0070 09       		.uleb128 0x9
 1476 0071 0F       		.uleb128 0xf
 1477 0072 00       		.byte	0
 1478 0073 0B       		.uleb128 0xb
 1479 0074 0B       		.uleb128 0xb
 1480 0075 49       		.uleb128 0x49
 1481 0076 13       		.uleb128 0x13
 1482 0077 00       		.byte	0
 1483 0078 00       		.byte	0
 1484 0079 0A       		.uleb128 0xa
 1485 007a 0F       		.uleb128 0xf
 1486 007b 00       		.byte	0
 1487 007c 0B       		.uleb128 0xb
 1488 007d 0B       		.uleb128 0xb
 1489 007e 00       		.byte	0
 1490 007f 00       		.byte	0
 1491 0080 0B       		.uleb128 0xb
 1492 0081 0D       		.uleb128 0xd
 1493 0082 00       		.byte	0
 1494 0083 03       		.uleb128 0x3
 1495 0084 08       		.uleb128 0x8
 1496 0085 3A       		.uleb128 0x3a
 1497 0086 0B       		.uleb128 0xb
 1498 0087 3B       		.uleb128 0x3b
 1499 0088 05       		.uleb128 0x5
 1500 0089 49       		.uleb128 0x49
 1501 008a 13       		.uleb128 0x13
 1502 008b 38       		.uleb128 0x38
 1503 008c 0B       		.uleb128 0xb
 1504 008d 00       		.byte	0
 1505 008e 00       		.byte	0
 1506 008f 0C       		.uleb128 0xc
 1507 0090 13       		.uleb128 0x13
 1508 0091 01       		.byte	0x1
 1509 0092 03       		.uleb128 0x3
 1510 0093 0E       		.uleb128 0xe
 1511 0094 0B       		.uleb128 0xb
 1512 0095 0B       		.uleb128 0xb
 1513 0096 3A       		.uleb128 0x3a
 1514 0097 0B       		.uleb128 0xb
 1515 0098 3B       		.uleb128 0x3b
 1516 0099 05       		.uleb128 0x5
 1517 009a 01       		.uleb128 0x1
 1518 009b 13       		.uleb128 0x13
 1519 009c 00       		.byte	0
 1520 009d 00       		.byte	0
 1521 009e 0D       		.uleb128 0xd
 1522 009f 35       		.uleb128 0x35
 1523 00a0 00       		.byte	0
 1524 00a1 49       		.uleb128 0x49
 1525 00a2 13       		.uleb128 0x13
 1526 00a3 00       		.byte	0
 1527 00a4 00       		.byte	0
 1528 00a5 0E       		.uleb128 0xe
 1529 00a6 01       		.uleb128 0x1
 1530 00a7 01       		.byte	0x1
 1531 00a8 49       		.uleb128 0x49
ARM GAS  /tmp/ccNCO5uG.s 			page 28


 1532 00a9 13       		.uleb128 0x13
 1533 00aa 01       		.uleb128 0x1
 1534 00ab 13       		.uleb128 0x13
 1535 00ac 00       		.byte	0
 1536 00ad 00       		.byte	0
 1537 00ae 0F       		.uleb128 0xf
 1538 00af 21       		.uleb128 0x21
 1539 00b0 00       		.byte	0
 1540 00b1 49       		.uleb128 0x49
 1541 00b2 13       		.uleb128 0x13
 1542 00b3 2F       		.uleb128 0x2f
 1543 00b4 0B       		.uleb128 0xb
 1544 00b5 00       		.byte	0
 1545 00b6 00       		.byte	0
 1546 00b7 10       		.uleb128 0x10
 1547 00b8 17       		.uleb128 0x17
 1548 00b9 01       		.byte	0x1
 1549 00ba 0B       		.uleb128 0xb
 1550 00bb 0B       		.uleb128 0xb
 1551 00bc 3A       		.uleb128 0x3a
 1552 00bd 0B       		.uleb128 0xb
 1553 00be 3B       		.uleb128 0x3b
 1554 00bf 0B       		.uleb128 0xb
 1555 00c0 01       		.uleb128 0x1
 1556 00c1 13       		.uleb128 0x13
 1557 00c2 00       		.byte	0
 1558 00c3 00       		.byte	0
 1559 00c4 11       		.uleb128 0x11
 1560 00c5 0D       		.uleb128 0xd
 1561 00c6 00       		.byte	0
 1562 00c7 03       		.uleb128 0x3
 1563 00c8 0E       		.uleb128 0xe
 1564 00c9 3A       		.uleb128 0x3a
 1565 00ca 0B       		.uleb128 0xb
 1566 00cb 3B       		.uleb128 0x3b
 1567 00cc 0B       		.uleb128 0xb
 1568 00cd 49       		.uleb128 0x49
 1569 00ce 13       		.uleb128 0x13
 1570 00cf 00       		.byte	0
 1571 00d0 00       		.byte	0
 1572 00d1 12       		.uleb128 0x12
 1573 00d2 26       		.uleb128 0x26
 1574 00d3 00       		.byte	0
 1575 00d4 49       		.uleb128 0x49
 1576 00d5 13       		.uleb128 0x13
 1577 00d6 00       		.byte	0
 1578 00d7 00       		.byte	0
 1579 00d8 13       		.uleb128 0x13
 1580 00d9 2E       		.uleb128 0x2e
 1581 00da 01       		.byte	0x1
 1582 00db 3F       		.uleb128 0x3f
 1583 00dc 19       		.uleb128 0x19
 1584 00dd 03       		.uleb128 0x3
 1585 00de 0E       		.uleb128 0xe
 1586 00df 3A       		.uleb128 0x3a
 1587 00e0 0B       		.uleb128 0xb
 1588 00e1 3B       		.uleb128 0x3b
ARM GAS  /tmp/ccNCO5uG.s 			page 29


 1589 00e2 0B       		.uleb128 0xb
 1590 00e3 27       		.uleb128 0x27
 1591 00e4 19       		.uleb128 0x19
 1592 00e5 11       		.uleb128 0x11
 1593 00e6 01       		.uleb128 0x1
 1594 00e7 12       		.uleb128 0x12
 1595 00e8 06       		.uleb128 0x6
 1596 00e9 40       		.uleb128 0x40
 1597 00ea 18       		.uleb128 0x18
 1598 00eb 9742     		.uleb128 0x2117
 1599 00ed 19       		.uleb128 0x19
 1600 00ee 01       		.uleb128 0x1
 1601 00ef 13       		.uleb128 0x13
 1602 00f0 00       		.byte	0
 1603 00f1 00       		.byte	0
 1604 00f2 14       		.uleb128 0x14
 1605 00f3 898201   		.uleb128 0x4109
 1606 00f6 00       		.byte	0
 1607 00f7 11       		.uleb128 0x11
 1608 00f8 01       		.uleb128 0x1
 1609 00f9 31       		.uleb128 0x31
 1610 00fa 13       		.uleb128 0x13
 1611 00fb 00       		.byte	0
 1612 00fc 00       		.byte	0
 1613 00fd 15       		.uleb128 0x15
 1614 00fe 34       		.uleb128 0x34
 1615 00ff 00       		.byte	0
 1616 0100 03       		.uleb128 0x3
 1617 0101 0E       		.uleb128 0xe
 1618 0102 3A       		.uleb128 0x3a
 1619 0103 0B       		.uleb128 0xb
 1620 0104 3B       		.uleb128 0x3b
 1621 0105 0B       		.uleb128 0xb
 1622 0106 49       		.uleb128 0x49
 1623 0107 13       		.uleb128 0x13
 1624 0108 02       		.uleb128 0x2
 1625 0109 17       		.uleb128 0x17
 1626 010a 00       		.byte	0
 1627 010b 00       		.byte	0
 1628 010c 16       		.uleb128 0x16
 1629 010d 0B       		.uleb128 0xb
 1630 010e 01       		.byte	0x1
 1631 010f 11       		.uleb128 0x11
 1632 0110 01       		.uleb128 0x1
 1633 0111 12       		.uleb128 0x12
 1634 0112 06       		.uleb128 0x6
 1635 0113 00       		.byte	0
 1636 0114 00       		.byte	0
 1637 0115 17       		.uleb128 0x17
 1638 0116 34       		.uleb128 0x34
 1639 0117 00       		.byte	0
 1640 0118 03       		.uleb128 0x3
 1641 0119 08       		.uleb128 0x8
 1642 011a 3A       		.uleb128 0x3a
 1643 011b 0B       		.uleb128 0xb
 1644 011c 3B       		.uleb128 0x3b
 1645 011d 0B       		.uleb128 0xb
ARM GAS  /tmp/ccNCO5uG.s 			page 30


 1646 011e 49       		.uleb128 0x49
 1647 011f 13       		.uleb128 0x13
 1648 0120 02       		.uleb128 0x2
 1649 0121 18       		.uleb128 0x18
 1650 0122 00       		.byte	0
 1651 0123 00       		.byte	0
 1652 0124 18       		.uleb128 0x18
 1653 0125 898201   		.uleb128 0x4109
 1654 0128 01       		.byte	0x1
 1655 0129 11       		.uleb128 0x11
 1656 012a 01       		.uleb128 0x1
 1657 012b 31       		.uleb128 0x31
 1658 012c 13       		.uleb128 0x13
 1659 012d 01       		.uleb128 0x1
 1660 012e 13       		.uleb128 0x13
 1661 012f 00       		.byte	0
 1662 0130 00       		.byte	0
 1663 0131 19       		.uleb128 0x19
 1664 0132 8A8201   		.uleb128 0x410a
 1665 0135 00       		.byte	0
 1666 0136 02       		.uleb128 0x2
 1667 0137 18       		.uleb128 0x18
 1668 0138 9142     		.uleb128 0x2111
 1669 013a 18       		.uleb128 0x18
 1670 013b 00       		.byte	0
 1671 013c 00       		.byte	0
 1672 013d 1A       		.uleb128 0x1a
 1673 013e 898201   		.uleb128 0x4109
 1674 0141 01       		.byte	0x1
 1675 0142 11       		.uleb128 0x11
 1676 0143 01       		.uleb128 0x1
 1677 0144 9542     		.uleb128 0x2115
 1678 0146 19       		.uleb128 0x19
 1679 0147 31       		.uleb128 0x31
 1680 0148 13       		.uleb128 0x13
 1681 0149 00       		.byte	0
 1682 014a 00       		.byte	0
 1683 014b 1B       		.uleb128 0x1b
 1684 014c 0B       		.uleb128 0xb
 1685 014d 01       		.byte	0x1
 1686 014e 11       		.uleb128 0x11
 1687 014f 01       		.uleb128 0x1
 1688 0150 12       		.uleb128 0x12
 1689 0151 06       		.uleb128 0x6
 1690 0152 01       		.uleb128 0x1
 1691 0153 13       		.uleb128 0x13
 1692 0154 00       		.byte	0
 1693 0155 00       		.byte	0
 1694 0156 1C       		.uleb128 0x1c
 1695 0157 0B       		.uleb128 0xb
 1696 0158 01       		.byte	0x1
 1697 0159 55       		.uleb128 0x55
 1698 015a 17       		.uleb128 0x17
 1699 015b 01       		.uleb128 0x1
 1700 015c 13       		.uleb128 0x13
 1701 015d 00       		.byte	0
 1702 015e 00       		.byte	0
ARM GAS  /tmp/ccNCO5uG.s 			page 31


 1703 015f 1D       		.uleb128 0x1d
 1704 0160 898201   		.uleb128 0x4109
 1705 0163 00       		.byte	0
 1706 0164 11       		.uleb128 0x11
 1707 0165 01       		.uleb128 0x1
 1708 0166 9542     		.uleb128 0x2115
 1709 0168 19       		.uleb128 0x19
 1710 0169 31       		.uleb128 0x31
 1711 016a 13       		.uleb128 0x13
 1712 016b 00       		.byte	0
 1713 016c 00       		.byte	0
 1714 016d 1E       		.uleb128 0x1e
 1715 016e 05       		.uleb128 0x5
 1716 016f 00       		.byte	0
 1717 0170 03       		.uleb128 0x3
 1718 0171 08       		.uleb128 0x8
 1719 0172 3A       		.uleb128 0x3a
 1720 0173 0B       		.uleb128 0xb
 1721 0174 3B       		.uleb128 0x3b
 1722 0175 0B       		.uleb128 0xb
 1723 0176 49       		.uleb128 0x49
 1724 0177 13       		.uleb128 0x13
 1725 0178 02       		.uleb128 0x2
 1726 0179 18       		.uleb128 0x18
 1727 017a 00       		.byte	0
 1728 017b 00       		.byte	0
 1729 017c 1F       		.uleb128 0x1f
 1730 017d 2E       		.uleb128 0x2e
 1731 017e 01       		.byte	0x1
 1732 017f 3F       		.uleb128 0x3f
 1733 0180 19       		.uleb128 0x19
 1734 0181 03       		.uleb128 0x3
 1735 0182 0E       		.uleb128 0xe
 1736 0183 3A       		.uleb128 0x3a
 1737 0184 0B       		.uleb128 0xb
 1738 0185 3B       		.uleb128 0x3b
 1739 0186 05       		.uleb128 0x5
 1740 0187 27       		.uleb128 0x27
 1741 0188 19       		.uleb128 0x19
 1742 0189 11       		.uleb128 0x11
 1743 018a 01       		.uleb128 0x1
 1744 018b 12       		.uleb128 0x12
 1745 018c 06       		.uleb128 0x6
 1746 018d 40       		.uleb128 0x40
 1747 018e 18       		.uleb128 0x18
 1748 018f 9742     		.uleb128 0x2117
 1749 0191 19       		.uleb128 0x19
 1750 0192 01       		.uleb128 0x1
 1751 0193 13       		.uleb128 0x13
 1752 0194 00       		.byte	0
 1753 0195 00       		.byte	0
 1754 0196 20       		.uleb128 0x20
 1755 0197 34       		.uleb128 0x34
 1756 0198 00       		.byte	0
 1757 0199 03       		.uleb128 0x3
 1758 019a 08       		.uleb128 0x8
 1759 019b 3A       		.uleb128 0x3a
ARM GAS  /tmp/ccNCO5uG.s 			page 32


 1760 019c 0B       		.uleb128 0xb
 1761 019d 3B       		.uleb128 0x3b
 1762 019e 05       		.uleb128 0x5
 1763 019f 49       		.uleb128 0x49
 1764 01a0 13       		.uleb128 0x13
 1765 01a1 02       		.uleb128 0x2
 1766 01a2 18       		.uleb128 0x18
 1767 01a3 00       		.byte	0
 1768 01a4 00       		.byte	0
 1769 01a5 21       		.uleb128 0x21
 1770 01a6 34       		.uleb128 0x34
 1771 01a7 00       		.byte	0
 1772 01a8 03       		.uleb128 0x3
 1773 01a9 0E       		.uleb128 0xe
 1774 01aa 3A       		.uleb128 0x3a
 1775 01ab 0B       		.uleb128 0xb
 1776 01ac 3B       		.uleb128 0x3b
 1777 01ad 0B       		.uleb128 0xb
 1778 01ae 49       		.uleb128 0x49
 1779 01af 13       		.uleb128 0x13
 1780 01b0 3F       		.uleb128 0x3f
 1781 01b1 19       		.uleb128 0x19
 1782 01b2 3C       		.uleb128 0x3c
 1783 01b3 19       		.uleb128 0x19
 1784 01b4 00       		.byte	0
 1785 01b5 00       		.byte	0
 1786 01b6 22       		.uleb128 0x22
 1787 01b7 2E       		.uleb128 0x2e
 1788 01b8 00       		.byte	0
 1789 01b9 3F       		.uleb128 0x3f
 1790 01ba 19       		.uleb128 0x19
 1791 01bb 03       		.uleb128 0x3
 1792 01bc 0E       		.uleb128 0xe
 1793 01bd 3A       		.uleb128 0x3a
 1794 01be 0B       		.uleb128 0xb
 1795 01bf 3B       		.uleb128 0x3b
 1796 01c0 0B       		.uleb128 0xb
 1797 01c1 27       		.uleb128 0x27
 1798 01c2 19       		.uleb128 0x19
 1799 01c3 3C       		.uleb128 0x3c
 1800 01c4 19       		.uleb128 0x19
 1801 01c5 00       		.byte	0
 1802 01c6 00       		.byte	0
 1803 01c7 23       		.uleb128 0x23
 1804 01c8 2E       		.uleb128 0x2e
 1805 01c9 01       		.byte	0x1
 1806 01ca 3F       		.uleb128 0x3f
 1807 01cb 19       		.uleb128 0x19
 1808 01cc 03       		.uleb128 0x3
 1809 01cd 0E       		.uleb128 0xe
 1810 01ce 3A       		.uleb128 0x3a
 1811 01cf 0B       		.uleb128 0xb
 1812 01d0 3B       		.uleb128 0x3b
 1813 01d1 05       		.uleb128 0x5
 1814 01d2 27       		.uleb128 0x27
 1815 01d3 19       		.uleb128 0x19
 1816 01d4 3C       		.uleb128 0x3c
ARM GAS  /tmp/ccNCO5uG.s 			page 33


 1817 01d5 19       		.uleb128 0x19
 1818 01d6 01       		.uleb128 0x1
 1819 01d7 13       		.uleb128 0x13
 1820 01d8 00       		.byte	0
 1821 01d9 00       		.byte	0
 1822 01da 24       		.uleb128 0x24
 1823 01db 05       		.uleb128 0x5
 1824 01dc 00       		.byte	0
 1825 01dd 49       		.uleb128 0x49
 1826 01de 13       		.uleb128 0x13
 1827 01df 00       		.byte	0
 1828 01e0 00       		.byte	0
 1829 01e1 00       		.byte	0
 1830              		.section	.debug_loc,"",%progbits
 1831              	.Ldebug_loc0:
 1832              	.LLST0:
 1833 0000 04000000 		.4byte	.LVL1
 1834 0004 06000000 		.4byte	.LVL2
 1835 0008 0300     		.2byte	0x3
 1836 000a 73       		.byte	0x73
 1837 000b 20       		.sleb128 32
 1838 000c 9F       		.byte	0x9f
 1839 000d 06000000 		.4byte	.LVL2
 1840 0011 0C000000 		.4byte	.LVL3
 1841 0015 0100     		.2byte	0x1
 1842 0017 53       		.byte	0x53
 1843 0018 00000000 		.4byte	0
 1844 001c 00000000 		.4byte	0
 1845              	.LLST1:
 1846 0020 1A000000 		.4byte	.LVL7
 1847 0024 1E000000 		.4byte	.LVL8
 1848 0028 0300     		.2byte	0x3
 1849 002a 72       		.byte	0x72
 1850 002b 60       		.sleb128 -32
 1851 002c 9F       		.byte	0x9f
 1852 002d 1E000000 		.4byte	.LVL8
 1853 0031 26000000 		.4byte	.LVL9
 1854 0035 0100     		.2byte	0x1
 1855 0037 53       		.byte	0x53
 1856 0038 26000000 		.4byte	.LVL9
 1857 003c 56000000 		.4byte	.LVL10
 1858 0040 0300     		.2byte	0x3
 1859 0042 72       		.byte	0x72
 1860 0043 60       		.sleb128 -32
 1861 0044 9F       		.byte	0x9f
 1862 0045 5C000000 		.4byte	.LVL11
 1863 0049 7E000000 		.4byte	.LFE10
 1864 004d 0300     		.2byte	0x3
 1865 004f 72       		.byte	0x72
 1866 0050 60       		.sleb128 -32
 1867 0051 9F       		.byte	0x9f
 1868 0052 00000000 		.4byte	0
 1869 0056 00000000 		.4byte	0
 1870              		.section	.debug_aranges,"",%progbits
 1871 0000 4C000000 		.4byte	0x4c
 1872 0004 0200     		.2byte	0x2
 1873 0006 00000000 		.4byte	.Ldebug_info0
ARM GAS  /tmp/ccNCO5uG.s 			page 34


 1874 000a 04       		.byte	0x4
 1875 000b 00       		.byte	0
 1876 000c 0000     		.2byte	0
 1877 000e 0000     		.2byte	0
 1878 0010 00000000 		.4byte	.LFB11
 1879 0014 06000000 		.4byte	.LFE11-.LFB11
 1880 0018 00000000 		.4byte	.LFB8
 1881 001c 12000000 		.4byte	.LFE8-.LFB8
 1882 0020 00000000 		.4byte	.LFB9
 1883 0024 34000000 		.4byte	.LFE9-.LFB9
 1884 0028 00000000 		.4byte	.LFB10
 1885 002c 7E000000 		.4byte	.LFE10-.LFB10
 1886 0030 00000000 		.4byte	.LFB7
 1887 0034 1A000000 		.4byte	.LFE7-.LFB7
 1888 0038 00000000 		.4byte	.LFB12
 1889 003c 10000000 		.4byte	.LFE12-.LFB12
 1890 0040 00000000 		.4byte	.LFB13
 1891 0044 10000000 		.4byte	.LFE13-.LFB13
 1892 0048 00000000 		.4byte	0
 1893 004c 00000000 		.4byte	0
 1894              		.section	.debug_ranges,"",%progbits
 1895              	.Ldebug_ranges0:
 1896 0000 16000000 		.4byte	.LBB4
 1897 0004 56000000 		.4byte	.LBE4
 1898 0008 5C000000 		.4byte	.LBB6
 1899 000c 7E000000 		.4byte	.LBE6
 1900 0010 00000000 		.4byte	0
 1901 0014 00000000 		.4byte	0
 1902 0018 00000000 		.4byte	.LFB11
 1903 001c 06000000 		.4byte	.LFE11
 1904 0020 00000000 		.4byte	.LFB8
 1905 0024 12000000 		.4byte	.LFE8
 1906 0028 00000000 		.4byte	.LFB9
 1907 002c 34000000 		.4byte	.LFE9
 1908 0030 00000000 		.4byte	.LFB10
 1909 0034 7E000000 		.4byte	.LFE10
 1910 0038 00000000 		.4byte	.LFB7
 1911 003c 1A000000 		.4byte	.LFE7
 1912 0040 00000000 		.4byte	.LFB12
 1913 0044 10000000 		.4byte	.LFE12
 1914 0048 00000000 		.4byte	.LFB13
 1915 004c 10000000 		.4byte	.LFE13
 1916 0050 00000000 		.4byte	0
 1917 0054 00000000 		.4byte	0
 1918              		.section	.debug_line,"",%progbits
 1919              	.Ldebug_line0:
 1920 0000 D9010000 		.section	.debug_str,"MS",%progbits,1
 1920      02002701 
 1920      00000201 
 1920      FB0E0D00 
 1920      01010101 
 1921              	.LASF37:
 1922 0000 705F6D73 		.ascii	"p_msg\000"
 1922      6700
 1923              	.LASF80:
 1924 0006 7264796D 		.ascii	"rdymsg\000"
 1924      736700
ARM GAS  /tmp/ccNCO5uG.s 			page 35


 1925              	.LASF5:
 1926 000d 5F5F7569 		.ascii	"__uint8_t\000"
 1926      6E74385F 
 1926      7400
 1927              	.LASF67:
 1928 0017 434D785F 		.ascii	"CMx_SCB\000"
 1928      53434200 
 1929              	.LASF94:
 1930 001f 63685379 		.ascii	"chSysTimerHandlerI\000"
 1930      7354696D 
 1930      65724861 
 1930      6E646C65 
 1930      724900
 1931              	.LASF90:
 1932 0032 53797354 		.ascii	"SysTickVector\000"
 1932      69636B56 
 1932      6563746F 
 1932      7200
 1933              	.LASF11:
 1934 0040 6C6F6E67 		.ascii	"long long unsigned int\000"
 1934      206C6F6E 
 1934      6720756E 
 1934      7369676E 
 1934      65642069 
 1935              	.LASF81:
 1936 0057 65786974 		.ascii	"exitcode\000"
 1936      636F6465 
 1936      00
 1937              	.LASF52:
 1938 0060 43505549 		.ascii	"CPUID\000"
 1938      4400
 1939              	.LASF26:
 1940 0066 705F7072 		.ascii	"p_prio\000"
 1940      696F00
 1941              	.LASF10:
 1942 006d 6C6F6E67 		.ascii	"long long int\000"
 1942      206C6F6E 
 1942      6720696E 
 1942      7400
 1943              	.LASF1:
 1944 007b 7369676E 		.ascii	"signed char\000"
 1944      65642063 
 1944      68617200 
 1945              	.LASF41:
 1946 0087 705F6D70 		.ascii	"p_mpool\000"
 1946      6F6F6C00 
 1947              	.LASF77:
 1948 008f 6D5F7175 		.ascii	"m_queue\000"
 1948      65756500 
 1949              	.LASF7:
 1950 0097 6C6F6E67 		.ascii	"long int\000"
 1950      20696E74 
 1950      00
 1951              	.LASF86:
 1952 00a0 53564361 		.ascii	"SVCallVector\000"
 1952      6C6C5665 
 1952      63746F72 
ARM GAS  /tmp/ccNCO5uG.s 			page 36


 1952      00
 1953              	.LASF16:
 1954 00ad 74737461 		.ascii	"tstate_t\000"
 1954      74655F74 
 1954      00
 1955              	.LASF92:
 1956 00b6 5F706F72 		.ascii	"_port_thread_start\000"
 1956      745F7468 
 1956      72656164 
 1956      5F737461 
 1956      727400
 1957              	.LASF28:
 1958 00c9 705F6E65 		.ascii	"p_newer\000"
 1958      77657200 
 1959              	.LASF62:
 1960 00d1 42464152 		.ascii	"BFAR\000"
 1960      00
 1961              	.LASF8:
 1962 00d6 5F5F7569 		.ascii	"__uint32_t\000"
 1962      6E743332 
 1962      5F7400
 1963              	.LASF99:
 1964 00e1 6E766963 		.ascii	"nvicSetSystemHandlerPriority\000"
 1964      53657453 
 1964      79737465 
 1964      6D48616E 
 1964      646C6572 
 1965              	.LASF44:
 1966 00fe 72656761 		.ascii	"regarm_t\000"
 1966      726D5F74 
 1966      00
 1967              	.LASF93:
 1968 0107 63685363 		.ascii	"chSchDoReschedule\000"
 1968      68446F52 
 1968      65736368 
 1968      6564756C 
 1968      6500
 1969              	.LASF95:
 1970 0119 474E5520 		.ascii	"GNU C 4.8.2 -mcpu=cortex-m3 -mno-thumb-interwork -m"
 1970      4320342E 
 1970      382E3220 
 1970      2D6D6370 
 1970      753D636F 
 1971 014c 7468756D 		.ascii	"thumb -ggdb -O2 -std=gnu99 -fomit-frame-pointer -fa"
 1971      62202D67 
 1971      67646220 
 1971      2D4F3220 
 1971      2D737464 
 1972 017f 6C69676E 		.ascii	"lign-functions=16 -ffunction-sections -fdata-sectio"
 1972      2D66756E 
 1972      6374696F 
 1972      6E733D31 
 1972      36202D66 
 1973 01b2 6E73202D 		.ascii	"ns -fno-common\000"
 1973      666E6F2D 
 1973      636F6D6D 
 1973      6F6E00
ARM GAS  /tmp/ccNCO5uG.s 			page 37


 1974              	.LASF22:
 1975 01c1 636E745F 		.ascii	"cnt_t\000"
 1975      7400
 1976              	.LASF0:
 1977 01c7 756E7369 		.ascii	"unsigned int\000"
 1977      676E6564 
 1977      20696E74 
 1977      00
 1978              	.LASF46:
 1979 01d4 6C725F74 		.ascii	"lr_thd\000"
 1979      686400
 1980              	.LASF45:
 1981 01db 65787463 		.ascii	"extctx\000"
 1981      747800
 1982              	.LASF91:
 1983 01e2 5F706F72 		.ascii	"_port_switch\000"
 1983      745F7377 
 1983      69746368 
 1983      00
 1984              	.LASF9:
 1985 01ef 6C6F6E67 		.ascii	"long unsigned int\000"
 1985      20756E73 
 1985      69676E65 
 1985      6420696E 
 1985      7400
 1986              	.LASF54:
 1987 0201 56544F52 		.ascii	"VTOR\000"
 1987      00
 1988              	.LASF85:
 1989 0206 5F706F72 		.ascii	"_port_switch_from_isr\000"
 1989      745F7377 
 1989      69746368 
 1989      5F66726F 
 1989      6D5F6973 
 1990              	.LASF49:
 1991 021c 636F6E74 		.ascii	"context\000"
 1991      65787400 
 1992              	.LASF4:
 1993 0224 73686F72 		.ascii	"short unsigned int\000"
 1993      7420756E 
 1993      7369676E 
 1993      65642069 
 1993      6E7400
 1994              	.LASF53:
 1995 0237 49435352 		.ascii	"ICSR\000"
 1995      00
 1996              	.LASF19:
 1997 023c 6D73675F 		.ascii	"msg_t\000"
 1997      7400
 1998              	.LASF55:
 1999 0242 41495243 		.ascii	"AIRCR\000"
 1999      5200
 2000              	.LASF60:
 2001 0248 44465352 		.ascii	"DFSR\000"
 2001      00
 2002              	.LASF71:
 2003 024d 725F6E65 		.ascii	"r_newer\000"
ARM GAS  /tmp/ccNCO5uG.s 			page 38


 2003      77657200 
 2004              	.LASF61:
 2005 0255 4D4D4641 		.ascii	"MMFAR\000"
 2005      5200
 2006              	.LASF89:
 2007 025b 5F706F72 		.ascii	"_port_irq_epilogue\000"
 2007      745F6972 
 2007      715F6570 
 2007      696C6F67 
 2007      756500
 2008              	.LASF15:
 2009 026e 746D6F64 		.ascii	"tmode_t\000"
 2009      655F7400 
 2010              	.LASF43:
 2011 0276 54687265 		.ascii	"ThreadsList\000"
 2011      6164734C 
 2011      69737400 
 2012              	.LASF20:
 2013 0282 6576656E 		.ascii	"eventmask_t\000"
 2013      746D6173 
 2013      6B5F7400 
 2014              	.LASF76:
 2015 028e 4D757465 		.ascii	"Mutex\000"
 2015      7800
 2016              	.LASF51:
 2017 0294 73697A65 		.ascii	"sizetype\000"
 2017      74797065 
 2017      00
 2018              	.LASF58:
 2019 029d 43465352 		.ascii	"CFSR\000"
 2019      00
 2020              	.LASF29:
 2021 02a2 705F6F6C 		.ascii	"p_older\000"
 2021      64657200 
 2022              	.LASF70:
 2023 02aa 725F6374 		.ascii	"r_ctx\000"
 2023      7800
 2024              	.LASF42:
 2025 02b0 54687265 		.ascii	"ThreadsQueue\000"
 2025      61647351 
 2025      75657565 
 2025      00
 2026              	.LASF74:
 2027 02bd 725F6375 		.ascii	"r_current\000"
 2027      7272656E 
 2027      7400
 2028              	.LASF72:
 2029 02c7 725F6F6C 		.ascii	"r_older\000"
 2029      64657200 
 2030              	.LASF17:
 2031 02cf 74726566 		.ascii	"trefs_t\000"
 2031      735F7400 
 2032              	.LASF87:
 2033 02d7 63747870 		.ascii	"ctxp\000"
 2033      00
 2034              	.LASF25:
 2035 02dc 705F7072 		.ascii	"p_prev\000"
ARM GAS  /tmp/ccNCO5uG.s 			page 39


 2035      657600
 2036              	.LASF18:
 2037 02e3 74707269 		.ascii	"tprio_t\000"
 2037      6F5F7400 
 2038              	.LASF13:
 2039 02eb 696E7433 		.ascii	"int32_t\000"
 2039      325F7400 
 2040              	.LASF2:
 2041 02f3 756E7369 		.ascii	"unsigned char\000"
 2041      676E6564 
 2041      20636861 
 2041      7200
 2042              	.LASF57:
 2043 0301 53484353 		.ascii	"SHCSR\000"
 2043      5200
 2044              	.LASF39:
 2045 0307 705F6D74 		.ascii	"p_mtxlist\000"
 2045      786C6973 
 2045      7400
 2046              	.LASF3:
 2047 0311 73686F72 		.ascii	"short int\000"
 2047      7420696E 
 2047      7400
 2048              	.LASF31:
 2049 031b 705F7374 		.ascii	"p_state\000"
 2049      61746500 
 2050              	.LASF47:
 2051 0323 78707372 		.ascii	"xpsr\000"
 2051      00
 2052              	.LASF69:
 2053 0328 725F7072 		.ascii	"r_prio\000"
 2053      696F00
 2054              	.LASF83:
 2055 032f 65776D61 		.ascii	"ewmask\000"
 2055      736B00
 2056              	.LASF24:
 2057 0336 705F6E65 		.ascii	"p_next\000"
 2057      787400
 2058              	.LASF32:
 2059 033d 705F666C 		.ascii	"p_flags\000"
 2059      61677300 
 2060              	.LASF23:
 2061 0345 54687265 		.ascii	"Thread\000"
 2061      616400
 2062              	.LASF38:
 2063 034c 705F6570 		.ascii	"p_epending\000"
 2063      656E6469 
 2063      6E6700
 2064              	.LASF14:
 2065 0357 75696E74 		.ascii	"uint32_t\000"
 2065      33325F74 
 2065      00
 2066              	.LASF68:
 2067 0360 725F7175 		.ascii	"r_queue\000"
 2067      65756500 
 2068              	.LASF63:
 2069 0368 41465352 		.ascii	"AFSR\000"
ARM GAS  /tmp/ccNCO5uG.s 			page 40


 2069      00
 2070              	.LASF65:
 2071 036d 756E7573 		.ascii	"unused1\000"
 2071      65643100 
 2072              	.LASF84:
 2073 0375 63686172 		.ascii	"char\000"
 2073      00
 2074              	.LASF50:
 2075 037a 494F5245 		.ascii	"IOREG32\000"
 2075      47333200 
 2076              	.LASF96:
 2077 0382 2E2E2F2E 		.ascii	"../../os/ports/GCC/ARMCMx/chcore_v7m.c\000"
 2077      2E2F6F73 
 2077      2F706F72 
 2077      74732F47 
 2077      43432F41 
 2078              	.LASF79:
 2079 03a9 6D5F6E65 		.ascii	"m_next\000"
 2079      787400
 2080              	.LASF21:
 2081 03b0 73797374 		.ascii	"systime_t\000"
 2081      696D655F 
 2081      7400
 2082              	.LASF40:
 2083 03ba 705F7265 		.ascii	"p_realprio\000"
 2083      616C7072 
 2083      696F00
 2084              	.LASF6:
 2085 03c5 5F5F696E 		.ascii	"__int32_t\000"
 2085      7433325F 
 2085      7400
 2086              	.LASF73:
 2087 03cf 725F7072 		.ascii	"r_preempt\000"
 2087      65656D70 
 2087      7400
 2088              	.LASF34:
 2089 03d9 705F7469 		.ascii	"p_time\000"
 2089      6D6500
 2090              	.LASF56:
 2091 03e0 53485052 		.ascii	"SHPR\000"
 2091      00
 2092              	.LASF48:
 2093 03e5 696E7463 		.ascii	"intctx\000"
 2093      747800
 2094              	.LASF36:
 2095 03ec 705F6D73 		.ascii	"p_msgqueue\000"
 2095      67717565 
 2095      756500
 2096              	.LASF33:
 2097 03f7 705F7265 		.ascii	"p_refs\000"
 2097      667300
 2098              	.LASF75:
 2099 03fe 52656164 		.ascii	"ReadyList\000"
 2099      794C6973 
 2099      7400
 2100              	.LASF64:
 2101 0408 4D4D4652 		.ascii	"MMFR\000"
ARM GAS  /tmp/ccNCO5uG.s 			page 41


 2101      00
 2102              	.LASF98:
 2103 040d 726C6973 		.ascii	"rlist\000"
 2103      7400
 2104              	.LASF12:
 2105 0413 75696E74 		.ascii	"uint8_t\000"
 2105      385F7400 
 2106              	.LASF88:
 2107 041b 5F706F72 		.ascii	"_port_init\000"
 2107      745F696E 
 2107      697400
 2108              	.LASF97:
 2109 0426 2F686F6D 		.ascii	"/home/cata/Documentos/Embebidos/ChibiOS/iflab_code/"
 2109      652F6361 
 2109      74612F44 
 2109      6F63756D 
 2109      656E746F 
 2110 0459 626C696E 		.ascii	"blink\000"
 2110      6B00
 2111              	.LASF82:
 2112 045f 77746F62 		.ascii	"wtobjp\000"
 2112      6A7000
 2113              	.LASF30:
 2114 0466 705F6E61 		.ascii	"p_name\000"
 2114      6D6500
 2115              	.LASF66:
 2116 046d 43504143 		.ascii	"CPACR\000"
 2116      5200
 2117              	.LASF59:
 2118 0473 48465352 		.ascii	"HFSR\000"
 2118      00
 2119              	.LASF78:
 2120 0478 6D5F6F77 		.ascii	"m_owner\000"
 2120      6E657200 
 2121              	.LASF27:
 2122 0480 705F6374 		.ascii	"p_ctx\000"
 2122      7800
 2123              	.LASF35:
 2124 0486 705F7761 		.ascii	"p_waiting\000"
 2124      6974696E 
 2124      6700
 2125              		.ident	"GCC: (4.8.2-14ubuntu1+6) 4.8.2"
ARM GAS  /tmp/ccNCO5uG.s 			page 42


DEFINED SYMBOLS
                            *ABS*:0000000000000000 chcore_v7m.c
     /tmp/ccNCO5uG.s:19     .text._port_switch_from_isr:0000000000000000 $t
     /tmp/ccNCO5uG.s:25     .text._port_switch_from_isr:0000000000000000 _port_switch_from_isr
     /tmp/ccNCO5uG.s:38     .text._port_switch_from_isr:0000000000000004 _port_exit_from_isr
     /tmp/ccNCO5uG.s:50     .text.SVCallVector:0000000000000000 $t
     /tmp/ccNCO5uG.s:56     .text.SVCallVector:0000000000000000 SVCallVector
     /tmp/ccNCO5uG.s:91     .text._port_init:0000000000000000 $t
     /tmp/ccNCO5uG.s:97     .text._port_init:0000000000000000 _port_init
     /tmp/ccNCO5uG.s:141    .text._port_irq_epilogue:0000000000000000 $t
     /tmp/ccNCO5uG.s:147    .text._port_irq_epilogue:0000000000000000 _port_irq_epilogue
     /tmp/ccNCO5uG.s:245    .text.SysTickVector:0000000000000000 $t
     /tmp/ccNCO5uG.s:251    .text.SysTickVector:0000000000000000 SysTickVector
     /tmp/ccNCO5uG.s:289    .text._port_switch:0000000000000000 $t
     /tmp/ccNCO5uG.s:295    .text._port_switch:0000000000000000 _port_switch
     /tmp/ccNCO5uG.s:322    .text._port_thread_start:0000000000000000 $t
     /tmp/ccNCO5uG.s:328    .text._port_thread_start:0000000000000000 _port_thread_start
                     .debug_frame:0000000000000010 $d

UNDEFINED SYMBOLS
chSchDoReschedule
nvicSetSystemHandlerPriority
rlist
chSysTimerHandlerI
chThdExit
