ARM GAS  /tmp/cc4Eos1X.s 			page 1


   1              		.syntax unified
   2              		.cpu cortex-m3
   3              		.fpu softvfp
   4              		.eabi_attribute 20, 1
   5              		.eabi_attribute 21, 1
   6              		.eabi_attribute 23, 3
   7              		.eabi_attribute 24, 1
   8              		.eabi_attribute 25, 1
   9              		.eabi_attribute 26, 1
  10              		.eabi_attribute 30, 2
  11              		.eabi_attribute 34, 1
  12              		.eabi_attribute 18, 4
  13              		.thumb
  14              		.file	"chheap.c"
  15              		.text
  16              	.Ltext0:
  17              		.cfi_sections	.debug_frame
  18              		.section	.text._heap_init,"ax",%progbits
  19              		.align	2
  20              		.p2align 4,,15
  21              		.global	_heap_init
  22              		.thumb
  23              		.thumb_func
  24              		.type	_heap_init, %function
  25              	_heap_init:
  26              	.LFB7:
  27              		.file 1 "../../os/kernel/src/chheap.c"
  28              		.loc 1 75 0
  29              		.cfi_startproc
  30              		@ args = 0, pretend = 0, frame = 0
  31              		@ frame_needed = 0, uses_anonymous_args = 0
  32              		@ link register save eliminated.
  33              		.loc 1 76 0
  34 0000 40F20003 		movw	r3, #:lower16:.LANCHOR0
  35 0004 C0F20003 		movt	r3, #:upper16:.LANCHOR0
  36 0008 40F20002 		movw	r2, #:lower16:chCoreAlloc
  37              		.loc 1 77 0
  38 000c 0021     		movs	r1, #0
  39              		.loc 1 76 0
  40 000e C0F20002 		movt	r2, #:upper16:chCoreAlloc
  41              		.loc 1 80 0
  42 0012 03F11000 		add	r0, r3, #16
  43              		.loc 1 76 0
  44 0016 1A60     		str	r2, [r3]
  45              		.loc 1 77 0
  46 0018 9960     		str	r1, [r3, #8]
  47              		.loc 1 78 0
  48 001a D960     		str	r1, [r3, #12]
  49              		.loc 1 80 0
  50 001c FFF7FEBF 		b	chMtxInit
  51              	.LVL0:
  52              		.cfi_endproc
  53              	.LFE7:
  54              		.size	_heap_init, .-_heap_init
  55              		.section	.text.chHeapInit,"ax",%progbits
  56              		.align	2
  57              		.p2align 4,,15
ARM GAS  /tmp/cc4Eos1X.s 			page 2


  58              		.global	chHeapInit
  59              		.thumb
  60              		.thumb_func
  61              		.type	chHeapInit, %function
  62              	chHeapInit:
  63              	.LFB8:
  64              		.loc 1 99 0
  65              		.cfi_startproc
  66              		@ args = 0, pretend = 0, frame = 0
  67              		@ frame_needed = 0, uses_anonymous_args = 0
  68              		@ link register save eliminated.
  69              	.LVL1:
  70              		.loc 1 104 0
  71 0000 0023     		movs	r3, #0
  72              		.loc 1 108 0
  73 0002 083A     		subs	r2, r2, #8
  74              	.LVL2:
  75              		.loc 1 105 0
  76 0004 8160     		str	r1, [r0, #8]
  77              		.loc 1 104 0
  78 0006 0360     		str	r3, [r0]
  79              	.LVL3:
  80              		.loc 1 106 0
  81 0008 C360     		str	r3, [r0, #12]
  82              		.loc 1 110 0
  83 000a 1030     		adds	r0, r0, #16
  84              	.LVL4:
  85              		.loc 1 108 0
  86 000c 4A60     		str	r2, [r1, #4]
  87              		.loc 1 107 0
  88 000e 0B60     		str	r3, [r1]
  89              		.loc 1 110 0
  90 0010 FFF7FEBF 		b	chMtxInit
  91              	.LVL5:
  92              		.cfi_endproc
  93              	.LFE8:
  94              		.size	chHeapInit, .-chHeapInit
  95 0014 AFF30080 		.section	.text.chHeapAlloc,"ax",%progbits
  95      AFF30080 
  95      AFF30080 
  96              		.align	2
  97              		.p2align 4,,15
  98              		.global	chHeapAlloc
  99              		.thumb
 100              		.thumb_func
 101              		.type	chHeapAlloc, %function
 102              	chHeapAlloc:
 103              	.LFB9:
 104              		.loc 1 132 0
 105              		.cfi_startproc
 106              		@ args = 0, pretend = 0, frame = 0
 107              		@ frame_needed = 0, uses_anonymous_args = 0
 108              	.LVL6:
 109 0000 F8B5     		push	{r3, r4, r5, r6, r7, lr}
 110              		.cfi_def_cfa_offset 24
 111              		.cfi_offset 3, -24
 112              		.cfi_offset 4, -20
ARM GAS  /tmp/cc4Eos1X.s 			page 3


 113              		.cfi_offset 5, -16
 114              		.cfi_offset 6, -12
 115              		.cfi_offset 7, -8
 116              		.cfi_offset 14, -4
 117              		.loc 1 136 0
 118 0002 40F20006 		movw	r6, #:lower16:.LANCHOR0
 119 0006 C0F20006 		movt	r6, #:upper16:.LANCHOR0
 120 000a 0028     		cmp	r0, #0
 121 000c 18BF     		it	ne
 122 000e 0646     		movne	r6, r0
 123              	.LVL7:
 124              		.loc 1 138 0
 125 0010 0731     		adds	r1, r1, #7
 126              	.LVL8:
 127              		.loc 1 140 0
 128 0012 06F11000 		add	r0, r6, #16
 129              		.loc 1 138 0
 130 0016 21F00705 		bic	r5, r1, #7
 131              	.LVL9:
 132              		.loc 1 139 0
 133 001a 06F10804 		add	r4, r6, #8
 134              	.LVL10:
 135              		.loc 1 140 0
 136 001e FFF7FEFF 		bl	chMtxLock
 137              	.LVL11:
 138              		.loc 1 142 0
 139 0022 03E0     		b	.L5
 140              	.LVL12:
 141              	.L10:
 142              		.loc 1 144 0
 143 0024 5A68     		ldr	r2, [r3, #4]
 144 0026 9542     		cmp	r5, r2
 145 0028 11D9     		bls	.L18
 146 002a 1C46     		mov	r4, r3
 147              	.LVL13:
 148              	.L5:
 149              		.loc 1 142 0 discriminator 1
 150 002c 2368     		ldr	r3, [r4]
 151              	.LVL14:
 152 002e 002B     		cmp	r3, #0
 153 0030 F8D1     		bne	.L10
 154              		.loc 1 167 0
 155 0032 FFF7FEFF 		bl	chMtxUnlock
 156              	.LVL15:
 157              		.loc 1 171 0
 158 0036 3368     		ldr	r3, [r6]
 159 0038 1BB3     		cbz	r3, .L12
 160              		.loc 1 172 0
 161 003a 05F10800 		add	r0, r5, #8
 162 003e 9847     		blx	r3
 163              	.LVL16:
 164              		.loc 1 173 0
 165 0040 F8B1     		cbz	r0, .L12
 166              		.loc 1 174 0
 167 0042 0660     		str	r6, [r0]
 168              		.loc 1 175 0
 169 0044 4560     		str	r5, [r0, #4]
ARM GAS  /tmp/cc4Eos1X.s 			page 4


 170              	.LVL17:
 171              		.loc 1 177 0
 172 0046 00F10804 		add	r4, r0, #8
 173              	.LVL18:
 174              	.L9:
 175              		.loc 1 181 0
 176 004a 2046     		mov	r0, r4
 177 004c F8BD     		pop	{r3, r4, r5, r6, r7, pc}
 178              	.LVL19:
 179              	.L18:
 180              		.loc 1 145 0
 181 004e 05F10801 		add	r1, r5, #8
 182 0052 9142     		cmp	r1, r2
 183 0054 08D9     		bls	.L7
 184              		.loc 1 149 0
 185 0056 1A68     		ldr	r2, [r3]
 186 0058 2260     		str	r2, [r4]
 187              	.L8:
 188              		.loc 1 159 0
 189 005a 1C46     		mov	r4, r3
 190              	.LVL20:
 191 005c 44F8086B 		str	r6, [r4], #8
 192              		.loc 1 161 0
 193 0060 FFF7FEFF 		bl	chMtxUnlock
 194              	.LVL21:
 195              		.loc 1 181 0
 196 0064 2046     		mov	r0, r4
 197 0066 F8BD     		pop	{r3, r4, r5, r6, r7, pc}
 198              	.LVL22:
 199              	.L7:
 200              		.loc 1 155 0
 201 0068 4FF6F870 		movw	r0, #65528
 202 006c CFF6FF70 		movt	r0, 65535
 203              		.loc 1 154 0
 204 0070 1F68     		ldr	r7, [r3]
 205              		.loc 1 155 0
 206 0072 401B     		subs	r0, r0, r5
 207 0074 1044     		add	r0, r0, r2
 208              		.loc 1 153 0
 209 0076 5A18     		adds	r2, r3, r1
 210              	.LVL23:
 211              		.loc 1 154 0
 212 0078 5F50     		str	r7, [r3, r1]
 213              		.loc 1 155 0
 214 007a 5060     		str	r0, [r2, #4]
 215              		.loc 1 156 0
 216 007c 2260     		str	r2, [r4]
 217              		.loc 1 157 0
 218 007e 5D60     		str	r5, [r3, #4]
 219 0080 EBE7     		b	.L8
 220              	.LVL24:
 221              	.L12:
 222              		.loc 1 180 0
 223 0082 0024     		movs	r4, #0
 224              	.LVL25:
 225 0084 E1E7     		b	.L9
 226              		.cfi_endproc
ARM GAS  /tmp/cc4Eos1X.s 			page 5


 227              	.LFE9:
 228              		.size	chHeapAlloc, .-chHeapAlloc
 229 0086 00BFAFF3 		.section	.text.chHeapFree,"ax",%progbits
 229      0080AFF3 
 229      0080
 230              		.align	2
 231              		.p2align 4,,15
 232              		.global	chHeapFree
 233              		.thumb
 234              		.thumb_func
 235              		.type	chHeapFree, %function
 236              	chHeapFree:
 237              	.LFB10:
 238              		.loc 1 194 0
 239              		.cfi_startproc
 240              		@ args = 0, pretend = 0, frame = 0
 241              		@ frame_needed = 0, uses_anonymous_args = 0
 242              	.LVL26:
 243 0000 70B5     		push	{r4, r5, r6, lr}
 244              		.cfi_def_cfa_offset 16
 245              		.cfi_offset 4, -16
 246              		.cfi_offset 5, -12
 247              		.cfi_offset 6, -8
 248              		.cfi_offset 14, -4
 249              		.loc 1 194 0
 250 0002 0646     		mov	r6, r0
 251              		.loc 1 201 0
 252 0004 50F8080C 		ldr	r0, [r0, #-8]
 253              	.LVL27:
 254              		.loc 1 200 0
 255 0008 A6F10804 		sub	r4, r6, #8
 256              	.LVL28:
 257              		.loc 1 202 0
 258 000c 00F10805 		add	r5, r0, #8
 259              	.LVL29:
 260              		.loc 1 203 0
 261 0010 1030     		adds	r0, r0, #16
 262              	.LVL30:
 263 0012 FFF7FEFF 		bl	chMtxLock
 264              	.LVL31:
 265              		.loc 1 202 0
 266 0016 2B46     		mov	r3, r5
 267              	.LVL32:
 268              	.L26:
 269              		.loc 1 210 0
 270 0018 AB42     		cmp	r3, r5
 271 001a 04D0     		beq	.L20
 272              	.L31:
 273              		.loc 1 210 0 is_stmt 0 discriminator 2
 274 001c A342     		cmp	r3, r4
 275 001e 02D3     		bcc	.L20
 276 0020 1B68     		ldr	r3, [r3]
 277              	.LVL33:
 278              		.loc 1 210 0
 279 0022 AB42     		cmp	r3, r5
 280 0024 FAD1     		bne	.L31
 281              	.L20:
ARM GAS  /tmp/cc4Eos1X.s 			page 6


 282              		.loc 1 211 0 is_stmt 1 discriminator 1
 283 0026 1A68     		ldr	r2, [r3]
 284              		.loc 1 210 0 discriminator 1
 285 0028 1AB1     		cbz	r2, .L22
 286              		.loc 1 211 0
 287 002a 9442     		cmp	r4, r2
 288 002c 01D3     		bcc	.L22
 289 002e 1346     		mov	r3, r2
 290              	.LVL34:
 291              		.loc 1 229 0
 292 0030 F2E7     		b	.L26
 293              	.LVL35:
 294              	.L22:
 295              		.loc 1 216 0
 296 0032 56F8041C 		ldr	r1, [r6, #-4]
 297              		.loc 1 213 0
 298 0036 46F8082C 		str	r2, [r6, #-8]
 299              		.loc 1 214 0
 300 003a 1C60     		str	r4, [r3]
 301              		.loc 1 216 0
 302 003c 01F10802 		add	r2, r1, #8
 303 0040 56F8085C 		ldr	r5, [r6, #-8]
 304              	.LVL36:
 305 0044 A018     		adds	r0, r4, r2
 306 0046 A842     		cmp	r0, r5
 307 0048 09D0     		beq	.L32
 308              		.loc 1 221 0
 309 004a 5A68     		ldr	r2, [r3, #4]
 310 004c 02F10801 		add	r1, r2, #8
 311 0050 1944     		add	r1, r1, r3
 312 0052 8C42     		cmp	r4, r1
 313 0054 11D0     		beq	.L33
 314              	.L25:
 315              		.loc 1 233 0
 316 0056 BDE87040 		pop	{r4, r5, r6, lr}
 317              	.LVL37:
 318              		.loc 1 231 0
 319 005a FFF7FEBF 		b	chMtxUnlock
 320              	.LVL38:
 321              	.L32:
 322              		.loc 1 218 0
 323 005e 4068     		ldr	r0, [r0, #4]
 324              		.loc 1 219 0
 325 0060 A258     		ldr	r2, [r4, r2]
 326              		.loc 1 218 0
 327 0062 0144     		add	r1, r1, r0
 328 0064 0831     		adds	r1, r1, #8
 329 0066 46F8041C 		str	r1, [r6, #-4]
 330              		.loc 1 219 0
 331 006a 46F8082C 		str	r2, [r6, #-8]
 332              		.loc 1 221 0
 333 006e 5A68     		ldr	r2, [r3, #4]
 334 0070 02F10801 		add	r1, r2, #8
 335 0074 1944     		add	r1, r1, r3
 336 0076 8C42     		cmp	r4, r1
 337 0078 EDD1     		bne	.L25
 338              	.L33:
ARM GAS  /tmp/cc4Eos1X.s 			page 7


 339              		.loc 1 223 0
 340 007a 56F8040C 		ldr	r0, [r6, #-4]
 341              		.loc 1 224 0
 342 007e 56F8081C 		ldr	r1, [r6, #-8]
 343              		.loc 1 223 0
 344 0082 0244     		add	r2, r2, r0
 345 0084 0832     		adds	r2, r2, #8
 346              		.loc 1 224 0
 347 0086 83E80600 		stmia	r3, {r1, r2}
 348              		.loc 1 233 0
 349 008a BDE87040 		pop	{r4, r5, r6, lr}
 350              	.LVL39:
 351              		.loc 1 231 0
 352 008e FFF7FEBF 		b	chMtxUnlock
 353              	.LVL40:
 354              		.cfi_endproc
 355              	.LFE10:
 356              		.size	chHeapFree, .-chHeapFree
 357 0092 00BFAFF3 		.section	.text.chHeapStatus,"ax",%progbits
 357      0080AFF3 
 357      0080AFF3 
 357      0080
 358              		.align	2
 359              		.p2align 4,,15
 360              		.global	chHeapStatus
 361              		.thumb
 362              		.thumb_func
 363              		.type	chHeapStatus, %function
 364              	chHeapStatus:
 365              	.LFB11:
 366              		.loc 1 250 0
 367              		.cfi_startproc
 368              		@ args = 0, pretend = 0, frame = 0
 369              		@ frame_needed = 0, uses_anonymous_args = 0
 370              	.LVL41:
 371 0000 38B5     		push	{r3, r4, r5, lr}
 372              		.cfi_def_cfa_offset 16
 373              		.cfi_offset 3, -16
 374              		.cfi_offset 4, -12
 375              		.cfi_offset 5, -8
 376              		.cfi_offset 14, -4
 377              		.loc 1 255 0
 378 0002 40F20003 		movw	r3, #:lower16:.LANCHOR0
 379 0006 C0F20003 		movt	r3, #:upper16:.LANCHOR0
 380 000a 0028     		cmp	r0, #0
 381 000c 14BF     		ite	ne
 382 000e 0446     		movne	r4, r0
 383 0010 1C46     		moveq	r4, r3
 384              	.LVL42:
 385              		.loc 1 257 0
 386 0012 04F11000 		add	r0, r4, #16
 387              		.loc 1 250 0
 388 0016 0D46     		mov	r5, r1
 389              		.loc 1 257 0
 390 0018 FFF7FEFF 		bl	chMtxLock
 391              	.LVL43:
 392              		.loc 1 260 0
ARM GAS  /tmp/cc4Eos1X.s 			page 8


 393 001c A368     		ldr	r3, [r4, #8]
 394 001e 6BB1     		cbz	r3, .L40
 395              		.loc 1 259 0
 396 0020 0022     		movs	r2, #0
 397              		.loc 1 260 0
 398 0022 1446     		mov	r4, r2
 399              	.LVL44:
 400              	.L37:
 401              		.loc 1 261 0 discriminator 2
 402 0024 5868     		ldr	r0, [r3, #4]
 403              		.loc 1 260 0 discriminator 2
 404 0026 1B68     		ldr	r3, [r3]
 405 0028 0134     		adds	r4, r4, #1
 406              	.LVL45:
 407              		.loc 1 261 0 discriminator 2
 408 002a 0244     		add	r2, r2, r0
 409              	.LVL46:
 410              		.loc 1 260 0 discriminator 2
 411 002c 002B     		cmp	r3, #0
 412 002e F9D1     		bne	.L37
 413              	.LVL47:
 414              	.L36:
 415              		.loc 1 262 0
 416 0030 05B1     		cbz	r5, .L38
 417              		.loc 1 263 0
 418 0032 2A60     		str	r2, [r5]
 419              	.L38:
 420              		.loc 1 265 0
 421 0034 FFF7FEFF 		bl	chMtxUnlock
 422              	.LVL48:
 423              		.loc 1 267 0
 424 0038 2046     		mov	r0, r4
 425 003a 38BD     		pop	{r3, r4, r5, pc}
 426              	.LVL49:
 427              	.L40:
 428              		.loc 1 259 0
 429 003c 1A46     		mov	r2, r3
 430              		.loc 1 260 0
 431 003e 1C46     		mov	r4, r3
 432              	.LVL50:
 433 0040 F6E7     		b	.L36
 434              		.cfi_endproc
 435              	.LFE11:
 436              		.size	chHeapStatus, .-chHeapStatus
 437 0042 00BFAFF3 		.section	.bss.default_heap,"aw",%nobits
 437      0080AFF3 
 437      0080AFF3 
 437      0080
 438              		.align	3
 439              		.set	.LANCHOR0,. + 0
 440              		.type	default_heap, %object
 441              		.size	default_heap, 32
 442              	default_heap:
 443 0000 00000000 		.space	32
 443      00000000 
 443      00000000 
 443      00000000 
ARM GAS  /tmp/cc4Eos1X.s 			page 9


 443      00000000 
 444              		.text
 445              	.Letext0:
 446              		.file 2 "/usr/lib/gcc/arm-none-eabi/4.8.2/include/stddef.h"
 447              		.file 3 "/usr/include/newlib/machine/_default_types.h"
 448              		.file 4 "/usr/include/newlib/stdint.h"
 449              		.file 5 "../../os/ports/GCC/ARMCMx/chtypes.h"
 450              		.file 6 "../../os/kernel/include/chlists.h"
 451              		.file 7 "../../os/kernel/include/chthreads.h"
 452              		.file 8 "../../os/ports/GCC/ARMCMx/chcore_v7m.h"
 453              		.file 9 "../../os/kernel/include/chmtx.h"
 454              		.file 10 "../../os/kernel/include/chmemcore.h"
 455              		.file 11 "../../os/kernel/include/chheap.h"
 456              		.section	.debug_info,"",%progbits
 457              	.Ldebug_info0:
 458 0000 D7060000 		.4byte	0x6d7
 459 0004 0400     		.2byte	0x4
 460 0006 00000000 		.4byte	.Ldebug_abbrev0
 461 000a 04       		.byte	0x4
 462 000b 01       		.uleb128 0x1
 463 000c 0A010000 		.4byte	.LASF80
 464 0010 01       		.byte	0x1
 465 0011 C8000000 		.4byte	.LASF81
 466 0015 85030000 		.4byte	.LASF82
 467 0019 00000000 		.4byte	.Ldebug_ranges0+0
 468 001d 00000000 		.4byte	0
 469 0021 00000000 		.4byte	.Ldebug_line0
 470 0025 02       		.uleb128 0x2
 471 0026 04       		.byte	0x4
 472 0027 05       		.byte	0x5
 473 0028 696E7400 		.ascii	"int\000"
 474 002c 03       		.uleb128 0x3
 475 002d 06000000 		.4byte	.LASF2
 476 0031 02       		.byte	0x2
 477 0032 D4       		.byte	0xd4
 478 0033 37000000 		.4byte	0x37
 479 0037 04       		.uleb128 0x4
 480 0038 04       		.byte	0x4
 481 0039 07       		.byte	0x7
 482 003a B8010000 		.4byte	.LASF0
 483 003e 04       		.uleb128 0x4
 484 003f 01       		.byte	0x1
 485 0040 06       		.byte	0x6
 486 0041 92000000 		.4byte	.LASF1
 487 0045 03       		.uleb128 0x3
 488 0046 1D000000 		.4byte	.LASF3
 489 004a 03       		.byte	0x3
 490 004b 1C       		.byte	0x1c
 491 004c 50000000 		.4byte	0x50
 492 0050 04       		.uleb128 0x4
 493 0051 01       		.byte	0x1
 494 0052 08       		.byte	0x8
 495 0053 8B020000 		.4byte	.LASF4
 496 0057 04       		.uleb128 0x4
 497 0058 02       		.byte	0x2
 498 0059 05       		.byte	0x5
 499 005a AE020000 		.4byte	.LASF5
ARM GAS  /tmp/cc4Eos1X.s 			page 10


 500 005e 04       		.uleb128 0x4
 501 005f 02       		.byte	0x2
 502 0060 07       		.byte	0x7
 503 0061 E4010000 		.4byte	.LASF6
 504 0065 03       		.uleb128 0x3
 505 0066 49030000 		.4byte	.LASF7
 506 006a 03       		.byte	0x3
 507 006b 37       		.byte	0x37
 508 006c 70000000 		.4byte	0x70
 509 0070 04       		.uleb128 0x4
 510 0071 04       		.byte	0x4
 511 0072 05       		.byte	0x5
 512 0073 BF000000 		.4byte	.LASF8
 513 0077 03       		.uleb128 0x3
 514 0078 F6000000 		.4byte	.LASF9
 515 007c 03       		.byte	0x3
 516 007d 38       		.byte	0x38
 517 007e 82000000 		.4byte	0x82
 518 0082 04       		.uleb128 0x4
 519 0083 04       		.byte	0x4
 520 0084 07       		.byte	0x7
 521 0085 C5010000 		.4byte	.LASF10
 522 0089 04       		.uleb128 0x4
 523 008a 08       		.byte	0x8
 524 008b 05       		.byte	0x5
 525 008c 84000000 		.4byte	.LASF11
 526 0090 03       		.uleb128 0x3
 527 0091 61020000 		.4byte	.LASF12
 528 0095 03       		.byte	0x3
 529 0096 4E       		.byte	0x4e
 530 0097 9B000000 		.4byte	0x9b
 531 009b 04       		.uleb128 0x4
 532 009c 08       		.byte	0x8
 533 009d 07       		.byte	0x7
 534 009e 34000000 		.4byte	.LASF13
 535 00a2 03       		.uleb128 0x3
 536 00a3 7D030000 		.4byte	.LASF14
 537 00a7 04       		.byte	0x4
 538 00a8 2A       		.byte	0x2a
 539 00a9 45000000 		.4byte	0x45
 540 00ad 03       		.uleb128 0x3
 541 00ae 83020000 		.4byte	.LASF15
 542 00b2 04       		.byte	0x4
 543 00b3 41       		.byte	0x41
 544 00b4 65000000 		.4byte	0x65
 545 00b8 03       		.uleb128 0x3
 546 00b9 00030000 		.4byte	.LASF16
 547 00bd 04       		.byte	0x4
 548 00be 42       		.byte	0x42
 549 00bf 77000000 		.4byte	0x77
 550 00c3 03       		.uleb128 0x3
 551 00c4 14000000 		.4byte	.LASF17
 552 00c8 04       		.byte	0x4
 553 00c9 4E       		.byte	0x4e
 554 00ca 90000000 		.4byte	0x90
 555 00ce 03       		.uleb128 0x3
 556 00cf FD010000 		.4byte	.LASF18
ARM GAS  /tmp/cc4Eos1X.s 			page 11


 557 00d3 05       		.byte	0x5
 558 00d4 2F       		.byte	0x2f
 559 00d5 A2000000 		.4byte	0xa2
 560 00d9 03       		.uleb128 0x3
 561 00da E5000000 		.4byte	.LASF19
 562 00de 05       		.byte	0x5
 563 00df 30       		.byte	0x30
 564 00e0 A2000000 		.4byte	0xa2
 565 00e4 03       		.uleb128 0x3
 566 00e5 6C020000 		.4byte	.LASF20
 567 00e9 05       		.byte	0x5
 568 00ea 31       		.byte	0x31
 569 00eb A2000000 		.4byte	0xa2
 570 00ef 03       		.uleb128 0x3
 571 00f0 7B020000 		.4byte	.LASF21
 572 00f4 05       		.byte	0x5
 573 00f5 32       		.byte	0x32
 574 00f6 B8000000 		.4byte	0xb8
 575 00fa 03       		.uleb128 0x3
 576 00fb F7010000 		.4byte	.LASF22
 577 00ff 05       		.byte	0x5
 578 0100 33       		.byte	0x33
 579 0101 AD000000 		.4byte	0xad
 580 0105 03       		.uleb128 0x3
 581 0106 11020000 		.4byte	.LASF23
 582 010a 05       		.byte	0x5
 583 010b 35       		.byte	0x35
 584 010c B8000000 		.4byte	0xb8
 585 0110 03       		.uleb128 0x3
 586 0111 34030000 		.4byte	.LASF24
 587 0115 05       		.byte	0x5
 588 0116 36       		.byte	0x36
 589 0117 B8000000 		.4byte	0xb8
 590 011b 03       		.uleb128 0x3
 591 011c E2020000 		.4byte	.LASF25
 592 0120 06       		.byte	0x6
 593 0121 2A       		.byte	0x2a
 594 0122 26010000 		.4byte	0x126
 595 0126 05       		.uleb128 0x5
 596 0127 E2020000 		.4byte	.LASF25
 597 012b 48       		.byte	0x48
 598 012c 07       		.byte	0x7
 599 012d 5E       		.byte	0x5e
 600 012e 17020000 		.4byte	0x217
 601 0132 06       		.uleb128 0x6
 602 0133 D3020000 		.4byte	.LASF26
 603 0137 07       		.byte	0x7
 604 0138 5F       		.byte	0x5f
 605 0139 38020000 		.4byte	0x238
 606 013d 00       		.byte	0
 607 013e 06       		.uleb128 0x6
 608 013f 74020000 		.4byte	.LASF27
 609 0143 07       		.byte	0x7
 610 0144 61       		.byte	0x61
 611 0145 38020000 		.4byte	0x238
 612 0149 04       		.byte	0x4
 613 014a 06       		.uleb128 0x6
ARM GAS  /tmp/cc4Eos1X.s 			page 12


 614 014b 7D000000 		.4byte	.LASF28
 615 014f 07       		.byte	0x7
 616 0150 63       		.byte	0x63
 617 0151 EF000000 		.4byte	0xef
 618 0155 08       		.byte	0x8
 619 0156 06       		.uleb128 0x6
 620 0157 E5030000 		.4byte	.LASF29
 621 015b 07       		.byte	0x7
 622 015c 64       		.byte	0x64
 623 015d FC020000 		.4byte	0x2fc
 624 0161 0C       		.byte	0xc
 625 0162 06       		.uleb128 0x6
 626 0163 EE000000 		.4byte	.LASF30
 627 0167 07       		.byte	0x7
 628 0168 66       		.byte	0x66
 629 0169 38020000 		.4byte	0x238
 630 016d 10       		.byte	0x10
 631 016e 06       		.uleb128 0x6
 632 016f 41020000 		.4byte	.LASF31
 633 0173 07       		.byte	0x7
 634 0174 67       		.byte	0x67
 635 0175 38020000 		.4byte	0x238
 636 0179 14       		.byte	0x14
 637 017a 06       		.uleb128 0x6
 638 017b CB030000 		.4byte	.LASF32
 639 017f 07       		.byte	0x7
 640 0180 6E       		.byte	0x6e
 641 0181 67040000 		.4byte	0x467
 642 0185 18       		.byte	0x18
 643 0186 06       		.uleb128 0x6
 644 0187 B8020000 		.4byte	.LASF33
 645 018b 07       		.byte	0x7
 646 018c 79       		.byte	0x79
 647 018d D9000000 		.4byte	0xd9
 648 0191 1C       		.byte	0x1c
 649 0192 06       		.uleb128 0x6
 650 0193 DA020000 		.4byte	.LASF34
 651 0197 07       		.byte	0x7
 652 0198 7D       		.byte	0x7d
 653 0199 CE000000 		.4byte	0xce
 654 019d 1D       		.byte	0x1d
 655 019e 06       		.uleb128 0x6
 656 019f 76030000 		.4byte	.LASF35
 657 01a3 07       		.byte	0x7
 658 01a4 82       		.byte	0x82
 659 01a5 E4000000 		.4byte	0xe4
 660 01a9 1E       		.byte	0x1e
 661 01aa 06       		.uleb128 0x6
 662 01ab 53030000 		.4byte	.LASF36
 663 01af 07       		.byte	0x7
 664 01b0 89       		.byte	0x89
 665 01b1 24030000 		.4byte	0x324
 666 01b5 20       		.byte	0x20
 667 01b6 07       		.uleb128 0x7
 668 01b7 705F7500 		.ascii	"p_u\000"
 669 01bb 07       		.byte	0x7
 670 01bc AE       		.byte	0xae
ARM GAS  /tmp/cc4Eos1X.s 			page 13


 671 01bd 32040000 		.4byte	0x432
 672 01c1 24       		.byte	0x24
 673 01c2 06       		.uleb128 0x6
 674 01c3 EB030000 		.4byte	.LASF37
 675 01c7 07       		.byte	0x7
 676 01c8 B3       		.byte	0xb3
 677 01c9 5E020000 		.4byte	0x25e
 678 01cd 28       		.byte	0x28
 679 01ce 06       		.uleb128 0x6
 680 01cf 61030000 		.4byte	.LASF38
 681 01d3 07       		.byte	0x7
 682 01d4 B9       		.byte	0xb9
 683 01d5 3E020000 		.4byte	0x23e
 684 01d9 2C       		.byte	0x2c
 685 01da 06       		.uleb128 0x6
 686 01db 00000000 		.4byte	.LASF39
 687 01df 07       		.byte	0x7
 688 01e0 BD       		.byte	0xbd
 689 01e1 FA000000 		.4byte	0xfa
 690 01e5 34       		.byte	0x34
 691 01e6 06       		.uleb128 0x6
 692 01e7 F5020000 		.4byte	.LASF40
 693 01eb 07       		.byte	0x7
 694 01ec C3       		.byte	0xc3
 695 01ed 05010000 		.4byte	0x105
 696 01f1 38       		.byte	0x38
 697 01f2 06       		.uleb128 0x6
 698 01f3 A4020000 		.4byte	.LASF41
 699 01f7 07       		.byte	0x7
 700 01f8 CA       		.byte	0xca
 701 01f9 79040000 		.4byte	0x479
 702 01fd 3C       		.byte	0x3c
 703 01fe 06       		.uleb128 0x6
 704 01ff 3E030000 		.4byte	.LASF42
 705 0203 07       		.byte	0x7
 706 0204 CE       		.byte	0xce
 707 0205 EF000000 		.4byte	0xef
 708 0209 40       		.byte	0x40
 709 020a 06       		.uleb128 0x6
 710 020b A4000000 		.4byte	.LASF43
 711 020f 07       		.byte	0x7
 712 0210 D4       		.byte	0xd4
 713 0211 74020000 		.4byte	0x274
 714 0215 44       		.byte	0x44
 715 0216 00       		.byte	0
 716 0217 08       		.uleb128 0x8
 717 0218 08       		.byte	0x8
 718 0219 06       		.byte	0x6
 719 021a 61       		.byte	0x61
 720 021b 38020000 		.4byte	0x238
 721 021f 06       		.uleb128 0x6
 722 0220 D3020000 		.4byte	.LASF26
 723 0224 06       		.byte	0x6
 724 0225 62       		.byte	0x62
 725 0226 38020000 		.4byte	0x238
 726 022a 00       		.byte	0
 727 022b 06       		.uleb128 0x6
ARM GAS  /tmp/cc4Eos1X.s 			page 14


 728 022c 74020000 		.4byte	.LASF27
 729 0230 06       		.byte	0x6
 730 0231 64       		.byte	0x64
 731 0232 38020000 		.4byte	0x238
 732 0236 04       		.byte	0x4
 733 0237 00       		.byte	0
 734 0238 09       		.uleb128 0x9
 735 0239 04       		.byte	0x4
 736 023a 1B010000 		.4byte	0x11b
 737 023e 03       		.uleb128 0x3
 738 023f 49020000 		.4byte	.LASF44
 739 0243 06       		.byte	0x6
 740 0244 66       		.byte	0x66
 741 0245 17020000 		.4byte	0x217
 742 0249 08       		.uleb128 0x8
 743 024a 04       		.byte	0x4
 744 024b 06       		.byte	0x6
 745 024c 6B       		.byte	0x6b
 746 024d 5E020000 		.4byte	0x25e
 747 0251 06       		.uleb128 0x6
 748 0252 D3020000 		.4byte	.LASF26
 749 0256 06       		.byte	0x6
 750 0257 6D       		.byte	0x6d
 751 0258 38020000 		.4byte	0x238
 752 025c 00       		.byte	0
 753 025d 00       		.byte	0
 754 025e 03       		.uleb128 0x3
 755 025f 05020000 		.4byte	.LASF45
 756 0263 06       		.byte	0x6
 757 0264 70       		.byte	0x70
 758 0265 49020000 		.4byte	0x249
 759 0269 03       		.uleb128 0x3
 760 026a 01010000 		.4byte	.LASF46
 761 026e 08       		.byte	0x8
 762 026f D7       		.byte	0xd7
 763 0270 74020000 		.4byte	0x274
 764 0274 0A       		.uleb128 0xa
 765 0275 04       		.byte	0x4
 766 0276 03       		.uleb128 0x3
 767 0277 23020000 		.4byte	.LASF47
 768 027b 08       		.byte	0x8
 769 027c DD       		.byte	0xdd
 770 027d C3000000 		.4byte	0xc3
 771 0281 05       		.uleb128 0x5
 772 0282 5A030000 		.4byte	.LASF48
 773 0286 24       		.byte	0x24
 774 0287 08       		.byte	0x8
 775 0288 FE       		.byte	0xfe
 776 0289 FC020000 		.4byte	0x2fc
 777 028d 0B       		.uleb128 0xb
 778 028e 723400   		.ascii	"r4\000"
 779 0291 08       		.byte	0x8
 780 0292 1101     		.2byte	0x111
 781 0294 69020000 		.4byte	0x269
 782 0298 00       		.byte	0
 783 0299 0B       		.uleb128 0xb
 784 029a 723500   		.ascii	"r5\000"
ARM GAS  /tmp/cc4Eos1X.s 			page 15


 785 029d 08       		.byte	0x8
 786 029e 1201     		.2byte	0x112
 787 02a0 69020000 		.4byte	0x269
 788 02a4 04       		.byte	0x4
 789 02a5 0B       		.uleb128 0xb
 790 02a6 723600   		.ascii	"r6\000"
 791 02a9 08       		.byte	0x8
 792 02aa 1301     		.2byte	0x113
 793 02ac 69020000 		.4byte	0x269
 794 02b0 08       		.byte	0x8
 795 02b1 0B       		.uleb128 0xb
 796 02b2 723700   		.ascii	"r7\000"
 797 02b5 08       		.byte	0x8
 798 02b6 1401     		.2byte	0x114
 799 02b8 69020000 		.4byte	0x269
 800 02bc 0C       		.byte	0xc
 801 02bd 0B       		.uleb128 0xb
 802 02be 723800   		.ascii	"r8\000"
 803 02c1 08       		.byte	0x8
 804 02c2 1501     		.2byte	0x115
 805 02c4 69020000 		.4byte	0x269
 806 02c8 10       		.byte	0x10
 807 02c9 0B       		.uleb128 0xb
 808 02ca 723900   		.ascii	"r9\000"
 809 02cd 08       		.byte	0x8
 810 02ce 1601     		.2byte	0x116
 811 02d0 69020000 		.4byte	0x269
 812 02d4 14       		.byte	0x14
 813 02d5 0B       		.uleb128 0xb
 814 02d6 72313000 		.ascii	"r10\000"
 815 02da 08       		.byte	0x8
 816 02db 1701     		.2byte	0x117
 817 02dd 69020000 		.4byte	0x269
 818 02e1 18       		.byte	0x18
 819 02e2 0B       		.uleb128 0xb
 820 02e3 72313100 		.ascii	"r11\000"
 821 02e7 08       		.byte	0x8
 822 02e8 1801     		.2byte	0x118
 823 02ea 69020000 		.4byte	0x269
 824 02ee 1C       		.byte	0x1c
 825 02ef 0B       		.uleb128 0xb
 826 02f0 6C7200   		.ascii	"lr\000"
 827 02f3 08       		.byte	0x8
 828 02f4 1901     		.2byte	0x119
 829 02f6 69020000 		.4byte	0x269
 830 02fa 20       		.byte	0x20
 831 02fb 00       		.byte	0
 832 02fc 0C       		.uleb128 0xc
 833 02fd D7010000 		.4byte	.LASF49
 834 0301 04       		.byte	0x4
 835 0302 08       		.byte	0x8
 836 0303 2301     		.2byte	0x123
 837 0305 17030000 		.4byte	0x317
 838 0309 0B       		.uleb128 0xb
 839 030a 72313300 		.ascii	"r13\000"
 840 030e 08       		.byte	0x8
 841 030f 2401     		.2byte	0x124
ARM GAS  /tmp/cc4Eos1X.s 			page 16


 842 0311 17030000 		.4byte	0x317
 843 0315 00       		.byte	0
 844 0316 00       		.byte	0
 845 0317 09       		.uleb128 0x9
 846 0318 04       		.byte	0x4
 847 0319 81020000 		.4byte	0x281
 848 031d 04       		.uleb128 0x4
 849 031e 04       		.byte	0x4
 850 031f 07       		.byte	0x7
 851 0320 2E020000 		.4byte	.LASF50
 852 0324 0D       		.uleb128 0xd
 853 0325 10010000 		.4byte	0x110
 854 0329 05       		.uleb128 0x5
 855 032a 1D020000 		.4byte	.LASF51
 856 032e 10       		.byte	0x10
 857 032f 09       		.byte	0x9
 858 0330 2C       		.byte	0x2c
 859 0331 5A030000 		.4byte	0x35a
 860 0335 06       		.uleb128 0x6
 861 0336 AC000000 		.4byte	.LASF52
 862 033a 09       		.byte	0x9
 863 033b 2D       		.byte	0x2d
 864 033c 3E020000 		.4byte	0x23e
 865 0340 00       		.byte	0
 866 0341 06       		.uleb128 0x6
 867 0342 DD030000 		.4byte	.LASF53
 868 0346 09       		.byte	0x9
 869 0347 2F       		.byte	0x2f
 870 0348 38020000 		.4byte	0x238
 871 034c 08       		.byte	0x8
 872 034d 06       		.uleb128 0x6
 873 034e 2D030000 		.4byte	.LASF54
 874 0352 09       		.byte	0x9
 875 0353 31       		.byte	0x31
 876 0354 5A030000 		.4byte	0x35a
 877 0358 0C       		.byte	0xc
 878 0359 00       		.byte	0
 879 035a 09       		.uleb128 0x9
 880 035b 04       		.byte	0x4
 881 035c 29030000 		.4byte	0x329
 882 0360 03       		.uleb128 0x3
 883 0361 1D020000 		.4byte	.LASF51
 884 0365 09       		.byte	0x9
 885 0366 33       		.byte	0x33
 886 0367 29030000 		.4byte	0x329
 887 036b 03       		.uleb128 0x3
 888 036c 27000000 		.4byte	.LASF55
 889 0370 0A       		.byte	0xa
 890 0371 2C       		.byte	0x2c
 891 0372 76030000 		.4byte	0x376
 892 0376 09       		.uleb128 0x9
 893 0377 04       		.byte	0x4
 894 0378 7C030000 		.4byte	0x37c
 895 037c 0E       		.uleb128 0xe
 896 037d 74020000 		.4byte	0x274
 897 0381 8B030000 		.4byte	0x38b
 898 0385 0F       		.uleb128 0xf
ARM GAS  /tmp/cc4Eos1X.s 			page 17


 899 0386 2C000000 		.4byte	0x2c
 900 038a 00       		.byte	0
 901 038b 03       		.uleb128 0x3
 902 038c 56020000 		.4byte	.LASF56
 903 0390 0B       		.byte	0xb
 904 0391 34       		.byte	0x34
 905 0392 96030000 		.4byte	0x396
 906 0396 05       		.uleb128 0x5
 907 0397 F5030000 		.4byte	.LASF57
 908 039b 20       		.byte	0x20
 909 039c 0B       		.byte	0xb
 910 039d 47       		.byte	0x47
 911 039e C7030000 		.4byte	0x3c7
 912 03a2 06       		.uleb128 0x6
 913 03a3 99020000 		.4byte	.LASF58
 914 03a7 0B       		.byte	0xb
 915 03a8 48       		.byte	0x48
 916 03a9 6B030000 		.4byte	0x36b
 917 03ad 00       		.byte	0
 918 03ae 06       		.uleb128 0x6
 919 03af 54000000 		.4byte	.LASF59
 920 03b3 0B       		.byte	0xb
 921 03b4 4A       		.byte	0x4a
 922 03b5 E6030000 		.4byte	0x3e6
 923 03b9 08       		.byte	0x8
 924 03ba 06       		.uleb128 0x6
 925 03bb 9E000000 		.4byte	.LASF60
 926 03bf 0B       		.byte	0xb
 927 03c0 4C       		.byte	0x4c
 928 03c1 60030000 		.4byte	0x360
 929 03c5 10       		.byte	0x10
 930 03c6 00       		.byte	0
 931 03c7 10       		.uleb128 0x10
 932 03c8 04       		.byte	0x4
 933 03c9 0B       		.byte	0xb
 934 03ca 3C       		.byte	0x3c
 935 03cb E6030000 		.4byte	0x3e6
 936 03cf 11       		.uleb128 0x11
 937 03d0 78000000 		.4byte	.LASF61
 938 03d4 0B       		.byte	0xb
 939 03d5 3D       		.byte	0x3d
 940 03d6 07040000 		.4byte	0x407
 941 03da 11       		.uleb128 0x11
 942 03db 09030000 		.4byte	.LASF62
 943 03df 0B       		.byte	0xb
 944 03e0 3E       		.byte	0x3e
 945 03e1 0D040000 		.4byte	0x40d
 946 03e5 00       		.byte	0
 947 03e6 12       		.uleb128 0x12
 948 03e7 C0020000 		.4byte	.LASF83
 949 03eb 08       		.byte	0x8
 950 03ec 0B       		.byte	0xb
 951 03ed 39       		.byte	0x39
 952 03ee 07040000 		.4byte	0x407
 953 03f2 11       		.uleb128 0x11
 954 03f3 B2010000 		.4byte	.LASF63
 955 03f7 0B       		.byte	0xb
ARM GAS  /tmp/cc4Eos1X.s 			page 18


 956 03f8 3A       		.byte	0x3a
 957 03f9 76020000 		.4byte	0x276
 958 03fd 13       		.uleb128 0x13
 959 03fe 6800     		.ascii	"h\000"
 960 0400 0B       		.byte	0xb
 961 0401 41       		.byte	0x41
 962 0402 13040000 		.4byte	0x413
 963 0406 00       		.byte	0
 964 0407 09       		.uleb128 0x9
 965 0408 04       		.byte	0x4
 966 0409 E6030000 		.4byte	0x3e6
 967 040d 09       		.uleb128 0x9
 968 040e 04       		.byte	0x4
 969 040f 8B030000 		.4byte	0x38b
 970 0413 08       		.uleb128 0x8
 971 0414 08       		.byte	0x8
 972 0415 0B       		.byte	0xb
 973 0416 3B       		.byte	0x3b
 974 0417 32040000 		.4byte	0x432
 975 041b 07       		.uleb128 0x7
 976 041c 7500     		.ascii	"u\000"
 977 041e 0B       		.byte	0xb
 978 041f 3F       		.byte	0x3f
 979 0420 C7030000 		.4byte	0x3c7
 980 0424 00       		.byte	0
 981 0425 06       		.uleb128 0x6
 982 0426 DF010000 		.4byte	.LASF64
 983 042a 0B       		.byte	0xb
 984 042b 40       		.byte	0x40
 985 042c 2C000000 		.4byte	0x2c
 986 0430 04       		.byte	0x4
 987 0431 00       		.byte	0
 988 0432 10       		.uleb128 0x10
 989 0433 04       		.byte	0x4
 990 0434 07       		.byte	0x7
 991 0435 90       		.byte	0x90
 992 0436 67040000 		.4byte	0x467
 993 043a 11       		.uleb128 0x11
 994 043b 0D000000 		.4byte	.LASF65
 995 043f 07       		.byte	0x7
 996 0440 97       		.byte	0x97
 997 0441 FA000000 		.4byte	0xfa
 998 0445 11       		.uleb128 0x11
 999 0446 4B000000 		.4byte	.LASF66
 1000 044a 07       		.byte	0x7
 1001 044b 9E       		.byte	0x9e
 1002 044c FA000000 		.4byte	0xfa
 1003 0450 11       		.uleb128 0x11
 1004 0451 BE030000 		.4byte	.LASF67
 1005 0455 07       		.byte	0x7
 1006 0456 A5       		.byte	0xa5
 1007 0457 74020000 		.4byte	0x274
 1008 045b 11       		.uleb128 0x11
 1009 045c CC020000 		.4byte	.LASF68
 1010 0460 07       		.byte	0x7
 1011 0461 AC       		.byte	0xac
 1012 0462 05010000 		.4byte	0x105
ARM GAS  /tmp/cc4Eos1X.s 			page 19


 1013 0466 00       		.byte	0
 1014 0467 09       		.uleb128 0x9
 1015 0468 04       		.byte	0x4
 1016 0469 6D040000 		.4byte	0x46d
 1017 046d 14       		.uleb128 0x14
 1018 046e 72040000 		.4byte	0x472
 1019 0472 04       		.uleb128 0x4
 1020 0473 01       		.byte	0x1
 1021 0474 08       		.byte	0x8
 1022 0475 1B030000 		.4byte	.LASF69
 1023 0479 09       		.uleb128 0x9
 1024 047a 04       		.byte	0x4
 1025 047b 60030000 		.4byte	0x360
 1026 047f 15       		.uleb128 0x15
 1027 0480 D2030000 		.4byte	.LASF70
 1028 0484 01       		.byte	0x1
 1029 0485 4B       		.byte	0x4b
 1030 0486 00000000 		.4byte	.LFB7
 1031 048a 20000000 		.4byte	.LFE7-.LFB7
 1032 048e 01       		.uleb128 0x1
 1033 048f 9C       		.byte	0x9c
 1034 0490 A8040000 		.4byte	0x4a8
 1035 0494 16       		.uleb128 0x16
 1036 0495 20000000 		.4byte	.LVL0
 1037 0499 AD060000 		.4byte	0x6ad
 1038 049d 17       		.uleb128 0x17
 1039 049e 01       		.uleb128 0x1
 1040 049f 50       		.byte	0x50
 1041 04a0 05       		.uleb128 0x5
 1042 04a1 03       		.byte	0x3
 1043 04a2 10000000 		.4byte	.LANCHOR0+16
 1044 04a6 00       		.byte	0
 1045 04a7 00       		.byte	0
 1046 04a8 15       		.uleb128 0x15
 1047 04a9 6D000000 		.4byte	.LASF71
 1048 04ad 01       		.byte	0x1
 1049 04ae 63       		.byte	0x63
 1050 04af 00000000 		.4byte	.LFB8
 1051 04b3 14000000 		.4byte	.LFE8-.LFB8
 1052 04b7 01       		.uleb128 0x1
 1053 04b8 9C       		.byte	0x9c
 1054 04b9 0C050000 		.4byte	0x50c
 1055 04bd 18       		.uleb128 0x18
 1056 04be 5B000000 		.4byte	.LASF72
 1057 04c2 01       		.byte	0x1
 1058 04c3 63       		.byte	0x63
 1059 04c4 0D040000 		.4byte	0x40d
 1060 04c8 00000000 		.4byte	.LLST0
 1061 04cc 19       		.uleb128 0x19
 1062 04cd 62756600 		.ascii	"buf\000"
 1063 04d1 01       		.byte	0x1
 1064 04d2 63       		.byte	0x63
 1065 04d3 74020000 		.4byte	0x274
 1066 04d7 2E000000 		.4byte	.LLST1
 1067 04db 18       		.uleb128 0x18
 1068 04dc DF010000 		.4byte	.LASF64
 1069 04e0 01       		.byte	0x1
ARM GAS  /tmp/cc4Eos1X.s 			page 20


 1070 04e1 63       		.byte	0x63
 1071 04e2 2C000000 		.4byte	0x2c
 1072 04e6 4F000000 		.4byte	.LLST2
 1073 04ea 1A       		.uleb128 0x1a
 1074 04eb 687000   		.ascii	"hp\000"
 1075 04ee 01       		.byte	0x1
 1076 04ef 64       		.byte	0x64
 1077 04f0 07040000 		.4byte	0x407
 1078 04f4 7D000000 		.4byte	.LLST3
 1079 04f8 16       		.uleb128 0x16
 1080 04f9 14000000 		.4byte	.LVL5
 1081 04fd AD060000 		.4byte	0x6ad
 1082 0501 17       		.uleb128 0x17
 1083 0502 01       		.uleb128 0x1
 1084 0503 50       		.byte	0x50
 1085 0504 05       		.uleb128 0x5
 1086 0505 F3       		.byte	0xf3
 1087 0506 01       		.uleb128 0x1
 1088 0507 50       		.byte	0x50
 1089 0508 23       		.byte	0x23
 1090 0509 10       		.uleb128 0x10
 1091 050a 00       		.byte	0
 1092 050b 00       		.byte	0
 1093 050c 1B       		.uleb128 0x1b
 1094 050d E9020000 		.4byte	.LASF74
 1095 0511 01       		.byte	0x1
 1096 0512 84       		.byte	0x84
 1097 0513 74020000 		.4byte	0x274
 1098 0517 00000000 		.4byte	.LFB9
 1099 051b 86000000 		.4byte	.LFE9-.LFB9
 1100 051f 01       		.uleb128 0x1
 1101 0520 9C       		.byte	0x9c
 1102 0521 A4050000 		.4byte	0x5a4
 1103 0525 18       		.uleb128 0x18
 1104 0526 5B000000 		.4byte	.LASF72
 1105 052a 01       		.byte	0x1
 1106 052b 84       		.byte	0x84
 1107 052c 0D040000 		.4byte	0x40d
 1108 0530 9E000000 		.4byte	.LLST4
 1109 0534 18       		.uleb128 0x18
 1110 0535 DF010000 		.4byte	.LASF64
 1111 0539 01       		.byte	0x1
 1112 053a 84       		.byte	0x84
 1113 053b 2C000000 		.4byte	0x2c
 1114 053f BC000000 		.4byte	.LLST5
 1115 0543 1A       		.uleb128 0x1a
 1116 0544 717000   		.ascii	"qp\000"
 1117 0547 01       		.byte	0x1
 1118 0548 85       		.byte	0x85
 1119 0549 07040000 		.4byte	0x407
 1120 054d E7000000 		.4byte	.LLST6
 1121 0551 1A       		.uleb128 0x1a
 1122 0552 687000   		.ascii	"hp\000"
 1123 0555 01       		.byte	0x1
 1124 0556 85       		.byte	0x85
 1125 0557 07040000 		.4byte	0x407
 1126 055b 10010000 		.4byte	.LLST7
ARM GAS  /tmp/cc4Eos1X.s 			page 21


 1127 055f 1A       		.uleb128 0x1a
 1128 0560 667000   		.ascii	"fp\000"
 1129 0563 01       		.byte	0x1
 1130 0564 85       		.byte	0x85
 1131 0565 07040000 		.4byte	0x407
 1132 0569 69010000 		.4byte	.LLST8
 1133 056d 1C       		.uleb128 0x1c
 1134 056e 22000000 		.4byte	.LVL11
 1135 0572 BE060000 		.4byte	0x6be
 1136 0576 81050000 		.4byte	0x581
 1137 057a 17       		.uleb128 0x17
 1138 057b 01       		.uleb128 0x1
 1139 057c 50       		.byte	0x50
 1140 057d 02       		.uleb128 0x2
 1141 057e 76       		.byte	0x76
 1142 057f 10       		.sleb128 16
 1143 0580 00       		.byte	0
 1144 0581 1D       		.uleb128 0x1d
 1145 0582 36000000 		.4byte	.LVL15
 1146 0586 CF060000 		.4byte	0x6cf
 1147 058a 1E       		.uleb128 0x1e
 1148 058b 40000000 		.4byte	.LVL16
 1149 058f 9A050000 		.4byte	0x59a
 1150 0593 17       		.uleb128 0x17
 1151 0594 01       		.uleb128 0x1
 1152 0595 50       		.byte	0x50
 1153 0596 02       		.uleb128 0x2
 1154 0597 75       		.byte	0x75
 1155 0598 08       		.sleb128 8
 1156 0599 00       		.byte	0
 1157 059a 1D       		.uleb128 0x1d
 1158 059b 64000000 		.4byte	.LVL21
 1159 059f CF060000 		.4byte	0x6cf
 1160 05a3 00       		.byte	0
 1161 05a4 15       		.uleb128 0x15
 1162 05a5 B4000000 		.4byte	.LASF73
 1163 05a9 01       		.byte	0x1
 1164 05aa C2       		.byte	0xc2
 1165 05ab 00000000 		.4byte	.LFB10
 1166 05af 92000000 		.4byte	.LFE10-.LFB10
 1167 05b3 01       		.uleb128 0x1
 1168 05b4 9C       		.byte	0x9c
 1169 05b5 18060000 		.4byte	0x618
 1170 05b9 19       		.uleb128 0x19
 1171 05ba 7000     		.ascii	"p\000"
 1172 05bc 01       		.byte	0x1
 1173 05bd C2       		.byte	0xc2
 1174 05be 74020000 		.4byte	0x274
 1175 05c2 7C010000 		.4byte	.LLST9
 1176 05c6 1A       		.uleb128 0x1a
 1177 05c7 717000   		.ascii	"qp\000"
 1178 05ca 01       		.byte	0x1
 1179 05cb C3       		.byte	0xc3
 1180 05cc 07040000 		.4byte	0x407
 1181 05d0 C1010000 		.4byte	.LLST10
 1182 05d4 1A       		.uleb128 0x1a
 1183 05d5 687000   		.ascii	"hp\000"
ARM GAS  /tmp/cc4Eos1X.s 			page 22


 1184 05d8 01       		.byte	0x1
 1185 05d9 C3       		.byte	0xc3
 1186 05da 07040000 		.4byte	0x407
 1187 05de F5010000 		.4byte	.LLST11
 1188 05e2 1F       		.uleb128 0x1f
 1189 05e3 5B000000 		.4byte	.LASF72
 1190 05e7 01       		.byte	0x1
 1191 05e8 C4       		.byte	0xc4
 1192 05e9 0D040000 		.4byte	0x40d
 1193 05ed 33020000 		.4byte	.LLST12
 1194 05f1 1C       		.uleb128 0x1c
 1195 05f2 16000000 		.4byte	.LVL31
 1196 05f6 BE060000 		.4byte	0x6be
 1197 05fa 05060000 		.4byte	0x605
 1198 05fe 17       		.uleb128 0x17
 1199 05ff 01       		.uleb128 0x1
 1200 0600 50       		.byte	0x50
 1201 0601 02       		.uleb128 0x2
 1202 0602 75       		.byte	0x75
 1203 0603 08       		.sleb128 8
 1204 0604 00       		.byte	0
 1205 0605 20       		.uleb128 0x20
 1206 0606 5E000000 		.4byte	.LVL38
 1207 060a CF060000 		.4byte	0x6cf
 1208 060e 20       		.uleb128 0x20
 1209 060f 92000000 		.4byte	.LVL40
 1210 0613 CF060000 		.4byte	0x6cf
 1211 0617 00       		.byte	0
 1212 0618 1B       		.uleb128 0x1b
 1213 0619 20030000 		.4byte	.LASF75
 1214 061d 01       		.byte	0x1
 1215 061e FA       		.byte	0xfa
 1216 061f 2C000000 		.4byte	0x2c
 1217 0623 00000000 		.4byte	.LFB11
 1218 0627 42000000 		.4byte	.LFE11-.LFB11
 1219 062b 01       		.uleb128 0x1
 1220 062c 9C       		.byte	0x9c
 1221 062d 96060000 		.4byte	0x696
 1222 0631 18       		.uleb128 0x18
 1223 0632 5B000000 		.4byte	.LASF72
 1224 0636 01       		.byte	0x1
 1225 0637 FA       		.byte	0xfa
 1226 0638 0D040000 		.4byte	0x40d
 1227 063c 5F020000 		.4byte	.LLST13
 1228 0640 18       		.uleb128 0x18
 1229 0641 C5030000 		.4byte	.LASF76
 1230 0645 01       		.byte	0x1
 1231 0646 FA       		.byte	0xfa
 1232 0647 96060000 		.4byte	0x696
 1233 064b C2020000 		.4byte	.LLST14
 1234 064f 1A       		.uleb128 0x1a
 1235 0650 717000   		.ascii	"qp\000"
 1236 0653 01       		.byte	0x1
 1237 0654 FB       		.byte	0xfb
 1238 0655 07040000 		.4byte	0x407
 1239 0659 E0020000 		.4byte	.LLST15
 1240 065d 1A       		.uleb128 0x1a
ARM GAS  /tmp/cc4Eos1X.s 			page 23


 1241 065e 6E00     		.ascii	"n\000"
 1242 0660 01       		.byte	0x1
 1243 0661 FC       		.byte	0xfc
 1244 0662 2C000000 		.4byte	0x2c
 1245 0666 40030000 		.4byte	.LLST16
 1246 066a 1A       		.uleb128 0x1a
 1247 066b 737A00   		.ascii	"sz\000"
 1248 066e 01       		.byte	0x1
 1249 066f FC       		.byte	0xfc
 1250 0670 2C000000 		.4byte	0x2c
 1251 0674 83030000 		.4byte	.LLST17
 1252 0678 1C       		.uleb128 0x1c
 1253 0679 1C000000 		.4byte	.LVL43
 1254 067d BE060000 		.4byte	0x6be
 1255 0681 8C060000 		.4byte	0x68c
 1256 0685 17       		.uleb128 0x17
 1257 0686 01       		.uleb128 0x1
 1258 0687 50       		.byte	0x50
 1259 0688 02       		.uleb128 0x2
 1260 0689 74       		.byte	0x74
 1261 068a 10       		.sleb128 16
 1262 068b 00       		.byte	0
 1263 068c 1D       		.uleb128 0x1d
 1264 068d 38000000 		.4byte	.LVL48
 1265 0691 CF060000 		.4byte	0x6cf
 1266 0695 00       		.byte	0
 1267 0696 09       		.uleb128 0x9
 1268 0697 04       		.byte	0x4
 1269 0698 2C000000 		.4byte	0x2c
 1270 069c 21       		.uleb128 0x21
 1271 069d 0E030000 		.4byte	.LASF77
 1272 06a1 01       		.byte	0x1
 1273 06a2 44       		.byte	0x44
 1274 06a3 8B030000 		.4byte	0x38b
 1275 06a7 05       		.uleb128 0x5
 1276 06a8 03       		.byte	0x3
 1277 06a9 00000000 		.4byte	default_heap
 1278 06ad 22       		.uleb128 0x22
 1279 06ae 6C030000 		.4byte	.LASF78
 1280 06b2 09       		.byte	0x9
 1281 06b3 38       		.byte	0x38
 1282 06b4 BE060000 		.4byte	0x6be
 1283 06b8 0F       		.uleb128 0xf
 1284 06b9 79040000 		.4byte	0x479
 1285 06bd 00       		.byte	0
 1286 06be 22       		.uleb128 0x22
 1287 06bf 37020000 		.4byte	.LASF79
 1288 06c3 09       		.byte	0x9
 1289 06c4 39       		.byte	0x39
 1290 06c5 CF060000 		.4byte	0x6cf
 1291 06c9 0F       		.uleb128 0xf
 1292 06ca 79040000 		.4byte	0x479
 1293 06ce 00       		.byte	0
 1294 06cf 23       		.uleb128 0x23
 1295 06d0 61000000 		.4byte	.LASF84
 1296 06d4 09       		.byte	0x9
 1297 06d5 3D       		.byte	0x3d
ARM GAS  /tmp/cc4Eos1X.s 			page 24


 1298 06d6 79040000 		.4byte	0x479
 1299 06da 00       		.byte	0
 1300              		.section	.debug_abbrev,"",%progbits
 1301              	.Ldebug_abbrev0:
 1302 0000 01       		.uleb128 0x1
 1303 0001 11       		.uleb128 0x11
 1304 0002 01       		.byte	0x1
 1305 0003 25       		.uleb128 0x25
 1306 0004 0E       		.uleb128 0xe
 1307 0005 13       		.uleb128 0x13
 1308 0006 0B       		.uleb128 0xb
 1309 0007 03       		.uleb128 0x3
 1310 0008 0E       		.uleb128 0xe
 1311 0009 1B       		.uleb128 0x1b
 1312 000a 0E       		.uleb128 0xe
 1313 000b 55       		.uleb128 0x55
 1314 000c 17       		.uleb128 0x17
 1315 000d 11       		.uleb128 0x11
 1316 000e 01       		.uleb128 0x1
 1317 000f 10       		.uleb128 0x10
 1318 0010 17       		.uleb128 0x17
 1319 0011 00       		.byte	0
 1320 0012 00       		.byte	0
 1321 0013 02       		.uleb128 0x2
 1322 0014 24       		.uleb128 0x24
 1323 0015 00       		.byte	0
 1324 0016 0B       		.uleb128 0xb
 1325 0017 0B       		.uleb128 0xb
 1326 0018 3E       		.uleb128 0x3e
 1327 0019 0B       		.uleb128 0xb
 1328 001a 03       		.uleb128 0x3
 1329 001b 08       		.uleb128 0x8
 1330 001c 00       		.byte	0
 1331 001d 00       		.byte	0
 1332 001e 03       		.uleb128 0x3
 1333 001f 16       		.uleb128 0x16
 1334 0020 00       		.byte	0
 1335 0021 03       		.uleb128 0x3
 1336 0022 0E       		.uleb128 0xe
 1337 0023 3A       		.uleb128 0x3a
 1338 0024 0B       		.uleb128 0xb
 1339 0025 3B       		.uleb128 0x3b
 1340 0026 0B       		.uleb128 0xb
 1341 0027 49       		.uleb128 0x49
 1342 0028 13       		.uleb128 0x13
 1343 0029 00       		.byte	0
 1344 002a 00       		.byte	0
 1345 002b 04       		.uleb128 0x4
 1346 002c 24       		.uleb128 0x24
 1347 002d 00       		.byte	0
 1348 002e 0B       		.uleb128 0xb
 1349 002f 0B       		.uleb128 0xb
 1350 0030 3E       		.uleb128 0x3e
 1351 0031 0B       		.uleb128 0xb
 1352 0032 03       		.uleb128 0x3
 1353 0033 0E       		.uleb128 0xe
 1354 0034 00       		.byte	0
ARM GAS  /tmp/cc4Eos1X.s 			page 25


 1355 0035 00       		.byte	0
 1356 0036 05       		.uleb128 0x5
 1357 0037 13       		.uleb128 0x13
 1358 0038 01       		.byte	0x1
 1359 0039 03       		.uleb128 0x3
 1360 003a 0E       		.uleb128 0xe
 1361 003b 0B       		.uleb128 0xb
 1362 003c 0B       		.uleb128 0xb
 1363 003d 3A       		.uleb128 0x3a
 1364 003e 0B       		.uleb128 0xb
 1365 003f 3B       		.uleb128 0x3b
 1366 0040 0B       		.uleb128 0xb
 1367 0041 01       		.uleb128 0x1
 1368 0042 13       		.uleb128 0x13
 1369 0043 00       		.byte	0
 1370 0044 00       		.byte	0
 1371 0045 06       		.uleb128 0x6
 1372 0046 0D       		.uleb128 0xd
 1373 0047 00       		.byte	0
 1374 0048 03       		.uleb128 0x3
 1375 0049 0E       		.uleb128 0xe
 1376 004a 3A       		.uleb128 0x3a
 1377 004b 0B       		.uleb128 0xb
 1378 004c 3B       		.uleb128 0x3b
 1379 004d 0B       		.uleb128 0xb
 1380 004e 49       		.uleb128 0x49
 1381 004f 13       		.uleb128 0x13
 1382 0050 38       		.uleb128 0x38
 1383 0051 0B       		.uleb128 0xb
 1384 0052 00       		.byte	0
 1385 0053 00       		.byte	0
 1386 0054 07       		.uleb128 0x7
 1387 0055 0D       		.uleb128 0xd
 1388 0056 00       		.byte	0
 1389 0057 03       		.uleb128 0x3
 1390 0058 08       		.uleb128 0x8
 1391 0059 3A       		.uleb128 0x3a
 1392 005a 0B       		.uleb128 0xb
 1393 005b 3B       		.uleb128 0x3b
 1394 005c 0B       		.uleb128 0xb
 1395 005d 49       		.uleb128 0x49
 1396 005e 13       		.uleb128 0x13
 1397 005f 38       		.uleb128 0x38
 1398 0060 0B       		.uleb128 0xb
 1399 0061 00       		.byte	0
 1400 0062 00       		.byte	0
 1401 0063 08       		.uleb128 0x8
 1402 0064 13       		.uleb128 0x13
 1403 0065 01       		.byte	0x1
 1404 0066 0B       		.uleb128 0xb
 1405 0067 0B       		.uleb128 0xb
 1406 0068 3A       		.uleb128 0x3a
 1407 0069 0B       		.uleb128 0xb
 1408 006a 3B       		.uleb128 0x3b
 1409 006b 0B       		.uleb128 0xb
 1410 006c 01       		.uleb128 0x1
 1411 006d 13       		.uleb128 0x13
ARM GAS  /tmp/cc4Eos1X.s 			page 26


 1412 006e 00       		.byte	0
 1413 006f 00       		.byte	0
 1414 0070 09       		.uleb128 0x9
 1415 0071 0F       		.uleb128 0xf
 1416 0072 00       		.byte	0
 1417 0073 0B       		.uleb128 0xb
 1418 0074 0B       		.uleb128 0xb
 1419 0075 49       		.uleb128 0x49
 1420 0076 13       		.uleb128 0x13
 1421 0077 00       		.byte	0
 1422 0078 00       		.byte	0
 1423 0079 0A       		.uleb128 0xa
 1424 007a 0F       		.uleb128 0xf
 1425 007b 00       		.byte	0
 1426 007c 0B       		.uleb128 0xb
 1427 007d 0B       		.uleb128 0xb
 1428 007e 00       		.byte	0
 1429 007f 00       		.byte	0
 1430 0080 0B       		.uleb128 0xb
 1431 0081 0D       		.uleb128 0xd
 1432 0082 00       		.byte	0
 1433 0083 03       		.uleb128 0x3
 1434 0084 08       		.uleb128 0x8
 1435 0085 3A       		.uleb128 0x3a
 1436 0086 0B       		.uleb128 0xb
 1437 0087 3B       		.uleb128 0x3b
 1438 0088 05       		.uleb128 0x5
 1439 0089 49       		.uleb128 0x49
 1440 008a 13       		.uleb128 0x13
 1441 008b 38       		.uleb128 0x38
 1442 008c 0B       		.uleb128 0xb
 1443 008d 00       		.byte	0
 1444 008e 00       		.byte	0
 1445 008f 0C       		.uleb128 0xc
 1446 0090 13       		.uleb128 0x13
 1447 0091 01       		.byte	0x1
 1448 0092 03       		.uleb128 0x3
 1449 0093 0E       		.uleb128 0xe
 1450 0094 0B       		.uleb128 0xb
 1451 0095 0B       		.uleb128 0xb
 1452 0096 3A       		.uleb128 0x3a
 1453 0097 0B       		.uleb128 0xb
 1454 0098 3B       		.uleb128 0x3b
 1455 0099 05       		.uleb128 0x5
 1456 009a 01       		.uleb128 0x1
 1457 009b 13       		.uleb128 0x13
 1458 009c 00       		.byte	0
 1459 009d 00       		.byte	0
 1460 009e 0D       		.uleb128 0xd
 1461 009f 35       		.uleb128 0x35
 1462 00a0 00       		.byte	0
 1463 00a1 49       		.uleb128 0x49
 1464 00a2 13       		.uleb128 0x13
 1465 00a3 00       		.byte	0
 1466 00a4 00       		.byte	0
 1467 00a5 0E       		.uleb128 0xe
 1468 00a6 15       		.uleb128 0x15
ARM GAS  /tmp/cc4Eos1X.s 			page 27


 1469 00a7 01       		.byte	0x1
 1470 00a8 27       		.uleb128 0x27
 1471 00a9 19       		.uleb128 0x19
 1472 00aa 49       		.uleb128 0x49
 1473 00ab 13       		.uleb128 0x13
 1474 00ac 01       		.uleb128 0x1
 1475 00ad 13       		.uleb128 0x13
 1476 00ae 00       		.byte	0
 1477 00af 00       		.byte	0
 1478 00b0 0F       		.uleb128 0xf
 1479 00b1 05       		.uleb128 0x5
 1480 00b2 00       		.byte	0
 1481 00b3 49       		.uleb128 0x49
 1482 00b4 13       		.uleb128 0x13
 1483 00b5 00       		.byte	0
 1484 00b6 00       		.byte	0
 1485 00b7 10       		.uleb128 0x10
 1486 00b8 17       		.uleb128 0x17
 1487 00b9 01       		.byte	0x1
 1488 00ba 0B       		.uleb128 0xb
 1489 00bb 0B       		.uleb128 0xb
 1490 00bc 3A       		.uleb128 0x3a
 1491 00bd 0B       		.uleb128 0xb
 1492 00be 3B       		.uleb128 0x3b
 1493 00bf 0B       		.uleb128 0xb
 1494 00c0 01       		.uleb128 0x1
 1495 00c1 13       		.uleb128 0x13
 1496 00c2 00       		.byte	0
 1497 00c3 00       		.byte	0
 1498 00c4 11       		.uleb128 0x11
 1499 00c5 0D       		.uleb128 0xd
 1500 00c6 00       		.byte	0
 1501 00c7 03       		.uleb128 0x3
 1502 00c8 0E       		.uleb128 0xe
 1503 00c9 3A       		.uleb128 0x3a
 1504 00ca 0B       		.uleb128 0xb
 1505 00cb 3B       		.uleb128 0x3b
 1506 00cc 0B       		.uleb128 0xb
 1507 00cd 49       		.uleb128 0x49
 1508 00ce 13       		.uleb128 0x13
 1509 00cf 00       		.byte	0
 1510 00d0 00       		.byte	0
 1511 00d1 12       		.uleb128 0x12
 1512 00d2 17       		.uleb128 0x17
 1513 00d3 01       		.byte	0x1
 1514 00d4 03       		.uleb128 0x3
 1515 00d5 0E       		.uleb128 0xe
 1516 00d6 0B       		.uleb128 0xb
 1517 00d7 0B       		.uleb128 0xb
 1518 00d8 3A       		.uleb128 0x3a
 1519 00d9 0B       		.uleb128 0xb
 1520 00da 3B       		.uleb128 0x3b
 1521 00db 0B       		.uleb128 0xb
 1522 00dc 01       		.uleb128 0x1
 1523 00dd 13       		.uleb128 0x13
 1524 00de 00       		.byte	0
 1525 00df 00       		.byte	0
ARM GAS  /tmp/cc4Eos1X.s 			page 28


 1526 00e0 13       		.uleb128 0x13
 1527 00e1 0D       		.uleb128 0xd
 1528 00e2 00       		.byte	0
 1529 00e3 03       		.uleb128 0x3
 1530 00e4 08       		.uleb128 0x8
 1531 00e5 3A       		.uleb128 0x3a
 1532 00e6 0B       		.uleb128 0xb
 1533 00e7 3B       		.uleb128 0x3b
 1534 00e8 0B       		.uleb128 0xb
 1535 00e9 49       		.uleb128 0x49
 1536 00ea 13       		.uleb128 0x13
 1537 00eb 00       		.byte	0
 1538 00ec 00       		.byte	0
 1539 00ed 14       		.uleb128 0x14
 1540 00ee 26       		.uleb128 0x26
 1541 00ef 00       		.byte	0
 1542 00f0 49       		.uleb128 0x49
 1543 00f1 13       		.uleb128 0x13
 1544 00f2 00       		.byte	0
 1545 00f3 00       		.byte	0
 1546 00f4 15       		.uleb128 0x15
 1547 00f5 2E       		.uleb128 0x2e
 1548 00f6 01       		.byte	0x1
 1549 00f7 3F       		.uleb128 0x3f
 1550 00f8 19       		.uleb128 0x19
 1551 00f9 03       		.uleb128 0x3
 1552 00fa 0E       		.uleb128 0xe
 1553 00fb 3A       		.uleb128 0x3a
 1554 00fc 0B       		.uleb128 0xb
 1555 00fd 3B       		.uleb128 0x3b
 1556 00fe 0B       		.uleb128 0xb
 1557 00ff 27       		.uleb128 0x27
 1558 0100 19       		.uleb128 0x19
 1559 0101 11       		.uleb128 0x11
 1560 0102 01       		.uleb128 0x1
 1561 0103 12       		.uleb128 0x12
 1562 0104 06       		.uleb128 0x6
 1563 0105 40       		.uleb128 0x40
 1564 0106 18       		.uleb128 0x18
 1565 0107 9742     		.uleb128 0x2117
 1566 0109 19       		.uleb128 0x19
 1567 010a 01       		.uleb128 0x1
 1568 010b 13       		.uleb128 0x13
 1569 010c 00       		.byte	0
 1570 010d 00       		.byte	0
 1571 010e 16       		.uleb128 0x16
 1572 010f 898201   		.uleb128 0x4109
 1573 0112 01       		.byte	0x1
 1574 0113 11       		.uleb128 0x11
 1575 0114 01       		.uleb128 0x1
 1576 0115 9542     		.uleb128 0x2115
 1577 0117 19       		.uleb128 0x19
 1578 0118 31       		.uleb128 0x31
 1579 0119 13       		.uleb128 0x13
 1580 011a 00       		.byte	0
 1581 011b 00       		.byte	0
 1582 011c 17       		.uleb128 0x17
ARM GAS  /tmp/cc4Eos1X.s 			page 29


 1583 011d 8A8201   		.uleb128 0x410a
 1584 0120 00       		.byte	0
 1585 0121 02       		.uleb128 0x2
 1586 0122 18       		.uleb128 0x18
 1587 0123 9142     		.uleb128 0x2111
 1588 0125 18       		.uleb128 0x18
 1589 0126 00       		.byte	0
 1590 0127 00       		.byte	0
 1591 0128 18       		.uleb128 0x18
 1592 0129 05       		.uleb128 0x5
 1593 012a 00       		.byte	0
 1594 012b 03       		.uleb128 0x3
 1595 012c 0E       		.uleb128 0xe
 1596 012d 3A       		.uleb128 0x3a
 1597 012e 0B       		.uleb128 0xb
 1598 012f 3B       		.uleb128 0x3b
 1599 0130 0B       		.uleb128 0xb
 1600 0131 49       		.uleb128 0x49
 1601 0132 13       		.uleb128 0x13
 1602 0133 02       		.uleb128 0x2
 1603 0134 17       		.uleb128 0x17
 1604 0135 00       		.byte	0
 1605 0136 00       		.byte	0
 1606 0137 19       		.uleb128 0x19
 1607 0138 05       		.uleb128 0x5
 1608 0139 00       		.byte	0
 1609 013a 03       		.uleb128 0x3
 1610 013b 08       		.uleb128 0x8
 1611 013c 3A       		.uleb128 0x3a
 1612 013d 0B       		.uleb128 0xb
 1613 013e 3B       		.uleb128 0x3b
 1614 013f 0B       		.uleb128 0xb
 1615 0140 49       		.uleb128 0x49
 1616 0141 13       		.uleb128 0x13
 1617 0142 02       		.uleb128 0x2
 1618 0143 17       		.uleb128 0x17
 1619 0144 00       		.byte	0
 1620 0145 00       		.byte	0
 1621 0146 1A       		.uleb128 0x1a
 1622 0147 34       		.uleb128 0x34
 1623 0148 00       		.byte	0
 1624 0149 03       		.uleb128 0x3
 1625 014a 08       		.uleb128 0x8
 1626 014b 3A       		.uleb128 0x3a
 1627 014c 0B       		.uleb128 0xb
 1628 014d 3B       		.uleb128 0x3b
 1629 014e 0B       		.uleb128 0xb
 1630 014f 49       		.uleb128 0x49
 1631 0150 13       		.uleb128 0x13
 1632 0151 02       		.uleb128 0x2
 1633 0152 17       		.uleb128 0x17
 1634 0153 00       		.byte	0
 1635 0154 00       		.byte	0
 1636 0155 1B       		.uleb128 0x1b
 1637 0156 2E       		.uleb128 0x2e
 1638 0157 01       		.byte	0x1
 1639 0158 3F       		.uleb128 0x3f
ARM GAS  /tmp/cc4Eos1X.s 			page 30


 1640 0159 19       		.uleb128 0x19
 1641 015a 03       		.uleb128 0x3
 1642 015b 0E       		.uleb128 0xe
 1643 015c 3A       		.uleb128 0x3a
 1644 015d 0B       		.uleb128 0xb
 1645 015e 3B       		.uleb128 0x3b
 1646 015f 0B       		.uleb128 0xb
 1647 0160 27       		.uleb128 0x27
 1648 0161 19       		.uleb128 0x19
 1649 0162 49       		.uleb128 0x49
 1650 0163 13       		.uleb128 0x13
 1651 0164 11       		.uleb128 0x11
 1652 0165 01       		.uleb128 0x1
 1653 0166 12       		.uleb128 0x12
 1654 0167 06       		.uleb128 0x6
 1655 0168 40       		.uleb128 0x40
 1656 0169 18       		.uleb128 0x18
 1657 016a 9742     		.uleb128 0x2117
 1658 016c 19       		.uleb128 0x19
 1659 016d 01       		.uleb128 0x1
 1660 016e 13       		.uleb128 0x13
 1661 016f 00       		.byte	0
 1662 0170 00       		.byte	0
 1663 0171 1C       		.uleb128 0x1c
 1664 0172 898201   		.uleb128 0x4109
 1665 0175 01       		.byte	0x1
 1666 0176 11       		.uleb128 0x11
 1667 0177 01       		.uleb128 0x1
 1668 0178 31       		.uleb128 0x31
 1669 0179 13       		.uleb128 0x13
 1670 017a 01       		.uleb128 0x1
 1671 017b 13       		.uleb128 0x13
 1672 017c 00       		.byte	0
 1673 017d 00       		.byte	0
 1674 017e 1D       		.uleb128 0x1d
 1675 017f 898201   		.uleb128 0x4109
 1676 0182 00       		.byte	0
 1677 0183 11       		.uleb128 0x11
 1678 0184 01       		.uleb128 0x1
 1679 0185 31       		.uleb128 0x31
 1680 0186 13       		.uleb128 0x13
 1681 0187 00       		.byte	0
 1682 0188 00       		.byte	0
 1683 0189 1E       		.uleb128 0x1e
 1684 018a 898201   		.uleb128 0x4109
 1685 018d 01       		.byte	0x1
 1686 018e 11       		.uleb128 0x11
 1687 018f 01       		.uleb128 0x1
 1688 0190 01       		.uleb128 0x1
 1689 0191 13       		.uleb128 0x13
 1690 0192 00       		.byte	0
 1691 0193 00       		.byte	0
 1692 0194 1F       		.uleb128 0x1f
 1693 0195 34       		.uleb128 0x34
 1694 0196 00       		.byte	0
 1695 0197 03       		.uleb128 0x3
 1696 0198 0E       		.uleb128 0xe
ARM GAS  /tmp/cc4Eos1X.s 			page 31


 1697 0199 3A       		.uleb128 0x3a
 1698 019a 0B       		.uleb128 0xb
 1699 019b 3B       		.uleb128 0x3b
 1700 019c 0B       		.uleb128 0xb
 1701 019d 49       		.uleb128 0x49
 1702 019e 13       		.uleb128 0x13
 1703 019f 02       		.uleb128 0x2
 1704 01a0 17       		.uleb128 0x17
 1705 01a1 00       		.byte	0
 1706 01a2 00       		.byte	0
 1707 01a3 20       		.uleb128 0x20
 1708 01a4 898201   		.uleb128 0x4109
 1709 01a7 00       		.byte	0
 1710 01a8 11       		.uleb128 0x11
 1711 01a9 01       		.uleb128 0x1
 1712 01aa 9542     		.uleb128 0x2115
 1713 01ac 19       		.uleb128 0x19
 1714 01ad 31       		.uleb128 0x31
 1715 01ae 13       		.uleb128 0x13
 1716 01af 00       		.byte	0
 1717 01b0 00       		.byte	0
 1718 01b1 21       		.uleb128 0x21
 1719 01b2 34       		.uleb128 0x34
 1720 01b3 00       		.byte	0
 1721 01b4 03       		.uleb128 0x3
 1722 01b5 0E       		.uleb128 0xe
 1723 01b6 3A       		.uleb128 0x3a
 1724 01b7 0B       		.uleb128 0xb
 1725 01b8 3B       		.uleb128 0x3b
 1726 01b9 0B       		.uleb128 0xb
 1727 01ba 49       		.uleb128 0x49
 1728 01bb 13       		.uleb128 0x13
 1729 01bc 02       		.uleb128 0x2
 1730 01bd 18       		.uleb128 0x18
 1731 01be 00       		.byte	0
 1732 01bf 00       		.byte	0
 1733 01c0 22       		.uleb128 0x22
 1734 01c1 2E       		.uleb128 0x2e
 1735 01c2 01       		.byte	0x1
 1736 01c3 3F       		.uleb128 0x3f
 1737 01c4 19       		.uleb128 0x19
 1738 01c5 03       		.uleb128 0x3
 1739 01c6 0E       		.uleb128 0xe
 1740 01c7 3A       		.uleb128 0x3a
 1741 01c8 0B       		.uleb128 0xb
 1742 01c9 3B       		.uleb128 0x3b
 1743 01ca 0B       		.uleb128 0xb
 1744 01cb 27       		.uleb128 0x27
 1745 01cc 19       		.uleb128 0x19
 1746 01cd 3C       		.uleb128 0x3c
 1747 01ce 19       		.uleb128 0x19
 1748 01cf 01       		.uleb128 0x1
 1749 01d0 13       		.uleb128 0x13
 1750 01d1 00       		.byte	0
 1751 01d2 00       		.byte	0
 1752 01d3 23       		.uleb128 0x23
 1753 01d4 2E       		.uleb128 0x2e
ARM GAS  /tmp/cc4Eos1X.s 			page 32


 1754 01d5 00       		.byte	0
 1755 01d6 3F       		.uleb128 0x3f
 1756 01d7 19       		.uleb128 0x19
 1757 01d8 03       		.uleb128 0x3
 1758 01d9 0E       		.uleb128 0xe
 1759 01da 3A       		.uleb128 0x3a
 1760 01db 0B       		.uleb128 0xb
 1761 01dc 3B       		.uleb128 0x3b
 1762 01dd 0B       		.uleb128 0xb
 1763 01de 27       		.uleb128 0x27
 1764 01df 19       		.uleb128 0x19
 1765 01e0 49       		.uleb128 0x49
 1766 01e1 13       		.uleb128 0x13
 1767 01e2 3C       		.uleb128 0x3c
 1768 01e3 19       		.uleb128 0x19
 1769 01e4 00       		.byte	0
 1770 01e5 00       		.byte	0
 1771 01e6 00       		.byte	0
 1772              		.section	.debug_loc,"",%progbits
 1773              	.Ldebug_loc0:
 1774              	.LLST0:
 1775 0000 00000000 		.4byte	.LVL1
 1776 0004 0C000000 		.4byte	.LVL4
 1777 0008 0100     		.2byte	0x1
 1778 000a 50       		.byte	0x50
 1779 000b 0C000000 		.4byte	.LVL4
 1780 000f 13000000 		.4byte	.LVL5-1
 1781 0013 0300     		.2byte	0x3
 1782 0015 70       		.byte	0x70
 1783 0016 70       		.sleb128 -16
 1784 0017 9F       		.byte	0x9f
 1785 0018 13000000 		.4byte	.LVL5-1
 1786 001c 14000000 		.4byte	.LFE8
 1787 0020 0400     		.2byte	0x4
 1788 0022 F3       		.byte	0xf3
 1789 0023 01       		.uleb128 0x1
 1790 0024 50       		.byte	0x50
 1791 0025 9F       		.byte	0x9f
 1792 0026 00000000 		.4byte	0
 1793 002a 00000000 		.4byte	0
 1794              	.LLST1:
 1795 002e 00000000 		.4byte	.LVL1
 1796 0032 13000000 		.4byte	.LVL5-1
 1797 0036 0100     		.2byte	0x1
 1798 0038 51       		.byte	0x51
 1799 0039 13000000 		.4byte	.LVL5-1
 1800 003d 14000000 		.4byte	.LFE8
 1801 0041 0400     		.2byte	0x4
 1802 0043 F3       		.byte	0xf3
 1803 0044 01       		.uleb128 0x1
 1804 0045 51       		.byte	0x51
 1805 0046 9F       		.byte	0x9f
 1806 0047 00000000 		.4byte	0
 1807 004b 00000000 		.4byte	0
 1808              	.LLST2:
 1809 004f 00000000 		.4byte	.LVL1
 1810 0053 04000000 		.4byte	.LVL2
ARM GAS  /tmp/cc4Eos1X.s 			page 33


 1811 0057 0100     		.2byte	0x1
 1812 0059 52       		.byte	0x52
 1813 005a 04000000 		.4byte	.LVL2
 1814 005e 13000000 		.4byte	.LVL5-1
 1815 0062 0300     		.2byte	0x3
 1816 0064 72       		.byte	0x72
 1817 0065 08       		.sleb128 8
 1818 0066 9F       		.byte	0x9f
 1819 0067 13000000 		.4byte	.LVL5-1
 1820 006b 14000000 		.4byte	.LFE8
 1821 006f 0400     		.2byte	0x4
 1822 0071 F3       		.byte	0xf3
 1823 0072 01       		.uleb128 0x1
 1824 0073 52       		.byte	0x52
 1825 0074 9F       		.byte	0x9f
 1826 0075 00000000 		.4byte	0
 1827 0079 00000000 		.4byte	0
 1828              	.LLST3:
 1829 007d 08000000 		.4byte	.LVL3
 1830 0081 13000000 		.4byte	.LVL5-1
 1831 0085 0100     		.2byte	0x1
 1832 0087 51       		.byte	0x51
 1833 0088 13000000 		.4byte	.LVL5-1
 1834 008c 14000000 		.4byte	.LFE8
 1835 0090 0400     		.2byte	0x4
 1836 0092 F3       		.byte	0xf3
 1837 0093 01       		.uleb128 0x1
 1838 0094 51       		.byte	0x51
 1839 0095 9F       		.byte	0x9f
 1840 0096 00000000 		.4byte	0
 1841 009a 00000000 		.4byte	0
 1842              	.LLST4:
 1843 009e 00000000 		.4byte	.LVL6
 1844 00a2 10000000 		.4byte	.LVL7
 1845 00a6 0100     		.2byte	0x1
 1846 00a8 50       		.byte	0x50
 1847 00a9 10000000 		.4byte	.LVL7
 1848 00ad 86000000 		.4byte	.LFE9
 1849 00b1 0100     		.2byte	0x1
 1850 00b3 56       		.byte	0x56
 1851 00b4 00000000 		.4byte	0
 1852 00b8 00000000 		.4byte	0
 1853              	.LLST5:
 1854 00bc 00000000 		.4byte	.LVL6
 1855 00c0 12000000 		.4byte	.LVL8
 1856 00c4 0100     		.2byte	0x1
 1857 00c6 51       		.byte	0x51
 1858 00c7 12000000 		.4byte	.LVL8
 1859 00cb 1A000000 		.4byte	.LVL9
 1860 00cf 0300     		.2byte	0x3
 1861 00d1 71       		.byte	0x71
 1862 00d2 79       		.sleb128 -7
 1863 00d3 9F       		.byte	0x9f
 1864 00d4 1A000000 		.4byte	.LVL9
 1865 00d8 86000000 		.4byte	.LFE9
 1866 00dc 0100     		.2byte	0x1
 1867 00de 55       		.byte	0x55
ARM GAS  /tmp/cc4Eos1X.s 			page 34


 1868 00df 00000000 		.4byte	0
 1869 00e3 00000000 		.4byte	0
 1870              	.LLST6:
 1871 00e7 1E000000 		.4byte	.LVL10
 1872 00eb 4A000000 		.4byte	.LVL18
 1873 00ef 0100     		.2byte	0x1
 1874 00f1 54       		.byte	0x54
 1875 00f2 4E000000 		.4byte	.LVL19
 1876 00f6 5C000000 		.4byte	.LVL20
 1877 00fa 0100     		.2byte	0x1
 1878 00fc 54       		.byte	0x54
 1879 00fd 68000000 		.4byte	.LVL22
 1880 0101 84000000 		.4byte	.LVL25
 1881 0105 0100     		.2byte	0x1
 1882 0107 54       		.byte	0x54
 1883 0108 00000000 		.4byte	0
 1884 010c 00000000 		.4byte	0
 1885              	.LLST7:
 1886 0110 24000000 		.4byte	.LVL12
 1887 0114 2C000000 		.4byte	.LVL13
 1888 0118 0100     		.2byte	0x1
 1889 011a 53       		.byte	0x53
 1890 011b 2E000000 		.4byte	.LVL14
 1891 011f 35000000 		.4byte	.LVL15-1
 1892 0123 0100     		.2byte	0x1
 1893 0125 53       		.byte	0x53
 1894 0126 40000000 		.4byte	.LVL16
 1895 012a 46000000 		.4byte	.LVL17
 1896 012e 0100     		.2byte	0x1
 1897 0130 50       		.byte	0x50
 1898 0131 46000000 		.4byte	.LVL17
 1899 0135 4A000000 		.4byte	.LVL18
 1900 0139 0300     		.2byte	0x3
 1901 013b 70       		.byte	0x70
 1902 013c 08       		.sleb128 8
 1903 013d 9F       		.byte	0x9f
 1904 013e 4E000000 		.4byte	.LVL19
 1905 0142 63000000 		.4byte	.LVL21-1
 1906 0146 0100     		.2byte	0x1
 1907 0148 53       		.byte	0x53
 1908 0149 63000000 		.4byte	.LVL21-1
 1909 014d 68000000 		.4byte	.LVL22
 1910 0151 0300     		.2byte	0x3
 1911 0153 74       		.byte	0x74
 1912 0154 78       		.sleb128 -8
 1913 0155 9F       		.byte	0x9f
 1914 0156 68000000 		.4byte	.LVL22
 1915 015a 82000000 		.4byte	.LVL24
 1916 015e 0100     		.2byte	0x1
 1917 0160 53       		.byte	0x53
 1918 0161 00000000 		.4byte	0
 1919 0165 00000000 		.4byte	0
 1920              	.LLST8:
 1921 0169 78000000 		.4byte	.LVL23
 1922 016d 82000000 		.4byte	.LVL24
 1923 0171 0100     		.2byte	0x1
 1924 0173 52       		.byte	0x52
ARM GAS  /tmp/cc4Eos1X.s 			page 35


 1925 0174 00000000 		.4byte	0
 1926 0178 00000000 		.4byte	0
 1927              	.LLST9:
 1928 017c 00000000 		.4byte	.LVL26
 1929 0180 08000000 		.4byte	.LVL27
 1930 0184 0100     		.2byte	0x1
 1931 0186 50       		.byte	0x50
 1932 0187 08000000 		.4byte	.LVL27
 1933 018b 5A000000 		.4byte	.LVL37
 1934 018f 0100     		.2byte	0x1
 1935 0191 56       		.byte	0x56
 1936 0192 5A000000 		.4byte	.LVL37
 1937 0196 5E000000 		.4byte	.LVL38
 1938 019a 0400     		.2byte	0x4
 1939 019c F3       		.byte	0xf3
 1940 019d 01       		.uleb128 0x1
 1941 019e 50       		.byte	0x50
 1942 019f 9F       		.byte	0x9f
 1943 01a0 5E000000 		.4byte	.LVL38
 1944 01a4 8E000000 		.4byte	.LVL39
 1945 01a8 0100     		.2byte	0x1
 1946 01aa 56       		.byte	0x56
 1947 01ab 8E000000 		.4byte	.LVL39
 1948 01af 92000000 		.4byte	.LFE10
 1949 01b3 0400     		.2byte	0x4
 1950 01b5 F3       		.byte	0xf3
 1951 01b6 01       		.uleb128 0x1
 1952 01b7 50       		.byte	0x50
 1953 01b8 9F       		.byte	0x9f
 1954 01b9 00000000 		.4byte	0
 1955 01bd 00000000 		.4byte	0
 1956              	.LLST10:
 1957 01c1 10000000 		.4byte	.LVL29
 1958 01c5 18000000 		.4byte	.LVL32
 1959 01c9 0100     		.2byte	0x1
 1960 01cb 55       		.byte	0x55
 1961 01cc 18000000 		.4byte	.LVL32
 1962 01d0 30000000 		.4byte	.LVL34
 1963 01d4 0100     		.2byte	0x1
 1964 01d6 53       		.byte	0x53
 1965 01d7 32000000 		.4byte	.LVL35
 1966 01db 5D000000 		.4byte	.LVL38-1
 1967 01df 0100     		.2byte	0x1
 1968 01e1 53       		.byte	0x53
 1969 01e2 5E000000 		.4byte	.LVL38
 1970 01e6 91000000 		.4byte	.LVL40-1
 1971 01ea 0100     		.2byte	0x1
 1972 01ec 53       		.byte	0x53
 1973 01ed 00000000 		.4byte	0
 1974 01f1 00000000 		.4byte	0
 1975              	.LLST11:
 1976 01f5 0C000000 		.4byte	.LVL28
 1977 01f9 5A000000 		.4byte	.LVL37
 1978 01fd 0100     		.2byte	0x1
 1979 01ff 54       		.byte	0x54
 1980 0200 5A000000 		.4byte	.LVL37
 1981 0204 5E000000 		.4byte	.LVL38
ARM GAS  /tmp/cc4Eos1X.s 			page 36


 1982 0208 0600     		.2byte	0x6
 1983 020a F3       		.byte	0xf3
 1984 020b 01       		.uleb128 0x1
 1985 020c 50       		.byte	0x50
 1986 020d 38       		.byte	0x38
 1987 020e 1C       		.byte	0x1c
 1988 020f 9F       		.byte	0x9f
 1989 0210 5E000000 		.4byte	.LVL38
 1990 0214 8E000000 		.4byte	.LVL39
 1991 0218 0100     		.2byte	0x1
 1992 021a 54       		.byte	0x54
 1993 021b 8E000000 		.4byte	.LVL39
 1994 021f 92000000 		.4byte	.LFE10
 1995 0223 0600     		.2byte	0x6
 1996 0225 F3       		.byte	0xf3
 1997 0226 01       		.uleb128 0x1
 1998 0227 50       		.byte	0x50
 1999 0228 38       		.byte	0x38
 2000 0229 1C       		.byte	0x1c
 2001 022a 9F       		.byte	0x9f
 2002 022b 00000000 		.4byte	0
 2003 022f 00000000 		.4byte	0
 2004              	.LLST12:
 2005 0233 0C000000 		.4byte	.LVL28
 2006 0237 12000000 		.4byte	.LVL30
 2007 023b 0100     		.2byte	0x1
 2008 023d 50       		.byte	0x50
 2009 023e 12000000 		.4byte	.LVL30
 2010 0242 15000000 		.4byte	.LVL31-1
 2011 0246 0200     		.2byte	0x2
 2012 0248 74       		.byte	0x74
 2013 0249 00       		.sleb128 0
 2014 024a 15000000 		.4byte	.LVL31-1
 2015 024e 44000000 		.4byte	.LVL36
 2016 0252 0300     		.2byte	0x3
 2017 0254 75       		.byte	0x75
 2018 0255 78       		.sleb128 -8
 2019 0256 9F       		.byte	0x9f
 2020 0257 00000000 		.4byte	0
 2021 025b 00000000 		.4byte	0
 2022              	.LLST13:
 2023 025f 00000000 		.4byte	.LVL41
 2024 0263 12000000 		.4byte	.LVL42
 2025 0267 0100     		.2byte	0x1
 2026 0269 50       		.byte	0x50
 2027 026a 12000000 		.4byte	.LVL42
 2028 026e 24000000 		.4byte	.LVL44
 2029 0272 0100     		.2byte	0x1
 2030 0274 54       		.byte	0x54
 2031 0275 24000000 		.4byte	.LVL44
 2032 0279 3C000000 		.4byte	.LVL49
 2033 027d 1300     		.2byte	0x13
 2034 027f F3       		.byte	0xf3
 2035 0280 01       		.uleb128 0x1
 2036 0281 50       		.byte	0x50
 2037 0282 03       		.byte	0x3
 2038 0283 00000000 		.4byte	.LANCHOR0
ARM GAS  /tmp/cc4Eos1X.s 			page 37


 2039 0287 F3       		.byte	0xf3
 2040 0288 01       		.uleb128 0x1
 2041 0289 50       		.byte	0x50
 2042 028a 30       		.byte	0x30
 2043 028b 2E       		.byte	0x2e
 2044 028c 28       		.byte	0x28
 2045 028d 0100     		.2byte	0x1
 2046 028f 16       		.byte	0x16
 2047 0290 13       		.byte	0x13
 2048 0291 9F       		.byte	0x9f
 2049 0292 3C000000 		.4byte	.LVL49
 2050 0296 40000000 		.4byte	.LVL50
 2051 029a 0100     		.2byte	0x1
 2052 029c 54       		.byte	0x54
 2053 029d 40000000 		.4byte	.LVL50
 2054 02a1 42000000 		.4byte	.LFE11
 2055 02a5 1300     		.2byte	0x13
 2056 02a7 F3       		.byte	0xf3
 2057 02a8 01       		.uleb128 0x1
 2058 02a9 50       		.byte	0x50
 2059 02aa 03       		.byte	0x3
 2060 02ab 00000000 		.4byte	.LANCHOR0
 2061 02af F3       		.byte	0xf3
 2062 02b0 01       		.uleb128 0x1
 2063 02b1 50       		.byte	0x50
 2064 02b2 30       		.byte	0x30
 2065 02b3 2E       		.byte	0x2e
 2066 02b4 28       		.byte	0x28
 2067 02b5 0100     		.2byte	0x1
 2068 02b7 16       		.byte	0x16
 2069 02b8 13       		.byte	0x13
 2070 02b9 9F       		.byte	0x9f
 2071 02ba 00000000 		.4byte	0
 2072 02be 00000000 		.4byte	0
 2073              	.LLST14:
 2074 02c2 00000000 		.4byte	.LVL41
 2075 02c6 1B000000 		.4byte	.LVL43-1
 2076 02ca 0100     		.2byte	0x1
 2077 02cc 51       		.byte	0x51
 2078 02cd 1B000000 		.4byte	.LVL43-1
 2079 02d1 42000000 		.4byte	.LFE11
 2080 02d5 0100     		.2byte	0x1
 2081 02d7 55       		.byte	0x55
 2082 02d8 00000000 		.4byte	0
 2083 02dc 00000000 		.4byte	0
 2084              	.LLST15:
 2085 02e0 1C000000 		.4byte	.LVL43
 2086 02e4 24000000 		.4byte	.LVL44
 2087 02e8 0300     		.2byte	0x3
 2088 02ea 74       		.byte	0x74
 2089 02eb 08       		.sleb128 8
 2090 02ec 9F       		.byte	0x9f
 2091 02ed 24000000 		.4byte	.LVL44
 2092 02f1 2C000000 		.4byte	.LVL46
 2093 02f5 1500     		.2byte	0x15
 2094 02f7 F3       		.byte	0xf3
 2095 02f8 01       		.uleb128 0x1
ARM GAS  /tmp/cc4Eos1X.s 			page 38


 2096 02f9 50       		.byte	0x50
 2097 02fa 03       		.byte	0x3
 2098 02fb 00000000 		.4byte	.LANCHOR0
 2099 02ff F3       		.byte	0xf3
 2100 0300 01       		.uleb128 0x1
 2101 0301 50       		.byte	0x50
 2102 0302 30       		.byte	0x30
 2103 0303 2E       		.byte	0x2e
 2104 0304 28       		.byte	0x28
 2105 0305 0100     		.2byte	0x1
 2106 0307 16       		.byte	0x16
 2107 0308 13       		.byte	0x13
 2108 0309 23       		.byte	0x23
 2109 030a 08       		.uleb128 0x8
 2110 030b 9F       		.byte	0x9f
 2111 030c 3C000000 		.4byte	.LVL49
 2112 0310 40000000 		.4byte	.LVL50
 2113 0314 0300     		.2byte	0x3
 2114 0316 74       		.byte	0x74
 2115 0317 08       		.sleb128 8
 2116 0318 9F       		.byte	0x9f
 2117 0319 40000000 		.4byte	.LVL50
 2118 031d 42000000 		.4byte	.LFE11
 2119 0321 1500     		.2byte	0x15
 2120 0323 F3       		.byte	0xf3
 2121 0324 01       		.uleb128 0x1
 2122 0325 50       		.byte	0x50
 2123 0326 03       		.byte	0x3
 2124 0327 00000000 		.4byte	.LANCHOR0
 2125 032b F3       		.byte	0xf3
 2126 032c 01       		.uleb128 0x1
 2127 032d 50       		.byte	0x50
 2128 032e 30       		.byte	0x30
 2129 032f 2E       		.byte	0x2e
 2130 0330 28       		.byte	0x28
 2131 0331 0100     		.2byte	0x1
 2132 0333 16       		.byte	0x16
 2133 0334 13       		.byte	0x13
 2134 0335 23       		.byte	0x23
 2135 0336 08       		.uleb128 0x8
 2136 0337 9F       		.byte	0x9f
 2137 0338 00000000 		.4byte	0
 2138 033c 00000000 		.4byte	0
 2139              	.LLST16:
 2140 0340 1C000000 		.4byte	.LVL43
 2141 0344 24000000 		.4byte	.LVL44
 2142 0348 0200     		.2byte	0x2
 2143 034a 30       		.byte	0x30
 2144 034b 9F       		.byte	0x9f
 2145 034c 24000000 		.4byte	.LVL44
 2146 0350 2A000000 		.4byte	.LVL45
 2147 0354 0100     		.2byte	0x1
 2148 0356 54       		.byte	0x54
 2149 0357 2A000000 		.4byte	.LVL45
 2150 035b 2C000000 		.4byte	.LVL46
 2151 035f 0300     		.2byte	0x3
 2152 0361 74       		.byte	0x74
ARM GAS  /tmp/cc4Eos1X.s 			page 39


 2153 0362 7F       		.sleb128 -1
 2154 0363 9F       		.byte	0x9f
 2155 0364 2C000000 		.4byte	.LVL46
 2156 0368 30000000 		.4byte	.LVL47
 2157 036c 0100     		.2byte	0x1
 2158 036e 54       		.byte	0x54
 2159 036f 3C000000 		.4byte	.LVL49
 2160 0373 42000000 		.4byte	.LFE11
 2161 0377 0200     		.2byte	0x2
 2162 0379 30       		.byte	0x30
 2163 037a 9F       		.byte	0x9f
 2164 037b 00000000 		.4byte	0
 2165 037f 00000000 		.4byte	0
 2166              	.LLST17:
 2167 0383 1C000000 		.4byte	.LVL43
 2168 0387 24000000 		.4byte	.LVL44
 2169 038b 0200     		.2byte	0x2
 2170 038d 30       		.byte	0x30
 2171 038e 9F       		.byte	0x9f
 2172 038f 24000000 		.4byte	.LVL44
 2173 0393 30000000 		.4byte	.LVL47
 2174 0397 0100     		.2byte	0x1
 2175 0399 52       		.byte	0x52
 2176 039a 3C000000 		.4byte	.LVL49
 2177 039e 42000000 		.4byte	.LFE11
 2178 03a2 0200     		.2byte	0x2
 2179 03a4 30       		.byte	0x30
 2180 03a5 9F       		.byte	0x9f
 2181 03a6 00000000 		.4byte	0
 2182 03aa 00000000 		.4byte	0
 2183              		.section	.debug_aranges,"",%progbits
 2184 0000 3C000000 		.4byte	0x3c
 2185 0004 0200     		.2byte	0x2
 2186 0006 00000000 		.4byte	.Ldebug_info0
 2187 000a 04       		.byte	0x4
 2188 000b 00       		.byte	0
 2189 000c 0000     		.2byte	0
 2190 000e 0000     		.2byte	0
 2191 0010 00000000 		.4byte	.LFB7
 2192 0014 20000000 		.4byte	.LFE7-.LFB7
 2193 0018 00000000 		.4byte	.LFB8
 2194 001c 14000000 		.4byte	.LFE8-.LFB8
 2195 0020 00000000 		.4byte	.LFB9
 2196 0024 86000000 		.4byte	.LFE9-.LFB9
 2197 0028 00000000 		.4byte	.LFB10
 2198 002c 92000000 		.4byte	.LFE10-.LFB10
 2199 0030 00000000 		.4byte	.LFB11
 2200 0034 42000000 		.4byte	.LFE11-.LFB11
 2201 0038 00000000 		.4byte	0
 2202 003c 00000000 		.4byte	0
 2203              		.section	.debug_ranges,"",%progbits
 2204              	.Ldebug_ranges0:
 2205 0000 00000000 		.4byte	.LFB7
 2206 0004 20000000 		.4byte	.LFE7
 2207 0008 00000000 		.4byte	.LFB8
 2208 000c 14000000 		.4byte	.LFE8
 2209 0010 00000000 		.4byte	.LFB9
ARM GAS  /tmp/cc4Eos1X.s 			page 40


 2210 0014 86000000 		.4byte	.LFE9
 2211 0018 00000000 		.4byte	.LFB10
 2212 001c 92000000 		.4byte	.LFE10
 2213 0020 00000000 		.4byte	.LFB11
 2214 0024 42000000 		.4byte	.LFE11
 2215 0028 00000000 		.4byte	0
 2216 002c 00000000 		.4byte	0
 2217              		.section	.debug_line,"",%progbits
 2218              	.Ldebug_line0:
 2219 0000 3B020000 		.section	.debug_str,"MS",%progbits,1
 2219      02004901 
 2219      00000201 
 2219      FB0E0D00 
 2219      01010101 
 2220              	.LASF39:
 2221 0000 705F6D73 		.ascii	"p_msg\000"
 2221      6700
 2222              	.LASF2:
 2223 0006 73697A65 		.ascii	"size_t\000"
 2223      5F7400
 2224              	.LASF65:
 2225 000d 7264796D 		.ascii	"rdymsg\000"
 2225      736700
 2226              	.LASF17:
 2227 0014 75696E74 		.ascii	"uint64_t\000"
 2227      36345F74 
 2227      00
 2228              	.LASF3:
 2229 001d 5F5F7569 		.ascii	"__uint8_t\000"
 2229      6E74385F 
 2229      7400
 2230              	.LASF55:
 2231 0027 6D656D67 		.ascii	"memgetfunc_t\000"
 2231      65746675 
 2231      6E635F74 
 2231      00
 2232              	.LASF13:
 2233 0034 6C6F6E67 		.ascii	"long long unsigned int\000"
 2233      206C6F6E 
 2233      6720756E 
 2233      7369676E 
 2233      65642069 
 2234              	.LASF66:
 2235 004b 65786974 		.ascii	"exitcode\000"
 2235      636F6465 
 2235      00
 2236              	.LASF59:
 2237 0054 685F6672 		.ascii	"h_free\000"
 2237      656500
 2238              	.LASF72:
 2239 005b 68656170 		.ascii	"heapp\000"
 2239      7000
 2240              	.LASF84:
 2241 0061 63684D74 		.ascii	"chMtxUnlock\000"
 2241      78556E6C 
 2241      6F636B00 
 2242              	.LASF71:
ARM GAS  /tmp/cc4Eos1X.s 			page 41


 2243 006d 63684865 		.ascii	"chHeapInit\000"
 2243      6170496E 
 2243      697400
 2244              	.LASF61:
 2245 0078 6E657874 		.ascii	"next\000"
 2245      00
 2246              	.LASF28:
 2247 007d 705F7072 		.ascii	"p_prio\000"
 2247      696F00
 2248              	.LASF11:
 2249 0084 6C6F6E67 		.ascii	"long long int\000"
 2249      206C6F6E 
 2249      6720696E 
 2249      7400
 2250              	.LASF1:
 2251 0092 7369676E 		.ascii	"signed char\000"
 2251      65642063 
 2251      68617200 
 2252              	.LASF60:
 2253 009e 685F6D74 		.ascii	"h_mtx\000"
 2253      7800
 2254              	.LASF43:
 2255 00a4 705F6D70 		.ascii	"p_mpool\000"
 2255      6F6F6C00 
 2256              	.LASF52:
 2257 00ac 6D5F7175 		.ascii	"m_queue\000"
 2257      65756500 
 2258              	.LASF73:
 2259 00b4 63684865 		.ascii	"chHeapFree\000"
 2259      61704672 
 2259      656500
 2260              	.LASF8:
 2261 00bf 6C6F6E67 		.ascii	"long int\000"
 2261      20696E74 
 2261      00
 2262              	.LASF81:
 2263 00c8 2E2E2F2E 		.ascii	"../../os/kernel/src/chheap.c\000"
 2263      2E2F6F73 
 2263      2F6B6572 
 2263      6E656C2F 
 2263      7372632F 
 2264              	.LASF19:
 2265 00e5 74737461 		.ascii	"tstate_t\000"
 2265      74655F74 
 2265      00
 2266              	.LASF30:
 2267 00ee 705F6E65 		.ascii	"p_newer\000"
 2267      77657200 
 2268              	.LASF9:
 2269 00f6 5F5F7569 		.ascii	"__uint32_t\000"
 2269      6E743332 
 2269      5F7400
 2270              	.LASF46:
 2271 0101 72656761 		.ascii	"regarm_t\000"
 2271      726D5F74 
 2271      00
 2272              	.LASF80:
ARM GAS  /tmp/cc4Eos1X.s 			page 42


 2273 010a 474E5520 		.ascii	"GNU C 4.8.2 -mcpu=cortex-m3 -mno-thumb-interwork -m"
 2273      4320342E 
 2273      382E3220 
 2273      2D6D6370 
 2273      753D636F 
 2274 013d 7468756D 		.ascii	"thumb -ggdb -O2 -std=gnu99 -fomit-frame-pointer -fa"
 2274      62202D67 
 2274      67646220 
 2274      2D4F3220 
 2274      2D737464 
 2275 0170 6C69676E 		.ascii	"lign-functions=16 -ffunction-sections -fdata-sectio"
 2275      2D66756E 
 2275      6374696F 
 2275      6E733D31 
 2275      36202D66 
 2276 01a3 6E73202D 		.ascii	"ns -fno-common\000"
 2276      666E6F2D 
 2276      636F6D6D 
 2276      6F6E00
 2277              	.LASF63:
 2278 01b2 616C6967 		.ascii	"align\000"
 2278      6E00
 2279              	.LASF0:
 2280 01b8 756E7369 		.ascii	"unsigned int\000"
 2280      676E6564 
 2280      20696E74 
 2280      00
 2281              	.LASF10:
 2282 01c5 6C6F6E67 		.ascii	"long unsigned int\000"
 2282      20756E73 
 2282      69676E65 
 2282      6420696E 
 2282      7400
 2283              	.LASF49:
 2284 01d7 636F6E74 		.ascii	"context\000"
 2284      65787400 
 2285              	.LASF64:
 2286 01df 73697A65 		.ascii	"size\000"
 2286      00
 2287              	.LASF6:
 2288 01e4 73686F72 		.ascii	"short unsigned int\000"
 2288      7420756E 
 2288      7369676E 
 2288      65642069 
 2288      6E7400
 2289              	.LASF22:
 2290 01f7 6D73675F 		.ascii	"msg_t\000"
 2290      7400
 2291              	.LASF18:
 2292 01fd 746D6F64 		.ascii	"tmode_t\000"
 2292      655F7400 
 2293              	.LASF45:
 2294 0205 54687265 		.ascii	"ThreadsList\000"
 2294      6164734C 
 2294      69737400 
 2295              	.LASF23:
 2296 0211 6576656E 		.ascii	"eventmask_t\000"
ARM GAS  /tmp/cc4Eos1X.s 			page 43


 2296      746D6173 
 2296      6B5F7400 
 2297              	.LASF51:
 2298 021d 4D757465 		.ascii	"Mutex\000"
 2298      7800
 2299              	.LASF47:
 2300 0223 73746B61 		.ascii	"stkalign_t\000"
 2300      6C69676E 
 2300      5F7400
 2301              	.LASF50:
 2302 022e 73697A65 		.ascii	"sizetype\000"
 2302      74797065 
 2302      00
 2303              	.LASF79:
 2304 0237 63684D74 		.ascii	"chMtxLock\000"
 2304      784C6F63 
 2304      6B00
 2305              	.LASF31:
 2306 0241 705F6F6C 		.ascii	"p_older\000"
 2306      64657200 
 2307              	.LASF44:
 2308 0249 54687265 		.ascii	"ThreadsQueue\000"
 2308      61647351 
 2308      75657565 
 2308      00
 2309              	.LASF56:
 2310 0256 4D656D6F 		.ascii	"MemoryHeap\000"
 2310      72794865 
 2310      617000
 2311              	.LASF12:
 2312 0261 5F5F7569 		.ascii	"__uint64_t\000"
 2312      6E743634 
 2312      5F7400
 2313              	.LASF20:
 2314 026c 74726566 		.ascii	"trefs_t\000"
 2314      735F7400 
 2315              	.LASF27:
 2316 0274 705F7072 		.ascii	"p_prev\000"
 2316      657600
 2317              	.LASF21:
 2318 027b 74707269 		.ascii	"tprio_t\000"
 2318      6F5F7400 
 2319              	.LASF15:
 2320 0283 696E7433 		.ascii	"int32_t\000"
 2320      325F7400 
 2321              	.LASF4:
 2322 028b 756E7369 		.ascii	"unsigned char\000"
 2322      676E6564 
 2322      20636861 
 2322      7200
 2323              	.LASF58:
 2324 0299 685F7072 		.ascii	"h_provider\000"
 2324      6F766964 
 2324      657200
 2325              	.LASF41:
 2326 02a4 705F6D74 		.ascii	"p_mtxlist\000"
 2326      786C6973 
ARM GAS  /tmp/cc4Eos1X.s 			page 44


 2326      7400
 2327              	.LASF5:
 2328 02ae 73686F72 		.ascii	"short int\000"
 2328      7420696E 
 2328      7400
 2329              	.LASF33:
 2330 02b8 705F7374 		.ascii	"p_state\000"
 2330      61746500 
 2331              	.LASF83:
 2332 02c0 68656170 		.ascii	"heap_header\000"
 2332      5F686561 
 2332      64657200 
 2333              	.LASF68:
 2334 02cc 65776D61 		.ascii	"ewmask\000"
 2334      736B00
 2335              	.LASF26:
 2336 02d3 705F6E65 		.ascii	"p_next\000"
 2336      787400
 2337              	.LASF34:
 2338 02da 705F666C 		.ascii	"p_flags\000"
 2338      61677300 
 2339              	.LASF25:
 2340 02e2 54687265 		.ascii	"Thread\000"
 2340      616400
 2341              	.LASF74:
 2342 02e9 63684865 		.ascii	"chHeapAlloc\000"
 2342      6170416C 
 2342      6C6F6300 
 2343              	.LASF40:
 2344 02f5 705F6570 		.ascii	"p_epending\000"
 2344      656E6469 
 2344      6E6700
 2345              	.LASF16:
 2346 0300 75696E74 		.ascii	"uint32_t\000"
 2346      33325F74 
 2346      00
 2347              	.LASF62:
 2348 0309 68656170 		.ascii	"heap\000"
 2348      00
 2349              	.LASF77:
 2350 030e 64656661 		.ascii	"default_heap\000"
 2350      756C745F 
 2350      68656170 
 2350      00
 2351              	.LASF69:
 2352 031b 63686172 		.ascii	"char\000"
 2352      00
 2353              	.LASF75:
 2354 0320 63684865 		.ascii	"chHeapStatus\000"
 2354      61705374 
 2354      61747573 
 2354      00
 2355              	.LASF54:
 2356 032d 6D5F6E65 		.ascii	"m_next\000"
 2356      787400
 2357              	.LASF24:
 2358 0334 73797374 		.ascii	"systime_t\000"
ARM GAS  /tmp/cc4Eos1X.s 			page 45


 2358      696D655F 
 2358      7400
 2359              	.LASF42:
 2360 033e 705F7265 		.ascii	"p_realprio\000"
 2360      616C7072 
 2360      696F00
 2361              	.LASF7:
 2362 0349 5F5F696E 		.ascii	"__int32_t\000"
 2362      7433325F 
 2362      7400
 2363              	.LASF36:
 2364 0353 705F7469 		.ascii	"p_time\000"
 2364      6D6500
 2365              	.LASF48:
 2366 035a 696E7463 		.ascii	"intctx\000"
 2366      747800
 2367              	.LASF38:
 2368 0361 705F6D73 		.ascii	"p_msgqueue\000"
 2368      67717565 
 2368      756500
 2369              	.LASF78:
 2370 036c 63684D74 		.ascii	"chMtxInit\000"
 2370      78496E69 
 2370      7400
 2371              	.LASF35:
 2372 0376 705F7265 		.ascii	"p_refs\000"
 2372      667300
 2373              	.LASF14:
 2374 037d 75696E74 		.ascii	"uint8_t\000"
 2374      385F7400 
 2375              	.LASF82:
 2376 0385 2F686F6D 		.ascii	"/home/cata/Documentos/Embebidos/ChibiOS/iflab_code/"
 2376      652F6361 
 2376      74612F44 
 2376      6F63756D 
 2376      656E746F 
 2377 03b8 626C696E 		.ascii	"blink\000"
 2377      6B00
 2378              	.LASF67:
 2379 03be 77746F62 		.ascii	"wtobjp\000"
 2379      6A7000
 2380              	.LASF76:
 2381 03c5 73697A65 		.ascii	"sizep\000"
 2381      7000
 2382              	.LASF32:
 2383 03cb 705F6E61 		.ascii	"p_name\000"
 2383      6D6500
 2384              	.LASF70:
 2385 03d2 5F686561 		.ascii	"_heap_init\000"
 2385      705F696E 
 2385      697400
 2386              	.LASF53:
 2387 03dd 6D5F6F77 		.ascii	"m_owner\000"
 2387      6E657200 
 2388              	.LASF29:
 2389 03e5 705F6374 		.ascii	"p_ctx\000"
 2389      7800
ARM GAS  /tmp/cc4Eos1X.s 			page 46


 2390              	.LASF37:
 2391 03eb 705F7761 		.ascii	"p_waiting\000"
 2391      6974696E 
 2391      6700
 2392              	.LASF57:
 2393 03f5 6D656D6F 		.ascii	"memory_heap\000"
 2393      72795F68 
 2393      65617000 
 2394              		.ident	"GCC: (4.8.2-14ubuntu1+6) 4.8.2"
ARM GAS  /tmp/cc4Eos1X.s 			page 47


DEFINED SYMBOLS
                            *ABS*:0000000000000000 chheap.c
     /tmp/cc4Eos1X.s:19     .text._heap_init:0000000000000000 $t
     /tmp/cc4Eos1X.s:25     .text._heap_init:0000000000000000 _heap_init
     /tmp/cc4Eos1X.s:439    .bss.default_heap:0000000000000000 .LANCHOR0
     /tmp/cc4Eos1X.s:56     .text.chHeapInit:0000000000000000 $t
     /tmp/cc4Eos1X.s:62     .text.chHeapInit:0000000000000000 chHeapInit
     /tmp/cc4Eos1X.s:96     .text.chHeapAlloc:0000000000000000 $t
     /tmp/cc4Eos1X.s:102    .text.chHeapAlloc:0000000000000000 chHeapAlloc
     /tmp/cc4Eos1X.s:230    .text.chHeapFree:0000000000000000 $t
     /tmp/cc4Eos1X.s:236    .text.chHeapFree:0000000000000000 chHeapFree
     /tmp/cc4Eos1X.s:358    .text.chHeapStatus:0000000000000000 $t
     /tmp/cc4Eos1X.s:364    .text.chHeapStatus:0000000000000000 chHeapStatus
     /tmp/cc4Eos1X.s:438    .bss.default_heap:0000000000000000 $d
     /tmp/cc4Eos1X.s:442    .bss.default_heap:0000000000000000 default_heap
                     .debug_frame:0000000000000010 $d

UNDEFINED SYMBOLS
chCoreAlloc
chMtxInit
chMtxLock
chMtxUnlock
