ARM GAS  /tmp/ccxyk6D9.s 			page 1


   1              		.syntax unified
   2              		.cpu cortex-m3
   3              		.fpu softvfp
   4              		.eabi_attribute 20, 1
   5              		.eabi_attribute 21, 1
   6              		.eabi_attribute 23, 3
   7              		.eabi_attribute 24, 1
   8              		.eabi_attribute 25, 1
   9              		.eabi_attribute 26, 1
  10              		.eabi_attribute 30, 2
  11              		.eabi_attribute 34, 1
  12              		.eabi_attribute 18, 4
  13              		.thumb
  14              		.file	"evtimer.c"
  15              		.text
  16              	.Ltext0:
  17              		.cfi_sections	.debug_frame
  18              		.section	.text.tmrcb,"ax",%progbits
  19              		.align	2
  20              		.p2align 4,,15
  21              		.thumb
  22              		.thumb_func
  23              		.type	tmrcb, %function
  24              	tmrcb:
  25              	.LFB7:
  26              		.file 1 "../../os/various/evtimer.c"
  27              		.loc 1 39 0
  28              		.cfi_startproc
  29              		@ args = 0, pretend = 0, frame = 0
  30              		@ frame_needed = 0, uses_anonymous_args = 0
  31              	.LVL0:
  32 0000 10B5     		push	{r4, lr}
  33              		.cfi_def_cfa_offset 8
  34              		.cfi_offset 4, -8
  35              		.cfi_offset 14, -4
  36              		.loc 1 42 0
  37 0002 0021     		movs	r1, #0
  38              		.loc 1 39 0
  39 0004 0446     		mov	r4, r0
  40              	.LVL1:
  41              		.loc 1 42 0
  42 0006 1430     		adds	r0, r0, #20
  43              	.LVL2:
  44 0008 FFF7FEFF 		bl	chEvtBroadcastFlagsI
  45              	.LVL3:
  46              		.loc 1 43 0
  47 000c 40F20002 		movw	r2, #:lower16:tmrcb
  48 0010 2046     		mov	r0, r4
  49 0012 A169     		ldr	r1, [r4, #24]
  50 0014 2346     		mov	r3, r4
  51 0016 C0F20002 		movt	r2, #:upper16:tmrcb
  52              		.loc 1 44 0
  53 001a BDE81040 		pop	{r4, lr}
  54              	.LVL4:
  55              		.loc 1 43 0
  56 001e FFF7FEBF 		b	chVTSetI
  57              	.LVL5:
ARM GAS  /tmp/ccxyk6D9.s 			page 2


  58              		.cfi_endproc
  59              	.LFE7:
  60              		.size	tmrcb, .-tmrcb
  61 0022 00BFAFF3 		.section	.text.evtStart,"ax",%progbits
  61      0080AFF3 
  61      0080AFF3 
  61      0080
  62              		.align	2
  63              		.p2align 4,,15
  64              		.global	evtStart
  65              		.thumb
  66              		.thumb_func
  67              		.type	evtStart, %function
  68              	evtStart:
  69              	.LFB8:
  70              		.loc 1 52 0
  71              		.cfi_startproc
  72              		@ args = 0, pretend = 0, frame = 0
  73              		@ frame_needed = 0, uses_anonymous_args = 0
  74              	.LVL6:
  75 0000 08B5     		push	{r3, lr}
  76              		.cfi_def_cfa_offset 8
  77              		.cfi_offset 3, -8
  78              		.cfi_offset 14, -4
  79              	.LBB2:
  80              		.loc 1 54 0
  81 0002 2023     		movs	r3, #32
  82              	@ 54 "../../os/various/evtimer.c" 1
  83 0004 83F31188 		msr     BASEPRI, r3
  84              	@ 0 "" 2
  85              		.thumb
  86              	.LBE2:
  87              		.loc 1 56 0
  88 0008 C368     		ldr	r3, [r0, #12]
  89 000a 1BB1     		cbz	r3, .L5
  90              	.LBB3:
  91              		.loc 1 59 0
  92 000c 0023     		movs	r3, #0
  93              	@ 59 "../../os/various/evtimer.c" 1
  94 000e 83F31188 		msr     BASEPRI, r3
  95              	@ 0 "" 2
  96              		.thumb
  97 0012 08BD     		pop	{r3, pc}
  98              	.L5:
  99              	.LBE3:
 100              		.loc 1 57 0
 101 0014 40F20002 		movw	r2, #:lower16:tmrcb
 102 0018 0346     		mov	r3, r0
 103 001a 8169     		ldr	r1, [r0, #24]
 104 001c C0F20002 		movt	r2, #:upper16:tmrcb
 105 0020 FFF7FEFF 		bl	chVTSetI
 106              	.LVL7:
 107              	.LBB4:
 108              		.loc 1 59 0
 109 0024 0023     		movs	r3, #0
 110              	@ 59 "../../os/various/evtimer.c" 1
 111 0026 83F31188 		msr     BASEPRI, r3
ARM GAS  /tmp/ccxyk6D9.s 			page 3


 112              	@ 0 "" 2
 113              		.thumb
 114 002a 08BD     		pop	{r3, pc}
 115              	.LBE4:
 116              		.cfi_endproc
 117              	.LFE8:
 118              		.size	evtStart, .-evtStart
 119 002c AFF30080 		.section	.text.evtStop,"ax",%progbits
 120              		.align	2
 121              		.p2align 4,,15
 122              		.global	evtStop
 123              		.thumb
 124              		.thumb_func
 125              		.type	evtStop, %function
 126              	evtStop:
 127              	.LFB9:
 128              		.loc 1 68 0
 129              		.cfi_startproc
 130              		@ args = 0, pretend = 0, frame = 0
 131              		@ frame_needed = 0, uses_anonymous_args = 0
 132              	.LVL8:
 133 0000 08B5     		push	{r3, lr}
 134              		.cfi_def_cfa_offset 8
 135              		.cfi_offset 3, -8
 136              		.cfi_offset 14, -4
 137              	.LBB5:
 138              		.loc 1 70 0
 139 0002 2023     		movs	r3, #32
 140              	@ 70 "../../os/various/evtimer.c" 1
 141 0004 83F31188 		msr     BASEPRI, r3
 142              	@ 0 "" 2
 143              		.thumb
 144              	.LBE5:
 145              		.loc 1 72 0
 146 0008 C368     		ldr	r3, [r0, #12]
 147 000a 0BB1     		cbz	r3, .L7
 148              		.loc 1 73 0
 149 000c FFF7FEFF 		bl	chVTResetI
 150              	.LVL9:
 151              	.L7:
 152              	.LBB6:
 153              		.loc 1 75 0
 154 0010 0023     		movs	r3, #0
 155              	@ 75 "../../os/various/evtimer.c" 1
 156 0012 83F31188 		msr     BASEPRI, r3
 157              	@ 0 "" 2
 158              		.thumb
 159 0016 08BD     		pop	{r3, pc}
 160              	.LBE6:
 161              		.cfi_endproc
 162              	.LFE9:
 163              		.size	evtStop, .-evtStop
 164 0018 AFF30080 		.text
 164      AFF30080 
 165              	.Letext0:
 166              		.file 2 "/usr/include/newlib/machine/_default_types.h"
 167              		.file 3 "/usr/include/newlib/stdint.h"
ARM GAS  /tmp/ccxyk6D9.s 			page 4


 168              		.file 4 "../../os/ports/GCC/ARMCMx/chtypes.h"
 169              		.file 5 "../../os/kernel/include/chlists.h"
 170              		.file 6 "../../os/kernel/include/chthreads.h"
 171              		.file 7 "../../os/ports/GCC/ARMCMx/chcore_v7m.h"
 172              		.file 8 "../../os/kernel/include/chvt.h"
 173              		.file 9 "../../os/kernel/include/chmtx.h"
 174              		.file 10 "../../os/kernel/include/chevents.h"
 175              		.file 11 "../../os/various/evtimer.h"
 176              		.section	.debug_info,"",%progbits
 177              	.Ldebug_info0:
 178 0000 3C060000 		.4byte	0x63c
 179 0004 0400     		.2byte	0x4
 180 0006 00000000 		.4byte	.Ldebug_abbrev0
 181 000a 04       		.byte	0x4
 182 000b 01       		.uleb128 0x1
 183 000c D0000000 		.4byte	.LASF77
 184 0010 01       		.byte	0x1
 185 0011 C9030000 		.4byte	.LASF78
 186 0015 4E030000 		.4byte	.LASF79
 187 0019 18000000 		.4byte	.Ldebug_ranges0+0x18
 188 001d 00000000 		.4byte	0
 189 0021 00000000 		.4byte	.Ldebug_line0
 190 0025 02       		.uleb128 0x2
 191 0026 04       		.byte	0x4
 192 0027 05       		.byte	0x5
 193 0028 696E7400 		.ascii	"int\000"
 194 002c 03       		.uleb128 0x3
 195 002d 04       		.byte	0x4
 196 002e 07       		.byte	0x7
 197 002f 84010000 		.4byte	.LASF0
 198 0033 03       		.uleb128 0x3
 199 0034 01       		.byte	0x1
 200 0035 06       		.byte	0x6
 201 0036 61000000 		.4byte	.LASF1
 202 003a 04       		.uleb128 0x4
 203 003b 19000000 		.4byte	.LASF5
 204 003f 02       		.byte	0x2
 205 0040 1C       		.byte	0x1c
 206 0041 45000000 		.4byte	0x45
 207 0045 03       		.uleb128 0x3
 208 0046 01       		.byte	0x1
 209 0047 08       		.byte	0x8
 210 0048 67020000 		.4byte	.LASF2
 211 004c 03       		.uleb128 0x3
 212 004d 02       		.byte	0x2
 213 004e 05       		.byte	0x5
 214 004f 8B020000 		.4byte	.LASF3
 215 0053 03       		.uleb128 0x3
 216 0054 02       		.byte	0x2
 217 0055 07       		.byte	0x7
 218 0056 BC010000 		.4byte	.LASF4
 219 005a 04       		.uleb128 0x4
 220 005b 0D030000 		.4byte	.LASF6
 221 005f 02       		.byte	0x2
 222 0060 37       		.byte	0x37
 223 0061 65000000 		.4byte	0x65
 224 0065 03       		.uleb128 0x3
ARM GAS  /tmp/ccxyk6D9.s 			page 5


 225 0066 04       		.byte	0x4
 226 0067 05       		.byte	0x5
 227 0068 85000000 		.4byte	.LASF7
 228 006c 04       		.uleb128 0x4
 229 006d B4000000 		.4byte	.LASF8
 230 0071 02       		.byte	0x2
 231 0072 38       		.byte	0x38
 232 0073 77000000 		.4byte	0x77
 233 0077 03       		.uleb128 0x3
 234 0078 04       		.byte	0x4
 235 0079 07       		.byte	0x7
 236 007a 99010000 		.4byte	.LASF9
 237 007e 03       		.uleb128 0x3
 238 007f 08       		.byte	0x8
 239 0080 05       		.byte	0x5
 240 0081 53000000 		.4byte	.LASF10
 241 0085 03       		.uleb128 0x3
 242 0086 08       		.byte	0x8
 243 0087 07       		.byte	0x7
 244 0088 23000000 		.4byte	.LASF11
 245 008c 04       		.uleb128 0x4
 246 008d 46030000 		.4byte	.LASF12
 247 0091 03       		.byte	0x3
 248 0092 2A       		.byte	0x2a
 249 0093 3A000000 		.4byte	0x3a
 250 0097 04       		.uleb128 0x4
 251 0098 5F020000 		.4byte	.LASF13
 252 009c 03       		.byte	0x3
 253 009d 41       		.byte	0x41
 254 009e 5A000000 		.4byte	0x5a
 255 00a2 04       		.uleb128 0x4
 256 00a3 D0020000 		.4byte	.LASF14
 257 00a7 03       		.byte	0x3
 258 00a8 42       		.byte	0x42
 259 00a9 6C000000 		.4byte	0x6c
 260 00ad 04       		.uleb128 0x4
 261 00ae DD010000 		.4byte	.LASF15
 262 00b2 04       		.byte	0x4
 263 00b3 2F       		.byte	0x2f
 264 00b4 8C000000 		.4byte	0x8c
 265 00b8 04       		.uleb128 0x4
 266 00b9 8E000000 		.4byte	.LASF16
 267 00bd 04       		.byte	0x4
 268 00be 30       		.byte	0x30
 269 00bf 8C000000 		.4byte	0x8c
 270 00c3 04       		.uleb128 0x4
 271 00c4 48020000 		.4byte	.LASF17
 272 00c8 04       		.byte	0x4
 273 00c9 31       		.byte	0x31
 274 00ca 8C000000 		.4byte	0x8c
 275 00ce 04       		.uleb128 0x4
 276 00cf 57020000 		.4byte	.LASF18
 277 00d3 04       		.byte	0x4
 278 00d4 32       		.byte	0x32
 279 00d5 A2000000 		.4byte	0xa2
 280 00d9 04       		.uleb128 0x4
 281 00da CF010000 		.4byte	.LASF19
ARM GAS  /tmp/ccxyk6D9.s 			page 6


 282 00de 04       		.byte	0x4
 283 00df 33       		.byte	0x33
 284 00e0 97000000 		.4byte	0x97
 285 00e4 04       		.uleb128 0x4
 286 00e5 F1010000 		.4byte	.LASF20
 287 00e9 04       		.byte	0x4
 288 00ea 35       		.byte	0x35
 289 00eb A2000000 		.4byte	0xa2
 290 00ef 04       		.uleb128 0x4
 291 00f0 F8020000 		.4byte	.LASF21
 292 00f4 04       		.byte	0x4
 293 00f5 36       		.byte	0x36
 294 00f6 A2000000 		.4byte	0xa2
 295 00fa 04       		.uleb128 0x4
 296 00fb B3020000 		.4byte	.LASF22
 297 00ff 05       		.byte	0x5
 298 0100 2A       		.byte	0x2a
 299 0101 05010000 		.4byte	0x105
 300 0105 05       		.uleb128 0x5
 301 0106 B3020000 		.4byte	.LASF22
 302 010a 48       		.byte	0x48
 303 010b 06       		.byte	0x6
 304 010c 5E       		.byte	0x5e
 305 010d F6010000 		.4byte	0x1f6
 306 0111 06       		.uleb128 0x6
 307 0112 A4020000 		.4byte	.LASF23
 308 0116 06       		.byte	0x6
 309 0117 5F       		.byte	0x5f
 310 0118 17020000 		.4byte	0x217
 311 011c 00       		.byte	0
 312 011d 06       		.uleb128 0x6
 313 011e 50020000 		.4byte	.LASF24
 314 0122 06       		.byte	0x6
 315 0123 61       		.byte	0x61
 316 0124 17020000 		.4byte	0x217
 317 0128 04       		.byte	0x4
 318 0129 06       		.uleb128 0x6
 319 012a 4C000000 		.4byte	.LASF25
 320 012e 06       		.byte	0x6
 321 012f 63       		.byte	0x63
 322 0130 CE000000 		.4byte	0xce
 323 0134 08       		.byte	0x8
 324 0135 06       		.uleb128 0x6
 325 0136 B9030000 		.4byte	.LASF26
 326 013a 06       		.byte	0x6
 327 013b 64       		.byte	0x64
 328 013c D0020000 		.4byte	0x2d0
 329 0140 0C       		.byte	0xc
 330 0141 06       		.uleb128 0x6
 331 0142 AC000000 		.4byte	.LASF27
 332 0146 06       		.byte	0x6
 333 0147 66       		.byte	0x66
 334 0148 17020000 		.4byte	0x217
 335 014c 10       		.byte	0x10
 336 014d 06       		.uleb128 0x6
 337 014e 2B020000 		.4byte	.LASF28
 338 0152 06       		.byte	0x6
ARM GAS  /tmp/ccxyk6D9.s 			page 7


 339 0153 67       		.byte	0x67
 340 0154 17020000 		.4byte	0x217
 341 0158 14       		.byte	0x14
 342 0159 06       		.uleb128 0x6
 343 015a 9C030000 		.4byte	.LASF29
 344 015e 06       		.byte	0x6
 345 015f 6E       		.byte	0x6e
 346 0160 50040000 		.4byte	0x450
 347 0164 18       		.byte	0x18
 348 0165 06       		.uleb128 0x6
 349 0166 95020000 		.4byte	.LASF30
 350 016a 06       		.byte	0x6
 351 016b 79       		.byte	0x79
 352 016c B8000000 		.4byte	0xb8
 353 0170 1C       		.byte	0x1c
 354 0171 06       		.uleb128 0x6
 355 0172 AB020000 		.4byte	.LASF31
 356 0176 06       		.byte	0x6
 357 0177 7D       		.byte	0x7d
 358 0178 AD000000 		.4byte	0xad
 359 017c 1D       		.byte	0x1d
 360 017d 06       		.uleb128 0x6
 361 017e 3F030000 		.4byte	.LASF32
 362 0182 06       		.byte	0x6
 363 0183 82       		.byte	0x82
 364 0184 C3000000 		.4byte	0xc3
 365 0188 1E       		.byte	0x1e
 366 0189 06       		.uleb128 0x6
 367 018a 1F030000 		.4byte	.LASF33
 368 018e 06       		.byte	0x6
 369 018f 89       		.byte	0x89
 370 0190 6E030000 		.4byte	0x36e
 371 0194 20       		.byte	0x20
 372 0195 07       		.uleb128 0x7
 373 0196 705F7500 		.ascii	"p_u\000"
 374 019a 06       		.byte	0x6
 375 019b AE       		.byte	0xae
 376 019c 1B040000 		.4byte	0x41b
 377 01a0 24       		.byte	0x24
 378 01a1 06       		.uleb128 0x6
 379 01a2 BF030000 		.4byte	.LASF34
 380 01a6 06       		.byte	0x6
 381 01a7 B3       		.byte	0xb3
 382 01a8 3D020000 		.4byte	0x23d
 383 01ac 28       		.byte	0x28
 384 01ad 06       		.uleb128 0x6
 385 01ae 2D030000 		.4byte	.LASF35
 386 01b2 06       		.byte	0x6
 387 01b3 B9       		.byte	0xb9
 388 01b4 1D020000 		.4byte	0x21d
 389 01b8 2C       		.byte	0x2c
 390 01b9 06       		.uleb128 0x6
 391 01ba 0C000000 		.4byte	.LASF36
 392 01be 06       		.byte	0x6
 393 01bf BD       		.byte	0xbd
 394 01c0 D9000000 		.4byte	0xd9
 395 01c4 34       		.byte	0x34
ARM GAS  /tmp/ccxyk6D9.s 			page 8


 396 01c5 06       		.uleb128 0x6
 397 01c6 C5020000 		.4byte	.LASF37
 398 01ca 06       		.byte	0x6
 399 01cb C3       		.byte	0xc3
 400 01cc E4000000 		.4byte	0xe4
 401 01d0 38       		.byte	0x38
 402 01d1 06       		.uleb128 0x6
 403 01d2 81020000 		.4byte	.LASF38
 404 01d6 06       		.byte	0x6
 405 01d7 CA       		.byte	0xca
 406 01d8 62040000 		.4byte	0x462
 407 01dc 3C       		.byte	0x3c
 408 01dd 06       		.uleb128 0x6
 409 01de 02030000 		.4byte	.LASF39
 410 01e2 06       		.byte	0x6
 411 01e3 CE       		.byte	0xce
 412 01e4 CE000000 		.4byte	0xce
 413 01e8 40       		.byte	0x40
 414 01e9 06       		.uleb128 0x6
 415 01ea 75000000 		.4byte	.LASF40
 416 01ee 06       		.byte	0x6
 417 01ef D4       		.byte	0xd4
 418 01f0 53020000 		.4byte	0x253
 419 01f4 44       		.byte	0x44
 420 01f5 00       		.byte	0
 421 01f6 08       		.uleb128 0x8
 422 01f7 08       		.byte	0x8
 423 01f8 05       		.byte	0x5
 424 01f9 61       		.byte	0x61
 425 01fa 17020000 		.4byte	0x217
 426 01fe 06       		.uleb128 0x6
 427 01ff A4020000 		.4byte	.LASF23
 428 0203 05       		.byte	0x5
 429 0204 62       		.byte	0x62
 430 0205 17020000 		.4byte	0x217
 431 0209 00       		.byte	0
 432 020a 06       		.uleb128 0x6
 433 020b 50020000 		.4byte	.LASF24
 434 020f 05       		.byte	0x5
 435 0210 64       		.byte	0x64
 436 0211 17020000 		.4byte	0x217
 437 0215 04       		.byte	0x4
 438 0216 00       		.byte	0
 439 0217 09       		.uleb128 0x9
 440 0218 04       		.byte	0x4
 441 0219 FA000000 		.4byte	0xfa
 442 021d 04       		.uleb128 0x4
 443 021e 33020000 		.4byte	.LASF41
 444 0222 05       		.byte	0x5
 445 0223 66       		.byte	0x66
 446 0224 F6010000 		.4byte	0x1f6
 447 0228 08       		.uleb128 0x8
 448 0229 04       		.byte	0x4
 449 022a 05       		.byte	0x5
 450 022b 6B       		.byte	0x6b
 451 022c 3D020000 		.4byte	0x23d
 452 0230 06       		.uleb128 0x6
ARM GAS  /tmp/ccxyk6D9.s 			page 9


 453 0231 A4020000 		.4byte	.LASF23
 454 0235 05       		.byte	0x5
 455 0236 6D       		.byte	0x6d
 456 0237 17020000 		.4byte	0x217
 457 023b 00       		.byte	0
 458 023c 00       		.byte	0
 459 023d 04       		.uleb128 0x4
 460 023e E5010000 		.4byte	.LASF42
 461 0242 05       		.byte	0x5
 462 0243 70       		.byte	0x70
 463 0244 28020000 		.4byte	0x228
 464 0248 04       		.uleb128 0x4
 465 0249 BF000000 		.4byte	.LASF43
 466 024d 07       		.byte	0x7
 467 024e D7       		.byte	0xd7
 468 024f 53020000 		.4byte	0x253
 469 0253 0A       		.uleb128 0xa
 470 0254 04       		.byte	0x4
 471 0255 05       		.uleb128 0x5
 472 0256 26030000 		.4byte	.LASF44
 473 025a 24       		.byte	0x24
 474 025b 07       		.byte	0x7
 475 025c FE       		.byte	0xfe
 476 025d D0020000 		.4byte	0x2d0
 477 0261 0B       		.uleb128 0xb
 478 0262 723400   		.ascii	"r4\000"
 479 0265 07       		.byte	0x7
 480 0266 1101     		.2byte	0x111
 481 0268 48020000 		.4byte	0x248
 482 026c 00       		.byte	0
 483 026d 0B       		.uleb128 0xb
 484 026e 723500   		.ascii	"r5\000"
 485 0271 07       		.byte	0x7
 486 0272 1201     		.2byte	0x112
 487 0274 48020000 		.4byte	0x248
 488 0278 04       		.byte	0x4
 489 0279 0B       		.uleb128 0xb
 490 027a 723600   		.ascii	"r6\000"
 491 027d 07       		.byte	0x7
 492 027e 1301     		.2byte	0x113
 493 0280 48020000 		.4byte	0x248
 494 0284 08       		.byte	0x8
 495 0285 0B       		.uleb128 0xb
 496 0286 723700   		.ascii	"r7\000"
 497 0289 07       		.byte	0x7
 498 028a 1401     		.2byte	0x114
 499 028c 48020000 		.4byte	0x248
 500 0290 0C       		.byte	0xc
 501 0291 0B       		.uleb128 0xb
 502 0292 723800   		.ascii	"r8\000"
 503 0295 07       		.byte	0x7
 504 0296 1501     		.2byte	0x115
 505 0298 48020000 		.4byte	0x248
 506 029c 10       		.byte	0x10
 507 029d 0B       		.uleb128 0xb
 508 029e 723900   		.ascii	"r9\000"
 509 02a1 07       		.byte	0x7
ARM GAS  /tmp/ccxyk6D9.s 			page 10


 510 02a2 1601     		.2byte	0x116
 511 02a4 48020000 		.4byte	0x248
 512 02a8 14       		.byte	0x14
 513 02a9 0B       		.uleb128 0xb
 514 02aa 72313000 		.ascii	"r10\000"
 515 02ae 07       		.byte	0x7
 516 02af 1701     		.2byte	0x117
 517 02b1 48020000 		.4byte	0x248
 518 02b5 18       		.byte	0x18
 519 02b6 0B       		.uleb128 0xb
 520 02b7 72313100 		.ascii	"r11\000"
 521 02bb 07       		.byte	0x7
 522 02bc 1801     		.2byte	0x118
 523 02be 48020000 		.4byte	0x248
 524 02c2 1C       		.byte	0x1c
 525 02c3 0B       		.uleb128 0xb
 526 02c4 6C7200   		.ascii	"lr\000"
 527 02c7 07       		.byte	0x7
 528 02c8 1901     		.2byte	0x119
 529 02ca 48020000 		.4byte	0x248
 530 02ce 20       		.byte	0x20
 531 02cf 00       		.byte	0
 532 02d0 0C       		.uleb128 0xc
 533 02d1 B4010000 		.4byte	.LASF45
 534 02d5 04       		.byte	0x4
 535 02d6 07       		.byte	0x7
 536 02d7 2301     		.2byte	0x123
 537 02d9 EB020000 		.4byte	0x2eb
 538 02dd 0B       		.uleb128 0xb
 539 02de 72313300 		.ascii	"r13\000"
 540 02e2 07       		.byte	0x7
 541 02e3 2401     		.2byte	0x124
 542 02e5 EB020000 		.4byte	0x2eb
 543 02e9 00       		.byte	0
 544 02ea 00       		.byte	0
 545 02eb 09       		.uleb128 0x9
 546 02ec 04       		.byte	0x4
 547 02ed 55020000 		.4byte	0x255
 548 02f1 03       		.uleb128 0x3
 549 02f2 04       		.byte	0x4
 550 02f3 07       		.byte	0x7
 551 02f4 11020000 		.4byte	.LASF46
 552 02f8 04       		.uleb128 0x4
 553 02f9 AB010000 		.4byte	.LASF47
 554 02fd 08       		.byte	0x8
 555 02fe 53       		.byte	0x53
 556 02ff 03030000 		.4byte	0x303
 557 0303 09       		.uleb128 0x9
 558 0304 04       		.byte	0x4
 559 0305 09030000 		.4byte	0x309
 560 0309 0D       		.uleb128 0xd
 561 030a 14030000 		.4byte	0x314
 562 030e 0E       		.uleb128 0xe
 563 030f 53020000 		.4byte	0x253
 564 0313 00       		.byte	0
 565 0314 04       		.uleb128 0x4
 566 0315 D9020000 		.4byte	.LASF48
ARM GAS  /tmp/ccxyk6D9.s 			page 11


 567 0319 08       		.byte	0x8
 568 031a 58       		.byte	0x58
 569 031b 1F030000 		.4byte	0x31f
 570 031f 05       		.uleb128 0x5
 571 0320 D9020000 		.4byte	.LASF48
 572 0324 14       		.byte	0x14
 573 0325 08       		.byte	0x8
 574 0326 5F       		.byte	0x5f
 575 0327 68030000 		.4byte	0x368
 576 032b 06       		.uleb128 0x6
 577 032c 91010000 		.4byte	.LASF49
 578 0330 08       		.byte	0x8
 579 0331 60       		.byte	0x60
 580 0332 68030000 		.4byte	0x368
 581 0336 00       		.byte	0
 582 0337 06       		.uleb128 0x6
 583 0338 C8000000 		.4byte	.LASF50
 584 033c 08       		.byte	0x8
 585 033d 62       		.byte	0x62
 586 033e 68030000 		.4byte	0x368
 587 0342 04       		.byte	0x4
 588 0343 06       		.uleb128 0x6
 589 0344 03020000 		.4byte	.LASF51
 590 0348 08       		.byte	0x8
 591 0349 64       		.byte	0x64
 592 034a EF000000 		.4byte	0xef
 593 034e 08       		.byte	0x8
 594 034f 06       		.uleb128 0x6
 595 0350 1A020000 		.4byte	.LASF52
 596 0354 08       		.byte	0x8
 597 0355 65       		.byte	0x65
 598 0356 F8020000 		.4byte	0x2f8
 599 035a 0C       		.byte	0xc
 600 035b 06       		.uleb128 0x6
 601 035c 38030000 		.4byte	.LASF53
 602 0360 08       		.byte	0x8
 603 0361 67       		.byte	0x67
 604 0362 53020000 		.4byte	0x253
 605 0366 10       		.byte	0x10
 606 0367 00       		.byte	0
 607 0368 09       		.uleb128 0x9
 608 0369 04       		.byte	0x4
 609 036a 14030000 		.4byte	0x314
 610 036e 0F       		.uleb128 0xf
 611 036f EF000000 		.4byte	0xef
 612 0373 05       		.uleb128 0x5
 613 0374 FD010000 		.4byte	.LASF54
 614 0378 10       		.byte	0x10
 615 0379 09       		.byte	0x9
 616 037a 2C       		.byte	0x2c
 617 037b A4030000 		.4byte	0x3a4
 618 037f 06       		.uleb128 0x6
 619 0380 7D000000 		.4byte	.LASF55
 620 0384 09       		.byte	0x9
 621 0385 2D       		.byte	0x2d
 622 0386 1D020000 		.4byte	0x21d
 623 038a 00       		.byte	0
ARM GAS  /tmp/ccxyk6D9.s 			page 12


 624 038b 06       		.uleb128 0x6
 625 038c B1030000 		.4byte	.LASF56
 626 0390 09       		.byte	0x9
 627 0391 2F       		.byte	0x2f
 628 0392 17020000 		.4byte	0x217
 629 0396 08       		.byte	0x8
 630 0397 06       		.uleb128 0x6
 631 0398 F1020000 		.4byte	.LASF57
 632 039c 09       		.byte	0x9
 633 039d 31       		.byte	0x31
 634 039e A4030000 		.4byte	0x3a4
 635 03a2 0C       		.byte	0xc
 636 03a3 00       		.byte	0
 637 03a4 09       		.uleb128 0x9
 638 03a5 04       		.byte	0x4
 639 03a6 73030000 		.4byte	0x373
 640 03aa 04       		.uleb128 0x4
 641 03ab FD010000 		.4byte	.LASF54
 642 03af 09       		.byte	0x9
 643 03b0 33       		.byte	0x33
 644 03b1 73030000 		.4byte	0x373
 645 03b5 04       		.uleb128 0x4
 646 03b6 87030000 		.4byte	.LASF58
 647 03ba 0A       		.byte	0xa
 648 03bb 29       		.byte	0x29
 649 03bc C0030000 		.4byte	0x3c0
 650 03c0 05       		.uleb128 0x5
 651 03c1 87030000 		.4byte	.LASF58
 652 03c5 0C       		.byte	0xc
 653 03c6 0A       		.byte	0xa
 654 03c7 2E       		.byte	0x2e
 655 03c8 F1030000 		.4byte	0x3f1
 656 03cc 06       		.uleb128 0x6
 657 03cd D5010000 		.4byte	.LASF59
 658 03d1 0A       		.byte	0xa
 659 03d2 2F       		.byte	0x2f
 660 03d3 F1030000 		.4byte	0x3f1
 661 03d7 00       		.byte	0
 662 03d8 06       		.uleb128 0x6
 663 03d9 75020000 		.4byte	.LASF60
 664 03dd 0A       		.byte	0xa
 665 03de 32       		.byte	0x32
 666 03df 17020000 		.4byte	0x217
 667 03e3 04       		.byte	0x4
 668 03e4 06       		.uleb128 0x6
 669 03e5 40020000 		.4byte	.LASF61
 670 03e9 0A       		.byte	0xa
 671 03ea 34       		.byte	0x34
 672 03eb E4000000 		.4byte	0xe4
 673 03ef 08       		.byte	0x8
 674 03f0 00       		.byte	0
 675 03f1 09       		.uleb128 0x9
 676 03f2 04       		.byte	0x4
 677 03f3 B5030000 		.4byte	0x3b5
 678 03f7 05       		.uleb128 0x5
 679 03f8 78010000 		.4byte	.LASF62
 680 03fc 04       		.byte	0x4
ARM GAS  /tmp/ccxyk6D9.s 			page 13


 681 03fd 0A       		.byte	0xa
 682 03fe 3C       		.byte	0x3c
 683 03ff 10040000 		.4byte	0x410
 684 0403 06       		.uleb128 0x6
 685 0404 A3030000 		.4byte	.LASF63
 686 0408 0A       		.byte	0xa
 687 0409 3D       		.byte	0x3d
 688 040a F1030000 		.4byte	0x3f1
 689 040e 00       		.byte	0
 690 040f 00       		.byte	0
 691 0410 04       		.uleb128 0x4
 692 0411 78010000 		.4byte	.LASF62
 693 0415 0A       		.byte	0xa
 694 0416 40       		.byte	0x40
 695 0417 F7030000 		.4byte	0x3f7
 696 041b 10       		.uleb128 0x10
 697 041c 04       		.byte	0x4
 698 041d 06       		.byte	0x6
 699 041e 90       		.byte	0x90
 700 041f 50040000 		.4byte	0x450
 701 0423 11       		.uleb128 0x11
 702 0424 12000000 		.4byte	.LASF64
 703 0428 06       		.byte	0x6
 704 0429 97       		.byte	0x97
 705 042a D9000000 		.4byte	0xd9
 706 042e 11       		.uleb128 0x11
 707 042f 3A000000 		.4byte	.LASF65
 708 0433 06       		.byte	0x6
 709 0434 9E       		.byte	0x9e
 710 0435 D9000000 		.4byte	0xd9
 711 0439 11       		.uleb128 0x11
 712 043a 95030000 		.4byte	.LASF66
 713 043e 06       		.byte	0x6
 714 043f A5       		.byte	0xa5
 715 0440 53020000 		.4byte	0x253
 716 0444 11       		.uleb128 0x11
 717 0445 9D020000 		.4byte	.LASF67
 718 0449 06       		.byte	0x6
 719 044a AC       		.byte	0xac
 720 044b E4000000 		.4byte	0xe4
 721 044f 00       		.byte	0
 722 0450 09       		.uleb128 0x9
 723 0451 04       		.byte	0x4
 724 0452 56040000 		.4byte	0x456
 725 0456 12       		.uleb128 0x12
 726 0457 5B040000 		.4byte	0x45b
 727 045b 03       		.uleb128 0x3
 728 045c 01       		.byte	0x1
 729 045d 08       		.byte	0x8
 730 045e E6020000 		.4byte	.LASF68
 731 0462 09       		.uleb128 0x9
 732 0463 04       		.byte	0x4
 733 0464 AA030000 		.4byte	0x3aa
 734 0468 08       		.uleb128 0x8
 735 0469 1C       		.byte	0x1c
 736 046a 0B       		.byte	0xb
 737 046b 2A       		.byte	0x2a
ARM GAS  /tmp/ccxyk6D9.s 			page 14


 738 046c 95040000 		.4byte	0x495
 739 0470 06       		.uleb128 0x6
 740 0471 AB030000 		.4byte	.LASF69
 741 0475 0B       		.byte	0xb
 742 0476 2B       		.byte	0x2b
 743 0477 14030000 		.4byte	0x314
 744 047b 00       		.byte	0
 745 047c 06       		.uleb128 0x6
 746 047d 0B020000 		.4byte	.LASF70
 747 0481 0B       		.byte	0xb
 748 0482 2C       		.byte	0x2c
 749 0483 10040000 		.4byte	0x410
 750 0487 14       		.byte	0x14
 751 0488 06       		.uleb128 0x6
 752 0489 00000000 		.4byte	.LASF71
 753 048d 0B       		.byte	0xb
 754 048e 2D       		.byte	0x2d
 755 048f EF000000 		.4byte	0xef
 756 0493 18       		.byte	0x18
 757 0494 00       		.byte	0
 758 0495 04       		.uleb128 0x4
 759 0496 6D000000 		.4byte	.LASF72
 760 049a 0B       		.byte	0xb
 761 049b 2E       		.byte	0x2e
 762 049c 68040000 		.4byte	0x468
 763 04a0 13       		.uleb128 0x13
 764 04a1 EB020000 		.4byte	.LASF80
 765 04a5 01       		.byte	0x1
 766 04a6 27       		.byte	0x27
 767 04a7 00000000 		.4byte	.LFB7
 768 04ab 22000000 		.4byte	.LFE7-.LFB7
 769 04af 01       		.uleb128 0x1
 770 04b0 9C       		.byte	0x9c
 771 04b1 0C050000 		.4byte	0x50c
 772 04b5 14       		.uleb128 0x14
 773 04b6 7000     		.ascii	"p\000"
 774 04b8 01       		.byte	0x1
 775 04b9 27       		.byte	0x27
 776 04ba 53020000 		.4byte	0x253
 777 04be 00000000 		.4byte	.LLST0
 778 04c2 15       		.uleb128 0x15
 779 04c3 65747000 		.ascii	"etp\000"
 780 04c7 01       		.byte	0x1
 781 04c8 28       		.byte	0x28
 782 04c9 0C050000 		.4byte	0x50c
 783 04cd 37000000 		.4byte	.LLST1
 784 04d1 16       		.uleb128 0x16
 785 04d2 0C000000 		.4byte	.LVL3
 786 04d6 F6050000 		.4byte	0x5f6
 787 04da EA040000 		.4byte	0x4ea
 788 04de 17       		.uleb128 0x17
 789 04df 01       		.uleb128 0x1
 790 04e0 51       		.byte	0x51
 791 04e1 01       		.uleb128 0x1
 792 04e2 30       		.byte	0x30
 793 04e3 17       		.uleb128 0x17
 794 04e4 01       		.uleb128 0x1
ARM GAS  /tmp/ccxyk6D9.s 			page 15


 795 04e5 50       		.byte	0x50
 796 04e6 02       		.uleb128 0x2
 797 04e7 74       		.byte	0x74
 798 04e8 14       		.sleb128 20
 799 04e9 00       		.byte	0
 800 04ea 18       		.uleb128 0x18
 801 04eb 22000000 		.4byte	.LVL5
 802 04ef 12060000 		.4byte	0x612
 803 04f3 17       		.uleb128 0x17
 804 04f4 01       		.uleb128 0x1
 805 04f5 53       		.byte	0x53
 806 04f6 03       		.uleb128 0x3
 807 04f7 F3       		.byte	0xf3
 808 04f8 01       		.uleb128 0x1
 809 04f9 50       		.byte	0x50
 810 04fa 17       		.uleb128 0x17
 811 04fb 01       		.uleb128 0x1
 812 04fc 52       		.byte	0x52
 813 04fd 05       		.uleb128 0x5
 814 04fe 03       		.byte	0x3
 815 04ff 00000000 		.4byte	tmrcb
 816 0503 17       		.uleb128 0x17
 817 0504 01       		.uleb128 0x1
 818 0505 50       		.byte	0x50
 819 0506 03       		.uleb128 0x3
 820 0507 F3       		.byte	0xf3
 821 0508 01       		.uleb128 0x1
 822 0509 50       		.byte	0x50
 823 050a 00       		.byte	0
 824 050b 00       		.byte	0
 825 050c 09       		.uleb128 0x9
 826 050d 04       		.byte	0x4
 827 050e 95040000 		.4byte	0x495
 828 0512 19       		.uleb128 0x19
 829 0513 43000000 		.4byte	.LASF73
 830 0517 01       		.byte	0x1
 831 0518 34       		.byte	0x34
 832 0519 00000000 		.4byte	.LFB8
 833 051d 2C000000 		.4byte	.LFE8-.LFB8
 834 0521 01       		.uleb128 0x1
 835 0522 9C       		.byte	0x9c
 836 0523 8A050000 		.4byte	0x58a
 837 0527 14       		.uleb128 0x14
 838 0528 65747000 		.ascii	"etp\000"
 839 052c 01       		.byte	0x1
 840 052d 34       		.byte	0x34
 841 052e 0C050000 		.4byte	0x50c
 842 0532 6E000000 		.4byte	.LLST2
 843 0536 1A       		.uleb128 0x1a
 844 0537 02000000 		.4byte	.LBB2
 845 053b 06000000 		.4byte	.LBE2-.LBB2
 846 053f 51050000 		.4byte	0x551
 847 0543 1B       		.uleb128 0x1b
 848 0544 746D7000 		.ascii	"tmp\000"
 849 0548 01       		.byte	0x1
 850 0549 36       		.byte	0x36
 851 054a A2000000 		.4byte	0xa2
ARM GAS  /tmp/ccxyk6D9.s 			page 16


 852 054e 01       		.uleb128 0x1
 853 054f 53       		.byte	0x53
 854 0550 00       		.byte	0
 855 0551 1C       		.uleb128 0x1c
 856 0552 00000000 		.4byte	.Ldebug_ranges0+0
 857 0556 68050000 		.4byte	0x568
 858 055a 1B       		.uleb128 0x1b
 859 055b 746D7000 		.ascii	"tmp\000"
 860 055f 01       		.byte	0x1
 861 0560 3B       		.byte	0x3b
 862 0561 A2000000 		.4byte	0xa2
 863 0565 01       		.uleb128 0x1
 864 0566 53       		.byte	0x53
 865 0567 00       		.byte	0
 866 0568 1D       		.uleb128 0x1d
 867 0569 24000000 		.4byte	.LVL7
 868 056d 12060000 		.4byte	0x612
 869 0571 17       		.uleb128 0x17
 870 0572 01       		.uleb128 0x1
 871 0573 53       		.byte	0x53
 872 0574 03       		.uleb128 0x3
 873 0575 F3       		.byte	0xf3
 874 0576 01       		.uleb128 0x1
 875 0577 50       		.byte	0x50
 876 0578 17       		.uleb128 0x17
 877 0579 01       		.uleb128 0x1
 878 057a 52       		.byte	0x52
 879 057b 05       		.uleb128 0x5
 880 057c 03       		.byte	0x3
 881 057d 00000000 		.4byte	tmrcb
 882 0581 17       		.uleb128 0x17
 883 0582 01       		.uleb128 0x1
 884 0583 50       		.byte	0x50
 885 0584 03       		.uleb128 0x3
 886 0585 F3       		.byte	0xf3
 887 0586 01       		.uleb128 0x1
 888 0587 50       		.byte	0x50
 889 0588 00       		.byte	0
 890 0589 00       		.byte	0
 891 058a 19       		.uleb128 0x19
 892 058b 17030000 		.4byte	.LASF74
 893 058f 01       		.byte	0x1
 894 0590 44       		.byte	0x44
 895 0591 00000000 		.4byte	.LFB9
 896 0595 18000000 		.4byte	.LFE9-.LFB9
 897 0599 01       		.uleb128 0x1
 898 059a 9C       		.byte	0x9c
 899 059b F6050000 		.4byte	0x5f6
 900 059f 14       		.uleb128 0x14
 901 05a0 65747000 		.ascii	"etp\000"
 902 05a4 01       		.byte	0x1
 903 05a5 44       		.byte	0x44
 904 05a6 0C050000 		.4byte	0x50c
 905 05aa 8F000000 		.4byte	.LLST3
 906 05ae 1A       		.uleb128 0x1a
 907 05af 02000000 		.4byte	.LBB5
 908 05b3 06000000 		.4byte	.LBE5-.LBB5
ARM GAS  /tmp/ccxyk6D9.s 			page 17


 909 05b7 C9050000 		.4byte	0x5c9
 910 05bb 1B       		.uleb128 0x1b
 911 05bc 746D7000 		.ascii	"tmp\000"
 912 05c0 01       		.byte	0x1
 913 05c1 46       		.byte	0x46
 914 05c2 A2000000 		.4byte	0xa2
 915 05c6 01       		.uleb128 0x1
 916 05c7 53       		.byte	0x53
 917 05c8 00       		.byte	0
 918 05c9 1A       		.uleb128 0x1a
 919 05ca 10000000 		.4byte	.LBB6
 920 05ce 08000000 		.4byte	.LBE6-.LBB6
 921 05d2 E4050000 		.4byte	0x5e4
 922 05d6 1B       		.uleb128 0x1b
 923 05d7 746D7000 		.ascii	"tmp\000"
 924 05db 01       		.byte	0x1
 925 05dc 4B       		.byte	0x4b
 926 05dd A2000000 		.4byte	0xa2
 927 05e1 01       		.uleb128 0x1
 928 05e2 53       		.byte	0x53
 929 05e3 00       		.byte	0
 930 05e4 1D       		.uleb128 0x1d
 931 05e5 10000000 		.4byte	.LVL9
 932 05e9 32060000 		.4byte	0x632
 933 05ed 17       		.uleb128 0x17
 934 05ee 01       		.uleb128 0x1
 935 05ef 50       		.byte	0x50
 936 05f0 03       		.uleb128 0x3
 937 05f1 F3       		.byte	0xf3
 938 05f2 01       		.uleb128 0x1
 939 05f3 50       		.byte	0x50
 940 05f4 00       		.byte	0
 941 05f5 00       		.byte	0
 942 05f6 1E       		.uleb128 0x1e
 943 05f7 97000000 		.4byte	.LASF75
 944 05fb 0A       		.byte	0xa
 945 05fc B3       		.byte	0xb3
 946 05fd 0C060000 		.4byte	0x60c
 947 0601 0E       		.uleb128 0xe
 948 0602 0C060000 		.4byte	0x60c
 949 0606 0E       		.uleb128 0xe
 950 0607 E4000000 		.4byte	0xe4
 951 060b 00       		.byte	0
 952 060c 09       		.uleb128 0x9
 953 060d 04       		.byte	0x4
 954 060e 10040000 		.4byte	0x410
 955 0612 1E       		.uleb128 0x1e
 956 0613 22020000 		.4byte	.LASF76
 957 0617 08       		.byte	0x8
 958 0618 B1       		.byte	0xb1
 959 0619 32060000 		.4byte	0x632
 960 061d 0E       		.uleb128 0xe
 961 061e 68030000 		.4byte	0x368
 962 0622 0E       		.uleb128 0xe
 963 0623 EF000000 		.4byte	0xef
 964 0627 0E       		.uleb128 0xe
 965 0628 F8020000 		.4byte	0x2f8
ARM GAS  /tmp/ccxyk6D9.s 			page 18


 966 062c 0E       		.uleb128 0xe
 967 062d 53020000 		.4byte	0x253
 968 0631 00       		.byte	0
 969 0632 1F       		.uleb128 0x1f
 970 0633 BA020000 		.4byte	.LASF81
 971 0637 08       		.byte	0x8
 972 0638 B2       		.byte	0xb2
 973 0639 0E       		.uleb128 0xe
 974 063a 68030000 		.4byte	0x368
 975 063e 00       		.byte	0
 976 063f 00       		.byte	0
 977              		.section	.debug_abbrev,"",%progbits
 978              	.Ldebug_abbrev0:
 979 0000 01       		.uleb128 0x1
 980 0001 11       		.uleb128 0x11
 981 0002 01       		.byte	0x1
 982 0003 25       		.uleb128 0x25
 983 0004 0E       		.uleb128 0xe
 984 0005 13       		.uleb128 0x13
 985 0006 0B       		.uleb128 0xb
 986 0007 03       		.uleb128 0x3
 987 0008 0E       		.uleb128 0xe
 988 0009 1B       		.uleb128 0x1b
 989 000a 0E       		.uleb128 0xe
 990 000b 55       		.uleb128 0x55
 991 000c 17       		.uleb128 0x17
 992 000d 11       		.uleb128 0x11
 993 000e 01       		.uleb128 0x1
 994 000f 10       		.uleb128 0x10
 995 0010 17       		.uleb128 0x17
 996 0011 00       		.byte	0
 997 0012 00       		.byte	0
 998 0013 02       		.uleb128 0x2
 999 0014 24       		.uleb128 0x24
 1000 0015 00       		.byte	0
 1001 0016 0B       		.uleb128 0xb
 1002 0017 0B       		.uleb128 0xb
 1003 0018 3E       		.uleb128 0x3e
 1004 0019 0B       		.uleb128 0xb
 1005 001a 03       		.uleb128 0x3
 1006 001b 08       		.uleb128 0x8
 1007 001c 00       		.byte	0
 1008 001d 00       		.byte	0
 1009 001e 03       		.uleb128 0x3
 1010 001f 24       		.uleb128 0x24
 1011 0020 00       		.byte	0
 1012 0021 0B       		.uleb128 0xb
 1013 0022 0B       		.uleb128 0xb
 1014 0023 3E       		.uleb128 0x3e
 1015 0024 0B       		.uleb128 0xb
 1016 0025 03       		.uleb128 0x3
 1017 0026 0E       		.uleb128 0xe
 1018 0027 00       		.byte	0
 1019 0028 00       		.byte	0
 1020 0029 04       		.uleb128 0x4
 1021 002a 16       		.uleb128 0x16
 1022 002b 00       		.byte	0
ARM GAS  /tmp/ccxyk6D9.s 			page 19


 1023 002c 03       		.uleb128 0x3
 1024 002d 0E       		.uleb128 0xe
 1025 002e 3A       		.uleb128 0x3a
 1026 002f 0B       		.uleb128 0xb
 1027 0030 3B       		.uleb128 0x3b
 1028 0031 0B       		.uleb128 0xb
 1029 0032 49       		.uleb128 0x49
 1030 0033 13       		.uleb128 0x13
 1031 0034 00       		.byte	0
 1032 0035 00       		.byte	0
 1033 0036 05       		.uleb128 0x5
 1034 0037 13       		.uleb128 0x13
 1035 0038 01       		.byte	0x1
 1036 0039 03       		.uleb128 0x3
 1037 003a 0E       		.uleb128 0xe
 1038 003b 0B       		.uleb128 0xb
 1039 003c 0B       		.uleb128 0xb
 1040 003d 3A       		.uleb128 0x3a
 1041 003e 0B       		.uleb128 0xb
 1042 003f 3B       		.uleb128 0x3b
 1043 0040 0B       		.uleb128 0xb
 1044 0041 01       		.uleb128 0x1
 1045 0042 13       		.uleb128 0x13
 1046 0043 00       		.byte	0
 1047 0044 00       		.byte	0
 1048 0045 06       		.uleb128 0x6
 1049 0046 0D       		.uleb128 0xd
 1050 0047 00       		.byte	0
 1051 0048 03       		.uleb128 0x3
 1052 0049 0E       		.uleb128 0xe
 1053 004a 3A       		.uleb128 0x3a
 1054 004b 0B       		.uleb128 0xb
 1055 004c 3B       		.uleb128 0x3b
 1056 004d 0B       		.uleb128 0xb
 1057 004e 49       		.uleb128 0x49
 1058 004f 13       		.uleb128 0x13
 1059 0050 38       		.uleb128 0x38
 1060 0051 0B       		.uleb128 0xb
 1061 0052 00       		.byte	0
 1062 0053 00       		.byte	0
 1063 0054 07       		.uleb128 0x7
 1064 0055 0D       		.uleb128 0xd
 1065 0056 00       		.byte	0
 1066 0057 03       		.uleb128 0x3
 1067 0058 08       		.uleb128 0x8
 1068 0059 3A       		.uleb128 0x3a
 1069 005a 0B       		.uleb128 0xb
 1070 005b 3B       		.uleb128 0x3b
 1071 005c 0B       		.uleb128 0xb
 1072 005d 49       		.uleb128 0x49
 1073 005e 13       		.uleb128 0x13
 1074 005f 38       		.uleb128 0x38
 1075 0060 0B       		.uleb128 0xb
 1076 0061 00       		.byte	0
 1077 0062 00       		.byte	0
 1078 0063 08       		.uleb128 0x8
 1079 0064 13       		.uleb128 0x13
ARM GAS  /tmp/ccxyk6D9.s 			page 20


 1080 0065 01       		.byte	0x1
 1081 0066 0B       		.uleb128 0xb
 1082 0067 0B       		.uleb128 0xb
 1083 0068 3A       		.uleb128 0x3a
 1084 0069 0B       		.uleb128 0xb
 1085 006a 3B       		.uleb128 0x3b
 1086 006b 0B       		.uleb128 0xb
 1087 006c 01       		.uleb128 0x1
 1088 006d 13       		.uleb128 0x13
 1089 006e 00       		.byte	0
 1090 006f 00       		.byte	0
 1091 0070 09       		.uleb128 0x9
 1092 0071 0F       		.uleb128 0xf
 1093 0072 00       		.byte	0
 1094 0073 0B       		.uleb128 0xb
 1095 0074 0B       		.uleb128 0xb
 1096 0075 49       		.uleb128 0x49
 1097 0076 13       		.uleb128 0x13
 1098 0077 00       		.byte	0
 1099 0078 00       		.byte	0
 1100 0079 0A       		.uleb128 0xa
 1101 007a 0F       		.uleb128 0xf
 1102 007b 00       		.byte	0
 1103 007c 0B       		.uleb128 0xb
 1104 007d 0B       		.uleb128 0xb
 1105 007e 00       		.byte	0
 1106 007f 00       		.byte	0
 1107 0080 0B       		.uleb128 0xb
 1108 0081 0D       		.uleb128 0xd
 1109 0082 00       		.byte	0
 1110 0083 03       		.uleb128 0x3
 1111 0084 08       		.uleb128 0x8
 1112 0085 3A       		.uleb128 0x3a
 1113 0086 0B       		.uleb128 0xb
 1114 0087 3B       		.uleb128 0x3b
 1115 0088 05       		.uleb128 0x5
 1116 0089 49       		.uleb128 0x49
 1117 008a 13       		.uleb128 0x13
 1118 008b 38       		.uleb128 0x38
 1119 008c 0B       		.uleb128 0xb
 1120 008d 00       		.byte	0
 1121 008e 00       		.byte	0
 1122 008f 0C       		.uleb128 0xc
 1123 0090 13       		.uleb128 0x13
 1124 0091 01       		.byte	0x1
 1125 0092 03       		.uleb128 0x3
 1126 0093 0E       		.uleb128 0xe
 1127 0094 0B       		.uleb128 0xb
 1128 0095 0B       		.uleb128 0xb
 1129 0096 3A       		.uleb128 0x3a
 1130 0097 0B       		.uleb128 0xb
 1131 0098 3B       		.uleb128 0x3b
 1132 0099 05       		.uleb128 0x5
 1133 009a 01       		.uleb128 0x1
 1134 009b 13       		.uleb128 0x13
 1135 009c 00       		.byte	0
 1136 009d 00       		.byte	0
ARM GAS  /tmp/ccxyk6D9.s 			page 21


 1137 009e 0D       		.uleb128 0xd
 1138 009f 15       		.uleb128 0x15
 1139 00a0 01       		.byte	0x1
 1140 00a1 27       		.uleb128 0x27
 1141 00a2 19       		.uleb128 0x19
 1142 00a3 01       		.uleb128 0x1
 1143 00a4 13       		.uleb128 0x13
 1144 00a5 00       		.byte	0
 1145 00a6 00       		.byte	0
 1146 00a7 0E       		.uleb128 0xe
 1147 00a8 05       		.uleb128 0x5
 1148 00a9 00       		.byte	0
 1149 00aa 49       		.uleb128 0x49
 1150 00ab 13       		.uleb128 0x13
 1151 00ac 00       		.byte	0
 1152 00ad 00       		.byte	0
 1153 00ae 0F       		.uleb128 0xf
 1154 00af 35       		.uleb128 0x35
 1155 00b0 00       		.byte	0
 1156 00b1 49       		.uleb128 0x49
 1157 00b2 13       		.uleb128 0x13
 1158 00b3 00       		.byte	0
 1159 00b4 00       		.byte	0
 1160 00b5 10       		.uleb128 0x10
 1161 00b6 17       		.uleb128 0x17
 1162 00b7 01       		.byte	0x1
 1163 00b8 0B       		.uleb128 0xb
 1164 00b9 0B       		.uleb128 0xb
 1165 00ba 3A       		.uleb128 0x3a
 1166 00bb 0B       		.uleb128 0xb
 1167 00bc 3B       		.uleb128 0x3b
 1168 00bd 0B       		.uleb128 0xb
 1169 00be 01       		.uleb128 0x1
 1170 00bf 13       		.uleb128 0x13
 1171 00c0 00       		.byte	0
 1172 00c1 00       		.byte	0
 1173 00c2 11       		.uleb128 0x11
 1174 00c3 0D       		.uleb128 0xd
 1175 00c4 00       		.byte	0
 1176 00c5 03       		.uleb128 0x3
 1177 00c6 0E       		.uleb128 0xe
 1178 00c7 3A       		.uleb128 0x3a
 1179 00c8 0B       		.uleb128 0xb
 1180 00c9 3B       		.uleb128 0x3b
 1181 00ca 0B       		.uleb128 0xb
 1182 00cb 49       		.uleb128 0x49
 1183 00cc 13       		.uleb128 0x13
 1184 00cd 00       		.byte	0
 1185 00ce 00       		.byte	0
 1186 00cf 12       		.uleb128 0x12
 1187 00d0 26       		.uleb128 0x26
 1188 00d1 00       		.byte	0
 1189 00d2 49       		.uleb128 0x49
 1190 00d3 13       		.uleb128 0x13
 1191 00d4 00       		.byte	0
 1192 00d5 00       		.byte	0
 1193 00d6 13       		.uleb128 0x13
ARM GAS  /tmp/ccxyk6D9.s 			page 22


 1194 00d7 2E       		.uleb128 0x2e
 1195 00d8 01       		.byte	0x1
 1196 00d9 03       		.uleb128 0x3
 1197 00da 0E       		.uleb128 0xe
 1198 00db 3A       		.uleb128 0x3a
 1199 00dc 0B       		.uleb128 0xb
 1200 00dd 3B       		.uleb128 0x3b
 1201 00de 0B       		.uleb128 0xb
 1202 00df 27       		.uleb128 0x27
 1203 00e0 19       		.uleb128 0x19
 1204 00e1 11       		.uleb128 0x11
 1205 00e2 01       		.uleb128 0x1
 1206 00e3 12       		.uleb128 0x12
 1207 00e4 06       		.uleb128 0x6
 1208 00e5 40       		.uleb128 0x40
 1209 00e6 18       		.uleb128 0x18
 1210 00e7 9742     		.uleb128 0x2117
 1211 00e9 19       		.uleb128 0x19
 1212 00ea 01       		.uleb128 0x1
 1213 00eb 13       		.uleb128 0x13
 1214 00ec 00       		.byte	0
 1215 00ed 00       		.byte	0
 1216 00ee 14       		.uleb128 0x14
 1217 00ef 05       		.uleb128 0x5
 1218 00f0 00       		.byte	0
 1219 00f1 03       		.uleb128 0x3
 1220 00f2 08       		.uleb128 0x8
 1221 00f3 3A       		.uleb128 0x3a
 1222 00f4 0B       		.uleb128 0xb
 1223 00f5 3B       		.uleb128 0x3b
 1224 00f6 0B       		.uleb128 0xb
 1225 00f7 49       		.uleb128 0x49
 1226 00f8 13       		.uleb128 0x13
 1227 00f9 02       		.uleb128 0x2
 1228 00fa 17       		.uleb128 0x17
 1229 00fb 00       		.byte	0
 1230 00fc 00       		.byte	0
 1231 00fd 15       		.uleb128 0x15
 1232 00fe 34       		.uleb128 0x34
 1233 00ff 00       		.byte	0
 1234 0100 03       		.uleb128 0x3
 1235 0101 08       		.uleb128 0x8
 1236 0102 3A       		.uleb128 0x3a
 1237 0103 0B       		.uleb128 0xb
 1238 0104 3B       		.uleb128 0x3b
 1239 0105 0B       		.uleb128 0xb
 1240 0106 49       		.uleb128 0x49
 1241 0107 13       		.uleb128 0x13
 1242 0108 02       		.uleb128 0x2
 1243 0109 17       		.uleb128 0x17
 1244 010a 00       		.byte	0
 1245 010b 00       		.byte	0
 1246 010c 16       		.uleb128 0x16
 1247 010d 898201   		.uleb128 0x4109
 1248 0110 01       		.byte	0x1
 1249 0111 11       		.uleb128 0x11
 1250 0112 01       		.uleb128 0x1
ARM GAS  /tmp/ccxyk6D9.s 			page 23


 1251 0113 31       		.uleb128 0x31
 1252 0114 13       		.uleb128 0x13
 1253 0115 01       		.uleb128 0x1
 1254 0116 13       		.uleb128 0x13
 1255 0117 00       		.byte	0
 1256 0118 00       		.byte	0
 1257 0119 17       		.uleb128 0x17
 1258 011a 8A8201   		.uleb128 0x410a
 1259 011d 00       		.byte	0
 1260 011e 02       		.uleb128 0x2
 1261 011f 18       		.uleb128 0x18
 1262 0120 9142     		.uleb128 0x2111
 1263 0122 18       		.uleb128 0x18
 1264 0123 00       		.byte	0
 1265 0124 00       		.byte	0
 1266 0125 18       		.uleb128 0x18
 1267 0126 898201   		.uleb128 0x4109
 1268 0129 01       		.byte	0x1
 1269 012a 11       		.uleb128 0x11
 1270 012b 01       		.uleb128 0x1
 1271 012c 9542     		.uleb128 0x2115
 1272 012e 19       		.uleb128 0x19
 1273 012f 31       		.uleb128 0x31
 1274 0130 13       		.uleb128 0x13
 1275 0131 00       		.byte	0
 1276 0132 00       		.byte	0
 1277 0133 19       		.uleb128 0x19
 1278 0134 2E       		.uleb128 0x2e
 1279 0135 01       		.byte	0x1
 1280 0136 3F       		.uleb128 0x3f
 1281 0137 19       		.uleb128 0x19
 1282 0138 03       		.uleb128 0x3
 1283 0139 0E       		.uleb128 0xe
 1284 013a 3A       		.uleb128 0x3a
 1285 013b 0B       		.uleb128 0xb
 1286 013c 3B       		.uleb128 0x3b
 1287 013d 0B       		.uleb128 0xb
 1288 013e 27       		.uleb128 0x27
 1289 013f 19       		.uleb128 0x19
 1290 0140 11       		.uleb128 0x11
 1291 0141 01       		.uleb128 0x1
 1292 0142 12       		.uleb128 0x12
 1293 0143 06       		.uleb128 0x6
 1294 0144 40       		.uleb128 0x40
 1295 0145 18       		.uleb128 0x18
 1296 0146 9742     		.uleb128 0x2117
 1297 0148 19       		.uleb128 0x19
 1298 0149 01       		.uleb128 0x1
 1299 014a 13       		.uleb128 0x13
 1300 014b 00       		.byte	0
 1301 014c 00       		.byte	0
 1302 014d 1A       		.uleb128 0x1a
 1303 014e 0B       		.uleb128 0xb
 1304 014f 01       		.byte	0x1
 1305 0150 11       		.uleb128 0x11
 1306 0151 01       		.uleb128 0x1
 1307 0152 12       		.uleb128 0x12
ARM GAS  /tmp/ccxyk6D9.s 			page 24


 1308 0153 06       		.uleb128 0x6
 1309 0154 01       		.uleb128 0x1
 1310 0155 13       		.uleb128 0x13
 1311 0156 00       		.byte	0
 1312 0157 00       		.byte	0
 1313 0158 1B       		.uleb128 0x1b
 1314 0159 34       		.uleb128 0x34
 1315 015a 00       		.byte	0
 1316 015b 03       		.uleb128 0x3
 1317 015c 08       		.uleb128 0x8
 1318 015d 3A       		.uleb128 0x3a
 1319 015e 0B       		.uleb128 0xb
 1320 015f 3B       		.uleb128 0x3b
 1321 0160 0B       		.uleb128 0xb
 1322 0161 49       		.uleb128 0x49
 1323 0162 13       		.uleb128 0x13
 1324 0163 02       		.uleb128 0x2
 1325 0164 18       		.uleb128 0x18
 1326 0165 00       		.byte	0
 1327 0166 00       		.byte	0
 1328 0167 1C       		.uleb128 0x1c
 1329 0168 0B       		.uleb128 0xb
 1330 0169 01       		.byte	0x1
 1331 016a 55       		.uleb128 0x55
 1332 016b 17       		.uleb128 0x17
 1333 016c 01       		.uleb128 0x1
 1334 016d 13       		.uleb128 0x13
 1335 016e 00       		.byte	0
 1336 016f 00       		.byte	0
 1337 0170 1D       		.uleb128 0x1d
 1338 0171 898201   		.uleb128 0x4109
 1339 0174 01       		.byte	0x1
 1340 0175 11       		.uleb128 0x11
 1341 0176 01       		.uleb128 0x1
 1342 0177 31       		.uleb128 0x31
 1343 0178 13       		.uleb128 0x13
 1344 0179 00       		.byte	0
 1345 017a 00       		.byte	0
 1346 017b 1E       		.uleb128 0x1e
 1347 017c 2E       		.uleb128 0x2e
 1348 017d 01       		.byte	0x1
 1349 017e 3F       		.uleb128 0x3f
 1350 017f 19       		.uleb128 0x19
 1351 0180 03       		.uleb128 0x3
 1352 0181 0E       		.uleb128 0xe
 1353 0182 3A       		.uleb128 0x3a
 1354 0183 0B       		.uleb128 0xb
 1355 0184 3B       		.uleb128 0x3b
 1356 0185 0B       		.uleb128 0xb
 1357 0186 27       		.uleb128 0x27
 1358 0187 19       		.uleb128 0x19
 1359 0188 3C       		.uleb128 0x3c
 1360 0189 19       		.uleb128 0x19
 1361 018a 01       		.uleb128 0x1
 1362 018b 13       		.uleb128 0x13
 1363 018c 00       		.byte	0
 1364 018d 00       		.byte	0
ARM GAS  /tmp/ccxyk6D9.s 			page 25


 1365 018e 1F       		.uleb128 0x1f
 1366 018f 2E       		.uleb128 0x2e
 1367 0190 01       		.byte	0x1
 1368 0191 3F       		.uleb128 0x3f
 1369 0192 19       		.uleb128 0x19
 1370 0193 03       		.uleb128 0x3
 1371 0194 0E       		.uleb128 0xe
 1372 0195 3A       		.uleb128 0x3a
 1373 0196 0B       		.uleb128 0xb
 1374 0197 3B       		.uleb128 0x3b
 1375 0198 0B       		.uleb128 0xb
 1376 0199 27       		.uleb128 0x27
 1377 019a 19       		.uleb128 0x19
 1378 019b 3C       		.uleb128 0x3c
 1379 019c 19       		.uleb128 0x19
 1380 019d 00       		.byte	0
 1381 019e 00       		.byte	0
 1382 019f 00       		.byte	0
 1383              		.section	.debug_loc,"",%progbits
 1384              	.Ldebug_loc0:
 1385              	.LLST0:
 1386 0000 00000000 		.4byte	.LVL0
 1387 0004 08000000 		.4byte	.LVL2
 1388 0008 0100     		.2byte	0x1
 1389 000a 50       		.byte	0x50
 1390 000b 08000000 		.4byte	.LVL2
 1391 000f 1E000000 		.4byte	.LVL4
 1392 0013 0100     		.2byte	0x1
 1393 0015 54       		.byte	0x54
 1394 0016 1E000000 		.4byte	.LVL4
 1395 001a 21000000 		.4byte	.LVL5-1
 1396 001e 0100     		.2byte	0x1
 1397 0020 50       		.byte	0x50
 1398 0021 21000000 		.4byte	.LVL5-1
 1399 0025 22000000 		.4byte	.LFE7
 1400 0029 0400     		.2byte	0x4
 1401 002b F3       		.byte	0xf3
 1402 002c 01       		.uleb128 0x1
 1403 002d 50       		.byte	0x50
 1404 002e 9F       		.byte	0x9f
 1405 002f 00000000 		.4byte	0
 1406 0033 00000000 		.4byte	0
 1407              	.LLST1:
 1408 0037 06000000 		.4byte	.LVL1
 1409 003b 08000000 		.4byte	.LVL2
 1410 003f 0100     		.2byte	0x1
 1411 0041 50       		.byte	0x50
 1412 0042 08000000 		.4byte	.LVL2
 1413 0046 1E000000 		.4byte	.LVL4
 1414 004a 0100     		.2byte	0x1
 1415 004c 54       		.byte	0x54
 1416 004d 1E000000 		.4byte	.LVL4
 1417 0051 21000000 		.4byte	.LVL5-1
 1418 0055 0100     		.2byte	0x1
 1419 0057 50       		.byte	0x50
 1420 0058 21000000 		.4byte	.LVL5-1
 1421 005c 22000000 		.4byte	.LFE7
ARM GAS  /tmp/ccxyk6D9.s 			page 26


 1422 0060 0400     		.2byte	0x4
 1423 0062 F3       		.byte	0xf3
 1424 0063 01       		.uleb128 0x1
 1425 0064 50       		.byte	0x50
 1426 0065 9F       		.byte	0x9f
 1427 0066 00000000 		.4byte	0
 1428 006a 00000000 		.4byte	0
 1429              	.LLST2:
 1430 006e 00000000 		.4byte	.LVL6
 1431 0072 23000000 		.4byte	.LVL7-1
 1432 0076 0100     		.2byte	0x1
 1433 0078 50       		.byte	0x50
 1434 0079 23000000 		.4byte	.LVL7-1
 1435 007d 2C000000 		.4byte	.LFE8
 1436 0081 0400     		.2byte	0x4
 1437 0083 F3       		.byte	0xf3
 1438 0084 01       		.uleb128 0x1
 1439 0085 50       		.byte	0x50
 1440 0086 9F       		.byte	0x9f
 1441 0087 00000000 		.4byte	0
 1442 008b 00000000 		.4byte	0
 1443              	.LLST3:
 1444 008f 00000000 		.4byte	.LVL8
 1445 0093 0F000000 		.4byte	.LVL9-1
 1446 0097 0100     		.2byte	0x1
 1447 0099 50       		.byte	0x50
 1448 009a 0F000000 		.4byte	.LVL9-1
 1449 009e 18000000 		.4byte	.LFE9
 1450 00a2 0400     		.2byte	0x4
 1451 00a4 F3       		.byte	0xf3
 1452 00a5 01       		.uleb128 0x1
 1453 00a6 50       		.byte	0x50
 1454 00a7 9F       		.byte	0x9f
 1455 00a8 00000000 		.4byte	0
 1456 00ac 00000000 		.4byte	0
 1457              		.section	.debug_aranges,"",%progbits
 1458 0000 2C000000 		.4byte	0x2c
 1459 0004 0200     		.2byte	0x2
 1460 0006 00000000 		.4byte	.Ldebug_info0
 1461 000a 04       		.byte	0x4
 1462 000b 00       		.byte	0
 1463 000c 0000     		.2byte	0
 1464 000e 0000     		.2byte	0
 1465 0010 00000000 		.4byte	.LFB7
 1466 0014 22000000 		.4byte	.LFE7-.LFB7
 1467 0018 00000000 		.4byte	.LFB8
 1468 001c 2C000000 		.4byte	.LFE8-.LFB8
 1469 0020 00000000 		.4byte	.LFB9
 1470 0024 18000000 		.4byte	.LFE9-.LFB9
 1471 0028 00000000 		.4byte	0
 1472 002c 00000000 		.4byte	0
 1473              		.section	.debug_ranges,"",%progbits
 1474              	.Ldebug_ranges0:
 1475 0000 0C000000 		.4byte	.LBB3
 1476 0004 14000000 		.4byte	.LBE3
 1477 0008 24000000 		.4byte	.LBB4
 1478 000c 2C000000 		.4byte	.LBE4
ARM GAS  /tmp/ccxyk6D9.s 			page 27


 1479 0010 00000000 		.4byte	0
 1480 0014 00000000 		.4byte	0
 1481 0018 00000000 		.4byte	.LFB7
 1482 001c 22000000 		.4byte	.LFE7
 1483 0020 00000000 		.4byte	.LFB8
 1484 0024 2C000000 		.4byte	.LFE8
 1485 0028 00000000 		.4byte	.LFB9
 1486 002c 18000000 		.4byte	.LFE9
 1487 0030 00000000 		.4byte	0
 1488 0034 00000000 		.4byte	0
 1489              		.section	.debug_line,"",%progbits
 1490              	.Ldebug_line0:
 1491 0000 5F010000 		.section	.debug_str,"MS",%progbits,1
 1491      02001C01 
 1491      00000201 
 1491      FB0E0D00 
 1491      01010101 
 1492              	.LASF71:
 1493 0000 65745F69 		.ascii	"et_interval\000"
 1493      6E746572 
 1493      76616C00 
 1494              	.LASF36:
 1495 000c 705F6D73 		.ascii	"p_msg\000"
 1495      6700
 1496              	.LASF64:
 1497 0012 7264796D 		.ascii	"rdymsg\000"
 1497      736700
 1498              	.LASF5:
 1499 0019 5F5F7569 		.ascii	"__uint8_t\000"
 1499      6E74385F 
 1499      7400
 1500              	.LASF11:
 1501 0023 6C6F6E67 		.ascii	"long long unsigned int\000"
 1501      206C6F6E 
 1501      6720756E 
 1501      7369676E 
 1501      65642069 
 1502              	.LASF65:
 1503 003a 65786974 		.ascii	"exitcode\000"
 1503      636F6465 
 1503      00
 1504              	.LASF73:
 1505 0043 65767453 		.ascii	"evtStart\000"
 1505      74617274 
 1505      00
 1506              	.LASF25:
 1507 004c 705F7072 		.ascii	"p_prio\000"
 1507      696F00
 1508              	.LASF10:
 1509 0053 6C6F6E67 		.ascii	"long long int\000"
 1509      206C6F6E 
 1509      6720696E 
 1509      7400
 1510              	.LASF1:
 1511 0061 7369676E 		.ascii	"signed char\000"
 1511      65642063 
 1511      68617200 
ARM GAS  /tmp/ccxyk6D9.s 			page 28


 1512              	.LASF72:
 1513 006d 45765469 		.ascii	"EvTimer\000"
 1513      6D657200 
 1514              	.LASF40:
 1515 0075 705F6D70 		.ascii	"p_mpool\000"
 1515      6F6F6C00 
 1516              	.LASF55:
 1517 007d 6D5F7175 		.ascii	"m_queue\000"
 1517      65756500 
 1518              	.LASF7:
 1519 0085 6C6F6E67 		.ascii	"long int\000"
 1519      20696E74 
 1519      00
 1520              	.LASF16:
 1521 008e 74737461 		.ascii	"tstate_t\000"
 1521      74655F74 
 1521      00
 1522              	.LASF75:
 1523 0097 63684576 		.ascii	"chEvtBroadcastFlagsI\000"
 1523      7442726F 
 1523      61646361 
 1523      7374466C 
 1523      61677349 
 1524              	.LASF27:
 1525 00ac 705F6E65 		.ascii	"p_newer\000"
 1525      77657200 
 1526              	.LASF8:
 1527 00b4 5F5F7569 		.ascii	"__uint32_t\000"
 1527      6E743332 
 1527      5F7400
 1528              	.LASF43:
 1529 00bf 72656761 		.ascii	"regarm_t\000"
 1529      726D5F74 
 1529      00
 1530              	.LASF50:
 1531 00c8 76745F70 		.ascii	"vt_prev\000"
 1531      72657600 
 1532              	.LASF77:
 1533 00d0 474E5520 		.ascii	"GNU C 4.8.2 -mcpu=cortex-m3 -mno-thumb-interwork -m"
 1533      4320342E 
 1533      382E3220 
 1533      2D6D6370 
 1533      753D636F 
 1534 0103 7468756D 		.ascii	"thumb -ggdb -O2 -std=gnu99 -fomit-frame-pointer -fa"
 1534      62202D67 
 1534      67646220 
 1534      2D4F3220 
 1534      2D737464 
 1535 0136 6C69676E 		.ascii	"lign-functions=16 -ffunction-sections -fdata-sectio"
 1535      2D66756E 
 1535      6374696F 
 1535      6E733D31 
 1535      36202D66 
 1536 0169 6E73202D 		.ascii	"ns -fno-common\000"
 1536      666E6F2D 
 1536      636F6D6D 
 1536      6F6E00
ARM GAS  /tmp/ccxyk6D9.s 			page 29


 1537              	.LASF62:
 1538 0178 4576656E 		.ascii	"EventSource\000"
 1538      74536F75 
 1538      72636500 
 1539              	.LASF0:
 1540 0184 756E7369 		.ascii	"unsigned int\000"
 1540      676E6564 
 1540      20696E74 
 1540      00
 1541              	.LASF49:
 1542 0191 76745F6E 		.ascii	"vt_next\000"
 1542      65787400 
 1543              	.LASF9:
 1544 0199 6C6F6E67 		.ascii	"long unsigned int\000"
 1544      20756E73 
 1544      69676E65 
 1544      6420696E 
 1544      7400
 1545              	.LASF47:
 1546 01ab 76746675 		.ascii	"vtfunc_t\000"
 1546      6E635F74 
 1546      00
 1547              	.LASF45:
 1548 01b4 636F6E74 		.ascii	"context\000"
 1548      65787400 
 1549              	.LASF4:
 1550 01bc 73686F72 		.ascii	"short unsigned int\000"
 1550      7420756E 
 1550      7369676E 
 1550      65642069 
 1550      6E7400
 1551              	.LASF19:
 1552 01cf 6D73675F 		.ascii	"msg_t\000"
 1552      7400
 1553              	.LASF59:
 1554 01d5 656C5F6E 		.ascii	"el_next\000"
 1554      65787400 
 1555              	.LASF15:
 1556 01dd 746D6F64 		.ascii	"tmode_t\000"
 1556      655F7400 
 1557              	.LASF42:
 1558 01e5 54687265 		.ascii	"ThreadsList\000"
 1558      6164734C 
 1558      69737400 
 1559              	.LASF20:
 1560 01f1 6576656E 		.ascii	"eventmask_t\000"
 1560      746D6173 
 1560      6B5F7400 
 1561              	.LASF54:
 1562 01fd 4D757465 		.ascii	"Mutex\000"
 1562      7800
 1563              	.LASF51:
 1564 0203 76745F74 		.ascii	"vt_time\000"
 1564      696D6500 
 1565              	.LASF70:
 1566 020b 65745F65 		.ascii	"et_es\000"
 1566      7300
ARM GAS  /tmp/ccxyk6D9.s 			page 30


 1567              	.LASF46:
 1568 0211 73697A65 		.ascii	"sizetype\000"
 1568      74797065 
 1568      00
 1569              	.LASF52:
 1570 021a 76745F66 		.ascii	"vt_func\000"
 1570      756E6300 
 1571              	.LASF76:
 1572 0222 63685654 		.ascii	"chVTSetI\000"
 1572      53657449 
 1572      00
 1573              	.LASF28:
 1574 022b 705F6F6C 		.ascii	"p_older\000"
 1574      64657200 
 1575              	.LASF41:
 1576 0233 54687265 		.ascii	"ThreadsQueue\000"
 1576      61647351 
 1576      75657565 
 1576      00
 1577              	.LASF61:
 1578 0240 656C5F6D 		.ascii	"el_mask\000"
 1578      61736B00 
 1579              	.LASF17:
 1580 0248 74726566 		.ascii	"trefs_t\000"
 1580      735F7400 
 1581              	.LASF24:
 1582 0250 705F7072 		.ascii	"p_prev\000"
 1582      657600
 1583              	.LASF18:
 1584 0257 74707269 		.ascii	"tprio_t\000"
 1584      6F5F7400 
 1585              	.LASF13:
 1586 025f 696E7433 		.ascii	"int32_t\000"
 1586      325F7400 
 1587              	.LASF2:
 1588 0267 756E7369 		.ascii	"unsigned char\000"
 1588      676E6564 
 1588      20636861 
 1588      7200
 1589              	.LASF60:
 1590 0275 656C5F6C 		.ascii	"el_listener\000"
 1590      69737465 
 1590      6E657200 
 1591              	.LASF38:
 1592 0281 705F6D74 		.ascii	"p_mtxlist\000"
 1592      786C6973 
 1592      7400
 1593              	.LASF3:
 1594 028b 73686F72 		.ascii	"short int\000"
 1594      7420696E 
 1594      7400
 1595              	.LASF30:
 1596 0295 705F7374 		.ascii	"p_state\000"
 1596      61746500 
 1597              	.LASF67:
 1598 029d 65776D61 		.ascii	"ewmask\000"
 1598      736B00
ARM GAS  /tmp/ccxyk6D9.s 			page 31


 1599              	.LASF23:
 1600 02a4 705F6E65 		.ascii	"p_next\000"
 1600      787400
 1601              	.LASF31:
 1602 02ab 705F666C 		.ascii	"p_flags\000"
 1602      61677300 
 1603              	.LASF22:
 1604 02b3 54687265 		.ascii	"Thread\000"
 1604      616400
 1605              	.LASF81:
 1606 02ba 63685654 		.ascii	"chVTResetI\000"
 1606      52657365 
 1606      744900
 1607              	.LASF37:
 1608 02c5 705F6570 		.ascii	"p_epending\000"
 1608      656E6469 
 1608      6E6700
 1609              	.LASF14:
 1610 02d0 75696E74 		.ascii	"uint32_t\000"
 1610      33325F74 
 1610      00
 1611              	.LASF48:
 1612 02d9 56697274 		.ascii	"VirtualTimer\000"
 1612      75616C54 
 1612      696D6572 
 1612      00
 1613              	.LASF68:
 1614 02e6 63686172 		.ascii	"char\000"
 1614      00
 1615              	.LASF80:
 1616 02eb 746D7263 		.ascii	"tmrcb\000"
 1616      6200
 1617              	.LASF57:
 1618 02f1 6D5F6E65 		.ascii	"m_next\000"
 1618      787400
 1619              	.LASF21:
 1620 02f8 73797374 		.ascii	"systime_t\000"
 1620      696D655F 
 1620      7400
 1621              	.LASF39:
 1622 0302 705F7265 		.ascii	"p_realprio\000"
 1622      616C7072 
 1622      696F00
 1623              	.LASF6:
 1624 030d 5F5F696E 		.ascii	"__int32_t\000"
 1624      7433325F 
 1624      7400
 1625              	.LASF74:
 1626 0317 65767453 		.ascii	"evtStop\000"
 1626      746F7000 
 1627              	.LASF33:
 1628 031f 705F7469 		.ascii	"p_time\000"
 1628      6D6500
 1629              	.LASF44:
 1630 0326 696E7463 		.ascii	"intctx\000"
 1630      747800
 1631              	.LASF35:
ARM GAS  /tmp/ccxyk6D9.s 			page 32


 1632 032d 705F6D73 		.ascii	"p_msgqueue\000"
 1632      67717565 
 1632      756500
 1633              	.LASF53:
 1634 0338 76745F70 		.ascii	"vt_par\000"
 1634      617200
 1635              	.LASF32:
 1636 033f 705F7265 		.ascii	"p_refs\000"
 1636      667300
 1637              	.LASF12:
 1638 0346 75696E74 		.ascii	"uint8_t\000"
 1638      385F7400 
 1639              	.LASF79:
 1640 034e 2F686F6D 		.ascii	"/home/cata/Documentos/Embebidos/ChibiOS/iflab_code/"
 1640      652F6361 
 1640      74612F44 
 1640      6F63756D 
 1640      656E746F 
 1641 0381 626C696E 		.ascii	"blink\000"
 1641      6B00
 1642              	.LASF58:
 1643 0387 4576656E 		.ascii	"EventListener\000"
 1643      744C6973 
 1643      74656E65 
 1643      7200
 1644              	.LASF66:
 1645 0395 77746F62 		.ascii	"wtobjp\000"
 1645      6A7000
 1646              	.LASF29:
 1647 039c 705F6E61 		.ascii	"p_name\000"
 1647      6D6500
 1648              	.LASF63:
 1649 03a3 65735F6E 		.ascii	"es_next\000"
 1649      65787400 
 1650              	.LASF69:
 1651 03ab 65745F76 		.ascii	"et_vt\000"
 1651      7400
 1652              	.LASF56:
 1653 03b1 6D5F6F77 		.ascii	"m_owner\000"
 1653      6E657200 
 1654              	.LASF26:
 1655 03b9 705F6374 		.ascii	"p_ctx\000"
 1655      7800
 1656              	.LASF34:
 1657 03bf 705F7761 		.ascii	"p_waiting\000"
 1657      6974696E 
 1657      6700
 1658              	.LASF78:
 1659 03c9 2E2E2F2E 		.ascii	"../../os/various/evtimer.c\000"
 1659      2E2F6F73 
 1659      2F766172 
 1659      696F7573 
 1659      2F657674 
 1660              		.ident	"GCC: (4.8.2-14ubuntu1+6) 4.8.2"
ARM GAS  /tmp/ccxyk6D9.s 			page 33


DEFINED SYMBOLS
                            *ABS*:0000000000000000 evtimer.c
     /tmp/ccxyk6D9.s:19     .text.tmrcb:0000000000000000 $t
     /tmp/ccxyk6D9.s:24     .text.tmrcb:0000000000000000 tmrcb
     /tmp/ccxyk6D9.s:62     .text.evtStart:0000000000000000 $t
     /tmp/ccxyk6D9.s:68     .text.evtStart:0000000000000000 evtStart
     /tmp/ccxyk6D9.s:120    .text.evtStop:0000000000000000 $t
     /tmp/ccxyk6D9.s:126    .text.evtStop:0000000000000000 evtStop
                     .debug_frame:0000000000000010 $d

UNDEFINED SYMBOLS
chEvtBroadcastFlagsI
chVTSetI
chVTResetI
